what,kind,bundleId,bundleVersion,description,time
executed,command,org.eclipse.ui.workbench.texteditor,3.4.1.r341_v20080827-1100,org.eclipse.ui.edit.text.goto.wordNext,1293263892890
executed,command,org.eclipse.ui.workbench.texteditor,3.4.1.r341_v20080827-1100,org.eclipse.ui.edit.text.goto.wordNext,1293263893109
executed,command,org.eclipse.ui.workbench.texteditor,3.4.1.r341_v20080827-1100,org.eclipse.ui.edit.text.goto.wordNext,1293263893609
executed,command,org.eclipse.ui.workbench.texteditor,3.4.1.r341_v20080827-1100,org.eclipse.ui.edit.text.goto.wordPrevious,1293263895562
executed,command,org.eclipse.ui,3.4.2.M20090204-0800,org.eclipse.ui.edit.delete,1293263896468
executed,command,org.eclipse.ui,3.4.2.M20090204-0800,org.eclipse.ui.edit.delete,1293263897125
executed,command,org.eclipse.ui,3.4.2.M20090204-0800,org.eclipse.ui.edit.delete,1293263897328
executed,command,org.eclipse.ui,3.4.2.M20090204-0800,org.eclipse.ui.edit.delete,1293263897500
executed,command,org.eclipse.ui,3.4.2.M20090204-0800,org.eclipse.ui.edit.delete,1293263897687
executed,command,org.eclipse.ui,3.4.2.M20090204-0800,org.eclipse.ui.edit.delete,1293263897875
executed,command,org.eclipse.ui.workbench.texteditor,3.4.1.r341_v20080827-1100,org.eclipse.ui.edit.text.goto.wordPrevious,1293263899171
executed,command,org.eclipse.ui.workbench.texteditor,3.4.1.r341_v20080827-1100,org.eclipse.ui.edit.text.goto.wordPrevious,1293263899375
executed,command,org.eclipse.ui.workbench.texteditor,3.4.1.r341_v20080827-1100,org.eclipse.ui.edit.text.goto.wordPrevious,1293263899578
executed,command,org.eclipse.ui.workbench.texteditor,3.4.1.r341_v20080827-1100,org.eclipse.ui.edit.text.goto.wordPrevious,1293263899750
executed,command,org.eclipse.ui.workbench.texteditor,3.4.1.r341_v20080827-1100,org.eclipse.ui.edit.text.goto.wordNext,1293263902500
executed,command,org.eclipse.ui.workbench.texteditor,3.4.1.r341_v20080827-1100,org.eclipse.ui.edit.text.goto.wordNext,1293263903031
executed,command,org.eclipse.ui.workbench.texteditor,3.4.1.r341_v20080827-1100,org.eclipse.ui.edit.text.goto.wordNext,1293263903062
executed,command,org.eclipse.ui.workbench.texteditor,3.4.1.r341_v20080827-1100,org.eclipse.ui.edit.text.goto.wordNext,1293263903109
executed,command,org.eclipse.ui,3.4.2.M20090204-0800,org.eclipse.ui.file.save,1293263903500
executed,command,org.eclipse.ui.workbench.texteditor,3.4.1.r341_v20080827-1100,org.eclipse.ui.edit.text.goto.wordNext,1293263904656
executed,command,org.eclipse.ui.workbench.texteditor,3.4.1.r341_v20080827-1100,org.eclipse.ui.edit.text.goto.wordNext,1293263905765
executed,command,org.eclipse.ui.workbench.texteditor,3.4.1.r341_v20080827-1100,org.eclipse.ui.edit.text.goto.wordNext,1293263906171
executed,command,org.eclipse.ui.workbench.texteditor,3.4.1.r341_v20080827-1100,org.eclipse.ui.edit.text.goto.wordNext,1293263906421
executed,command,org.eclipse.ui.workbench.texteditor,3.4.1.r341_v20080827-1100,org.eclipse.ui.edit.text.select.wordNext,1293263906781
executed,command,org.eclipse.ui,3.4.2.M20090204-0800,org.eclipse.ui.file.save,1293263910093
