what,kind,bundleId,bundleVersion,description,time
started,bundle,org.eclipse.wst.jsdt.manipulation,1.0.1.v200807241900,org.eclipse.wst.jsdt.manipulation,1293134783406
started,bundle,org.eclipse.wst.jsdt.ui,1.0.104.v200901290004,org.eclipse.wst.jsdt.ui,1293134783406
started,bundle,org.eclipse.wst.sse.core,1.1.303.v200901290024,org.eclipse.wst.sse.core,1293134783406
started,bundle,org.eclipse.wst.validation,1.2.6.v200902121900,org.eclipse.wst.validation,1293134783406
started,bundle,org.eclipse.wst.web,1.1.206.v200812100430,org.eclipse.wst.web,1293134783406
started,bundle,org.eclipse.wst.ws.service.policy.ui,1.0.2.v200809031518,org.eclipse.wst.ws.service.policy.ui,1293134783406
started,bundle,org.eclipse.wst.xml.core,1.1.307.v200812040936,org.eclipse.wst.xml.core,1293134783406
started,bundle,com.google.appengine.eclipse.core,1.0.0.v200904062334,com.google.appengine.eclipse.core,1293134783406
started,bundle,com.google.appengine.eclipse.sdkbundle,1.2.0.v200904062334,com.google.appengine.eclipse.sdkbundle,1293134783406
started,bundle,com.google.gdt.eclipse.core,1.0.0.v200904062334,com.google.gdt.eclipse.core,1293134783406
started,bundle,com.google.gdt.eclipse.suite,1.0.0.v200904062334,com.google.gdt.eclipse.suite,1293134783406
started,bundle,com.google.gwt.eclipse.core,1.0.0.v200904062334,com.google.gwt.eclipse.core,1293134783406
started,bundle,com.google.gwt.eclipse.sdkbundle.win32,1.6.4.v200904062334,com.google.gwt.eclipse.sdkbundle.win32,1293134783406
started,bundle,org.tigris.subversion.clientadapter,1.5.3,org.tigris.subversion.clientadapter,1293134783406
started,bundle,org.tigris.subversion.subclipse.core,1.4.8,org.tigris.subversion.subclipse.core,1293134783406
started,bundle,org.tigris.subversion.subclipse.ui,1.4.8,org.tigris.subversion.subclipse.ui,1293134783406
started,bundle,com.instantiations.eclipse.debug,6.0.0.r34x201009131414,com.instantiations.eclipse.debug,1293134783406
started,bundle,com.instantiations.eclipse.startup,6.0.0.r34x201009131414,com.instantiations.eclipse.startup,1293134783406
started,bundle,com.instantiations.eclipse.usageprofiler,6.0.0.r34x201009131414,com.instantiations.eclipse.usageprofiler,1293134783406
started,bundle,com.instantiations.eclipse.usageprofiler.ui,6.0.0.r34x201009131414,com.instantiations.eclipse.usageprofiler.ui,1293134783406
started,bundle,com.instantiations.eclipse.util,6.0.0.r34x201009131414,com.instantiations.eclipse.util,1293134783406
activated,view,org.eclipse.ui.navigator.resources,3.3.101.M20080910-0800,org.eclipse.ui.navigator.ProjectExplorer,1293134786109
activated,view,org.eclipse.ui.navigator.resources,3.3.101.M20080910-0800,org.eclipse.ui.navigator.ProjectExplorer,1293134786125
closed,view,org.eclipse.ui,3.4.2.M20090204-0800,org.eclipse.ui.internal.introview,1293134786171
deactivated,workbench,org.eclipse.ui.workbench,3.4.2.M20090127-1700,,1293134798296
