what,kind,bundleId,bundleVersion,description,time
executed,command,org.eclipse.ui,3.4.2.M20090204-0800,org.eclipse.ui.file.save,1293202885296
executed,command,org.eclipse.ui.workbench.texteditor,3.4.1.r341_v20080827-1100,org.eclipse.ui.edit.text.goto.lineEnd,1293202888171
executed,command,org.eclipse.ui,3.4.2.M20090204-0800,org.eclipse.ui.file.save,1293202890390
executed,command,org.eclipse.ui,3.4.2.M20090204-0800,org.eclipse.ui.file.save,1293202903171
executed,command,org.eclipse.ui.workbench.texteditor,3.4.1.r341_v20080827-1100,org.eclipse.ui.edit.text.goto.wordNext,1293202904890
executed,command,org.eclipse.ui.workbench.texteditor,3.4.1.r341_v20080827-1100,org.eclipse.ui.edit.text.goto.lineStart,1293202908531
executed,command,org.eclipse.ui,3.4.2.M20090204-0800,org.eclipse.ui.edit.copy,1293202910656
executed,command,org.eclipse.ui,3.4.2.M20090204-0800,org.eclipse.ui.edit.delete,1293202916171
executed,command,org.eclipse.ui,3.4.2.M20090204-0800,org.eclipse.ui.edit.paste,1293202917234
executed,command,org.eclipse.ui,3.4.2.M20090204-0800,org.eclipse.ui.file.save,1293202917656
executed,command,org.eclipse.ui.workbench.texteditor,3.4.1.r341_v20080827-1100,org.eclipse.ui.edit.text.goto.lineStart,1293202925015
executed,command,org.eclipse.ui,3.4.2.M20090204-0800,org.eclipse.ui.edit.text.contentAssist.proposals,1293202928203
executed,command,org.eclipse.ui,3.4.2.M20090204-0800,org.eclipse.ui.edit.text.contentAssist.proposals,1293202933937
executed,command,org.eclipse.ui.workbench.texteditor,3.4.1.r341_v20080827-1100,org.eclipse.ui.edit.text.goto.wordPrevious,1293202944468
executed,command,org.eclipse.ui.workbench.texteditor,3.4.1.r341_v20080827-1100,org.eclipse.ui.edit.text.goto.wordPrevious,1293202945015
executed,command,org.eclipse.ui.workbench.texteditor,3.4.1.r341_v20080827-1100,org.eclipse.ui.edit.text.goto.wordPrevious,1293202945046
executed,command,org.eclipse.ui.workbench.texteditor,3.4.1.r341_v20080827-1100,org.eclipse.ui.edit.text.goto.wordPrevious,1293202945078
executed,command,org.eclipse.ui.workbench.texteditor,3.4.1.r341_v20080827-1100,org.eclipse.ui.edit.text.goto.wordPrevious,1293202945109
executed,command,org.eclipse.ui.workbench.texteditor,3.4.1.r341_v20080827-1100,org.eclipse.ui.edit.text.goto.wordPrevious,1293202945359
executed,command,org.eclipse.ui.workbench.texteditor,3.4.1.r341_v20080827-1100,org.eclipse.ui.edit.text.goto.wordPrevious,1293202945562
executed,command,org.eclipse.ui.workbench.texteditor,3.4.1.r341_v20080827-1100,org.eclipse.ui.edit.text.goto.wordNext,1293202945828
executed,command,org.eclipse.ui.workbench.texteditor,3.4.1.r341_v20080827-1100,org.eclipse.ui.edit.text.goto.lineEnd,1293202948171
executed,command,org.eclipse.ui,3.4.2.M20090204-0800,org.eclipse.ui.edit.text.contentAssist.proposals,1293202953875
executed,command,org.eclipse.ui,3.4.2.M20090204-0800,org.eclipse.ui.file.save,1293202960312
executed,command,org.eclipse.ui.workbench.texteditor,3.4.1.r341_v20080827-1100,org.eclipse.ui.edit.text.goto.lineStart,1293202961000
