what,kind,bundleId,bundleVersion,description,time
executed,command,org.eclipse.ui,3.6.1.M20100826-1330,"org.eclipse.ui.edit.paste",1294593614255
executed,command,org.eclipse.ui,3.6.1.M20100826-1330,"org.eclipse.ui.edit.copy",1294593624989
executed,command,org.eclipse.ui,3.6.1.M20100826-1330,"org.eclipse.ui.edit.paste",1294593626755
executed,command,org.eclipse.ui,3.6.1.M20100826-1330,"org.eclipse.ui.edit.copy",1294593651583
executed,command,org.eclipse.ui,3.6.1.M20100826-1330,"org.eclipse.ui.edit.paste",1294593651739
deactivated,workbench,org.eclipse.ui.workbench,3.6.1.M20100826-1330,"",1294593695380
activated,workbench,org.eclipse.ui.workbench,3.6.1.M20100826-1330,"",1294593700583
deactivated,workbench,org.eclipse.ui.workbench,3.6.1.M20100826-1330,"",1294593700661
activated,workbench,org.eclipse.ui.workbench,3.6.1.M20100826-1330,"",1294593718271
no handler,command,org.eclipse.ui,3.6.1.M20100826-1330,"org.eclipse.ui.edit.undo",1294593732474
executed,command,org.eclipse.ui,3.6.1.M20100826-1330,"org.eclipse.ui.edit.copy",1294593785302
executed,command,org.eclipse.ui,3.6.1.M20100826-1330,"org.eclipse.ui.edit.paste",1294593789068
deactivated,workbench,org.eclipse.ui.workbench,3.6.1.M20100826-1330,"",1294593796833
activated,workbench,org.eclipse.ui.workbench,3.6.1.M20100826-1330,"",1294593805411
executed,command,org.eclipse.ui,3.6.1.M20100826-1330,"org.eclipse.ui.edit.delete",1294593905896
executed,command,org.eclipse.ui,3.6.1.M20100826-1330,"org.eclipse.ui.edit.delete",1294593917943
executed,command,org.eclipse.ui,3.6.1.M20100826-1330,"org.eclipse.ui.edit.copy",1294593979661
executed,command,org.eclipse.ui,3.6.1.M20100826-1330,"org.eclipse.ui.edit.paste",1294593982396
executed,command,org.eclipse.ui.workbench.texteditor,3.6.1.r361_v20100714-0800,"org.eclipse.ui.edit.text.goto.wordNext",1294594024068
executed,command,org.eclipse.ui.workbench.texteditor,3.6.1.r361_v20100714-0800,"org.eclipse.ui.edit.text.goto.wordNext",1294594024614
executed,command,org.eclipse.ui.workbench.texteditor,3.6.1.r361_v20100714-0800,"org.eclipse.ui.edit.text.goto.wordNext",1294594024646
executed,command,org.eclipse.ui.workbench.texteditor,3.6.1.r361_v20100714-0800,"org.eclipse.ui.edit.text.goto.wordNext",1294594024677
executed,command,org.eclipse.ui.workbench.texteditor,3.6.1.r361_v20100714-0800,"org.eclipse.ui.edit.text.goto.wordNext",1294594024708
executed,command,org.eclipse.ui.workbench.texteditor,3.6.1.r361_v20100714-0800,"org.eclipse.ui.edit.text.goto.wordNext",1294594024739
executed,command,org.eclipse.ui.workbench.texteditor,3.6.1.r361_v20100714-0800,"org.eclipse.ui.edit.text.select.wordNext",1294594025786
executed,command,org.eclipse.ui.workbench.texteditor,3.6.1.r361_v20100714-0800,"org.eclipse.ui.edit.text.select.wordNext",1294594025958
executed,command,org.eclipse.ui.workbench.texteditor,3.6.1.r361_v20100714-0800,"org.eclipse.ui.edit.text.select.wordNext",1294594026146
executed,command,org.eclipse.ui.workbench.texteditor,3.6.1.r361_v20100714-0800,"org.eclipse.ui.edit.text.select.wordNext",1294594026333
executed,command,org.eclipse.ui.workbench.texteditor,3.6.1.r361_v20100714-0800,"org.eclipse.ui.edit.text.select.wordPrevious",1294594026661
executed,command,org.eclipse.ui,3.6.1.M20100826-1330,"org.eclipse.ui.edit.copy",1294594029708
deactivated,workbench,org.eclipse.ui.workbench,3.6.1.M20100826-1330,"",1294594030974
activated,workbench,org.eclipse.ui.workbench,3.6.1.M20100826-1330,"",1294594032146
executed,command,org.eclipse.search,3.6.0.v20100520-0800,"org.eclipse.search.ui.openSearchDialog",1294594032224
deactivated,workbench,org.eclipse.ui.workbench,3.6.1.M20100826-1330,"",1294594032646
executed,command,org.eclipse.ui,3.6.1.M20100826-1330,"org.eclipse.ui.edit.findReplace",1294594032677
activated,workbench,org.eclipse.ui.workbench,3.6.1.M20100826-1330,"",1294594047021
executed,command,org.eclipse.ui,3.6.1.M20100826-1330,"org.eclipse.ui.file.save",1294594047818
deactivated,workbench,org.eclipse.ui.workbench,3.6.1.M20100826-1330,"",1294594050146
activated,workbench,org.eclipse.ui.workbench,3.6.1.M20100826-1330,"",1294594051130
deactivated,workbench,org.eclipse.ui.workbench,3.6.1.M20100826-1330,"",1294594075443
activated,workbench,org.eclipse.ui.workbench,3.6.1.M20100826-1330,"",1294594084646
started,bundle,org.eclipse.wst.server.core,1.1.204.v20100908,"org.eclipse.wst.server.core",1294594088099
started,bundle,org.eclipse.wst.server.ui,1.1.205.v20100908,"org.eclipse.wst.server.ui",1294594088114
opened,view,org.eclipse.ui.ide,3.6.1.M20100825-0800,"org.eclipse.ui.views.ProblemView",1294594095489
activated,view,org.eclipse.jdt.ui,3.6.1.r361_v20100825-0800,"org.eclipse.jdt.ui.PackageExplorer",1294594098802
started,bundle,org.eclipse.wst.ws.service.policy.ui,1.0.202.v201004211732,"org.eclipse.wst.ws.service.policy.ui",1294594103568
started,bundle,org.eclipse.wst.ws.service.policy,1.0.203.v201004211732,"org.eclipse.wst.ws.service.policy",1294594103583
started,bundle,org.eclipse.wst.command.env,1.0.409.v201004211805,"org.eclipse.wst.command.env",1294594103661
started,bundle,org.eclipse.wst.ws,1.1.203.v201004211805,"org.eclipse.wst.ws",1294594103661
started,bundle,org.eclipse.jst.server.core,1.2.101.v20100421,"org.eclipse.jst.server.core",1294594103755
started,bundle,org.eclipse.jst.jee,1.0.301.v201007151900,"org.eclipse.jst.jee",1294594103786
deactivated,workbench,org.eclipse.ui.workbench,3.6.1.M20100826-1330,"",1294594103989
activated,workbench,org.eclipse.ui.workbench,3.6.1.M20100826-1330,"",1294594124755
activated,editor,com.instantiations.designer.core.ui,,"com.instantiations.designer.core.guiEditor",1294594127661
deactivated,workbench,org.eclipse.ui.workbench,3.6.1.M20100826-1330,"",1294594136427
activated,workbench,org.eclipse.ui.workbench,3.6.1.M20100826-1330,"",1294594143943
activated,view,org.eclipse.jdt.ui,3.6.1.r361_v20100825-0800,"org.eclipse.jdt.ui.PackageExplorer",1294594145052
executed,command,org.eclipse.ui,3.6.1.M20100826-1330,"org.eclipse.ui.file.refresh",1294594145880
activated,editor,com.instantiations.designer.core.ui,,"com.instantiations.designer.core.guiEditor",1294594152536
deactivated,workbench,org.eclipse.ui.workbench,3.6.1.M20100826-1330,"",1294594170489
activated,workbench,org.eclipse.ui.workbench,3.6.1.M20100826-1330,"",1294594219880
deactivated,workbench,org.eclipse.ui.workbench,3.6.1.M20100826-1330,"",1294594236521
executed,command,org.eclipse.ui,3.6.1.M20100826-1330,"org.eclipse.ui.edit.findReplace",1294594236552
activated,workbench,org.eclipse.ui.workbench,3.6.1.M20100826-1330,"",1294594237349
deactivated,workbench,org.eclipse.ui.workbench,3.6.1.M20100826-1330,"",1294594257989
activated,workbench,org.eclipse.ui.workbench,3.6.1.M20100826-1330,"",1294594267239
deactivated,workbench,org.eclipse.ui.workbench,3.6.1.M20100826-1330,"",1294594284724
activated,workbench,org.eclipse.ui.workbench,3.6.1.M20100826-1330,"",1294594298943
executed,command,org.eclipse.ui,3.6.1.M20100826-1330,"org.eclipse.ui.file.save",1294594305474
deactivated,workbench,org.eclipse.ui.workbench,3.6.1.M20100826-1330,"",1294594307927
executed,command,org.eclipse.ui,3.6.1.M20100826-1330,"org.eclipse.ui.edit.findReplace",1294594307974
activated,workbench,org.eclipse.ui.workbench,3.6.1.M20100826-1330,"",1294594311583
executed,command,org.eclipse.ui,3.6.1.M20100826-1330,"org.eclipse.ui.file.save",1294594312146
deactivated,workbench,org.eclipse.ui.workbench,3.6.1.M20100826-1330,"",1294594315771
activated,workbench,org.eclipse.ui.workbench,3.6.1.M20100826-1330,"",1294594316755
deactivated,workbench,org.eclipse.ui.workbench,3.6.1.M20100826-1330,"",1294594333708
activated,workbench,org.eclipse.ui.workbench,3.6.1.M20100826-1330,"",1294594338239
executed,command,org.eclipse.ui,3.6.1.M20100826-1330,"org.eclipse.ui.window.nextEditor",1294594338349
deactivated,workbench,org.eclipse.ui.workbench,3.6.1.M20100826-1330,"",1294594368130
activated,workbench,org.eclipse.ui.workbench,3.6.1.M20100826-1330,"",1294594428958
executed,command,org.eclipse.ui,3.6.1.M20100826-1330,"org.eclipse.ui.edit.undo",1294594435911
deactivated,workbench,org.eclipse.ui.workbench,3.6.1.M20100826-1330,"",1294594436099
activated,workbench,org.eclipse.ui.workbench,3.6.1.M20100826-1330,"",1294594437052
deactivated,workbench,org.eclipse.ui.workbench,3.6.1.M20100826-1330,"",1294594467193
activated,workbench,org.eclipse.ui.workbench,3.6.1.M20100826-1330,"",1294594478224
deactivated,workbench,org.eclipse.ui.workbench,3.6.1.M20100826-1330,"",1294594478708
activated,workbench,org.eclipse.ui.workbench,3.6.1.M20100826-1330,"",1294594479411
deactivated,workbench,org.eclipse.ui.workbench,3.6.1.M20100826-1330,"",1294594516896
activated,workbench,org.eclipse.ui.workbench,3.6.1.M20100826-1330,"",1294594552114
deactivated,workbench,org.eclipse.ui.workbench,3.6.1.M20100826-1330,"",1294594585083
activated,workbench,org.eclipse.ui.workbench,3.6.1.M20100826-1330,"",1294594590427
executed,command,org.eclipse.ui,3.6.1.M20100826-1330,"org.eclipse.ui.edit.undo",1294594645443
deactivated,workbench,org.eclipse.ui.workbench,3.6.1.M20100826-1330,"",1294594645614
activated,workbench,org.eclipse.ui.workbench,3.6.1.M20100826-1330,"",1294594647380
executed,command,org.eclipse.ui,3.6.1.M20100826-1330,"org.eclipse.ui.edit.undo",1294594648052
deactivated,workbench,org.eclipse.ui.workbench,3.6.1.M20100826-1330,"",1294594648177
activated,workbench,org.eclipse.ui.workbench,3.6.1.M20100826-1330,"",1294594649271
executed,command,org.eclipse.ui,3.6.1.M20100826-1330,"org.eclipse.ui.edit.undo",1294594650880
deactivated,workbench,org.eclipse.ui.workbench,3.6.1.M20100826-1330,"",1294594651052
activated,workbench,org.eclipse.ui.workbench,3.6.1.M20100826-1330,"",1294594652130
deactivated,workbench,org.eclipse.ui.workbench,3.6.1.M20100826-1330,"",1294594696021
activated,workbench,org.eclipse.ui.workbench,3.6.1.M20100826-1330,"",1294594697083
executed,command,org.eclipse.ui,3.6.1.M20100826-1330,"org.eclipse.ui.file.refresh",1294594697505
deactivated,workbench,org.eclipse.ui.workbench,3.6.1.M20100826-1330,"",1294594700208
activated,workbench,org.eclipse.ui.workbench,3.6.1.M20100826-1330,"",1294594704021
deactivated,workbench,org.eclipse.ui.workbench,3.6.1.M20100826-1330,"",1294594705911
activated,workbench,org.eclipse.ui.workbench,3.6.1.M20100826-1330,"",1294594711083
deactivated,workbench,org.eclipse.ui.workbench,3.6.1.M20100826-1330,"",1294594712661
activated,workbench,org.eclipse.ui.workbench,3.6.1.M20100826-1330,"",1294595174255
deactivated,workbench,org.eclipse.ui.workbench,3.6.1.M20100826-1330,"",1294595180505
activated,workbench,org.eclipse.ui.workbench,3.6.1.M20100826-1330,"",1294595200411
deactivated,workbench,org.eclipse.ui.workbench,3.6.1.M20100826-1330,"",1294595219333
activated,workbench,org.eclipse.ui.workbench,3.6.1.M20100826-1330,"",1294595222833
deactivated,workbench,org.eclipse.ui.workbench,3.6.1.M20100826-1330,"",1294595225349
activated,workbench,org.eclipse.ui.workbench,3.6.1.M20100826-1330,"",1294595265161
deactivated,workbench,org.eclipse.ui.workbench,3.6.1.M20100826-1330,"",1294595265427
activated,workbench,org.eclipse.ui.workbench,3.6.1.M20100826-1330,"",1294595273489
deactivated,workbench,org.eclipse.ui.workbench,3.6.1.M20100826-1330,"",1294595290318
activated,workbench,org.eclipse.ui.workbench,3.6.1.M20100826-1330,"",1294595309333
deactivated,workbench,org.eclipse.ui.workbench,3.6.1.M20100826-1330,"",1294595323864
activated,workbench,org.eclipse.ui.workbench,3.6.1.M20100826-1330,"",1294595325083
deactivated,workbench,org.eclipse.ui.workbench,3.6.1.M20100826-1330,"",1294595325677
activated,workbench,org.eclipse.ui.workbench,3.6.1.M20100826-1330,"",1294595420130
deactivated,workbench,org.eclipse.ui.workbench,3.6.1.M20100826-1330,"",1294595424052
activated,workbench,org.eclipse.ui.workbench,3.6.1.M20100826-1330,"",1294595425505
deactivated,workbench,org.eclipse.ui.workbench,3.6.1.M20100826-1330,"",1294595455364
activated,workbench,org.eclipse.ui.workbench,3.6.1.M20100826-1330,"",1294595467099
deactivated,workbench,org.eclipse.ui.workbench,3.6.1.M20100826-1330,"",1294595539286
activated,workbench,org.eclipse.ui.workbench,3.6.1.M20100826-1330,"",1294595539318
executed,command,org.eclipse.ui,3.6.1.M20100826-1330,"org.eclipse.ui.edit.undo",1294595577693
executed,command,org.eclipse.ui.workbench.texteditor,3.6.1.r361_v20100714-0800,"org.eclipse.ui.edit.text.select.lineEnd",1294595583489
executed,command,org.eclipse.ui,3.6.1.M20100826-1330,"org.eclipse.ui.edit.copy",1294595585630
deactivated,workbench,org.eclipse.ui.workbench,3.6.1.M20100826-1330,"",1294595586880
executed,command,org.eclipse.ui,3.6.1.M20100826-1330,"org.eclipse.ui.edit.findReplace",1294595586896
executed,command,org.eclipse.ui,3.6.1.M20100826-1330,"org.eclipse.ui.edit.paste",1294595588849
activated,workbench,org.eclipse.ui.workbench,3.6.1.M20100826-1330,"",1294595616896
executed,command,org.eclipse.ui,3.6.1.M20100826-1330,"org.eclipse.ui.file.save",1294595619099
deactivated,workbench,org.eclipse.ui.workbench,3.6.1.M20100826-1330,"",1294595622974
activated,workbench,org.eclipse.ui.workbench,3.6.1.M20100826-1330,"",1294595624068
deactivated,workbench,org.eclipse.ui.workbench,3.6.1.M20100826-1330,"",1294595662021
activated,workbench,org.eclipse.ui.workbench,3.6.1.M20100826-1330,"",1294595664693
executed,command,org.eclipse.ui,3.6.1.M20100826-1330,"org.eclipse.ui.file.save",1294595756177
executed,command,org.eclipse.ui.workbench.texteditor,3.6.1.r361_v20100714-0800,"org.eclipse.ui.edit.text.goto.lineEnd",1294595764271
started,bundle,org.eclipse.mylyn.ide.ui,3.4.0.v20100608-0100-e3x,"org.eclipse.mylyn.ide.ui",1294595766489
started,bundle,org.eclipse.jst.ws.jaxws.ui,1.0.1.v201008232129,"org.eclipse.jst.ws.jaxws.ui",1294595766521
started,bundle,org.eclipse.mylyn.java.ui,3.4.0.v20100608-0100-e3x,"org.eclipse.mylyn.java.ui",1294595766552
started,bundle,org.eclipse.pde.api.tools,1.0.202.v20100820_r361,"org.eclipse.pde.api.tools",1294595767583
started,bundle,org.eclipse.pde.api.tools.ui,1.0.201.v20100820_r361,"org.eclipse.pde.api.tools.ui",1294595767599
executed,command,org.eclipse.ui,3.6.1.M20100826-1330,"org.eclipse.ui.edit.text.contentAssist.proposals",1294595768114
executed,command,org.eclipse.ui,3.6.1.M20100826-1330,"org.eclipse.ui.edit.text.contentAssist.proposals",1294595781130
executed,command,org.eclipse.ui,3.6.1.M20100826-1330,"org.eclipse.ui.file.save",1294595790693
executed,command,org.eclipse.ui.workbench.texteditor,3.6.1.r361_v20100714-0800,"org.eclipse.ui.edit.text.select.lineStart",1294595793036
executed,command,org.eclipse.ui,3.6.1.M20100826-1330,"org.eclipse.ui.edit.copy",1294595793693
executed,command,org.eclipse.ui.workbench.texteditor,3.6.1.r361_v20100714-0800,"org.eclipse.ui.edit.text.goto.lineStart",1294595799349
executed,command,org.eclipse.ui.workbench.texteditor,3.6.1.r361_v20100714-0800,"org.eclipse.ui.edit.text.goto.lineStart",1294595800255
executed,command,org.eclipse.ui,3.6.1.M20100826-1330,"org.eclipse.ui.edit.copy",1294595801536
executed,command,org.eclipse.ui,3.6.1.M20100826-1330,"org.eclipse.ui.edit.paste",1294595805114
executed,command,org.eclipse.ui,3.6.1.M20100826-1330,"org.eclipse.ui.edit.paste",1294595808380
executed,command,org.eclipse.ui,3.6.1.M20100826-1330,"org.eclipse.ui.edit.paste",1294595810802
executed,command,org.eclipse.ui,3.6.1.M20100826-1330,"org.eclipse.ui.edit.paste",1294595813380
executed,command,org.eclipse.ui,3.6.1.M20100826-1330,"org.eclipse.ui.edit.paste",1294595816302
executed,command,org.eclipse.ui,3.6.1.M20100826-1330,"org.eclipse.ui.edit.paste",1294595819052
executed,command,org.eclipse.ui,3.6.1.M20100826-1330,"org.eclipse.ui.edit.paste",1294595821911
executed,command,org.eclipse.ui,3.6.1.M20100826-1330,"org.eclipse.ui.edit.paste",1294595824630
executed,command,org.eclipse.ui,3.6.1.M20100826-1330,"org.eclipse.ui.edit.paste",1294595827614
executed,command,org.eclipse.ui,3.6.1.M20100826-1330,"org.eclipse.ui.edit.paste",1294595830474
executed,command,org.eclipse.ui,3.6.1.M20100826-1330,"org.eclipse.ui.edit.paste",1294595833099
executed,command,org.eclipse.ui,3.6.1.M20100826-1330,"org.eclipse.ui.edit.paste",1294595839786
executed,command,org.eclipse.ui,3.6.1.M20100826-1330,"org.eclipse.ui.edit.paste",1294595843099
executed,command,org.eclipse.ui,3.6.1.M20100826-1330,"org.eclipse.ui.edit.paste",1294595847193
executed,command,org.eclipse.ui,3.6.1.M20100826-1330,"org.eclipse.ui.edit.paste",1294595850146
executed,command,org.eclipse.ui,3.6.1.M20100826-1330,"org.eclipse.ui.edit.paste",1294595852896
executed,command,org.eclipse.ui,3.6.1.M20100826-1330,"org.eclipse.ui.edit.paste",1294595856130
executed,command,org.eclipse.ui,3.6.1.M20100826-1330,"org.eclipse.ui.edit.paste",1294595859318
executed,command,org.eclipse.ui,3.6.1.M20100826-1330,"org.eclipse.ui.edit.paste",1294595863161
executed,command,org.eclipse.ui,3.6.1.M20100826-1330,"org.eclipse.ui.edit.paste",1294595866271
executed,command,org.eclipse.ui,3.6.1.M20100826-1330,"org.eclipse.ui.edit.paste",1294595870739
executed,command,org.eclipse.ui,3.6.1.M20100826-1330,"org.eclipse.ui.edit.paste",1294595874443
executed,command,org.eclipse.ui,3.6.1.M20100826-1330,"org.eclipse.ui.edit.paste",1294595876036
executed,command,org.eclipse.ui,3.6.1.M20100826-1330,"org.eclipse.ui.edit.paste",1294595879661
executed,command,org.eclipse.ui,3.6.1.M20100826-1330,"org.eclipse.ui.file.save",1294595880849
deactivated,workbench,org.eclipse.ui.workbench,3.6.1.M20100826-1330,"",1294595884005
activated,workbench,org.eclipse.ui.workbench,3.6.1.M20100826-1330,"",1294595885099
deactivated,workbench,org.eclipse.ui.workbench,3.6.1.M20100826-1330,"",1294595894646
activated,workbench,org.eclipse.ui.workbench,3.6.1.M20100826-1330,"",1294595983536
deactivated,workbench,org.eclipse.ui.workbench,3.6.1.M20100826-1330,"",1294595984286
activated,workbench,org.eclipse.ui.workbench,3.6.1.M20100826-1330,"",1294595984568
deactivated,workbench,org.eclipse.ui.workbench,3.6.1.M20100826-1330,"",1294596048677
activated,workbench,org.eclipse.ui.workbench,3.6.1.M20100826-1330,"",1294596134146
executed,command,org.eclipse.ui.workbench.texteditor,3.6.1.r361_v20100714-0800,"org.eclipse.ui.edit.text.goto.lineStart",1294596251474
executed,command,org.eclipse.ui.workbench.texteditor,3.6.1.r361_v20100714-0800,"org.eclipse.ui.edit.text.select.lineEnd",1294596251864
executed,command,org.eclipse.ui,3.6.1.M20100826-1330,"org.eclipse.ui.edit.copy",1294596252427
executed,command,org.eclipse.ui,3.6.1.M20100826-1330,"org.eclipse.ui.edit.paste",1294596257802
executed,command,org.eclipse.ui,3.6.1.M20100826-1330,"org.eclipse.ui.edit.paste",1294596260146
executed,command,org.eclipse.ui,3.6.1.M20100826-1330,"org.eclipse.ui.edit.paste",1294596261708
executed,command,org.eclipse.ui,3.6.1.M20100826-1330,"org.eclipse.ui.edit.paste",1294596263818
executed,command,org.eclipse.ui.workbench.texteditor,3.6.1.r361_v20100714-0800,"org.eclipse.ui.edit.text.goto.lineStart",1294596264599
executed,command,org.eclipse.ui.workbench.texteditor,3.6.1.r361_v20100714-0800,"org.eclipse.ui.edit.text.goto.lineStart",1294596264771
executed,command,org.eclipse.ui,3.6.1.M20100826-1330,"org.eclipse.ui.edit.copy",1294596265896
executed,command,org.eclipse.ui,3.6.1.M20100826-1330,"org.eclipse.ui.edit.paste",1294596267255
executed,command,org.eclipse.ui,3.6.1.M20100826-1330,"org.eclipse.ui.edit.paste",1294596272177
executed,command,org.eclipse.ui,3.6.1.M20100826-1330,"org.eclipse.ui.edit.paste",1294596273521
executed,command,org.eclipse.ui,3.6.1.M20100826-1330,"org.eclipse.ui.edit.paste",1294596274849
executed,command,org.eclipse.ui,3.6.1.M20100826-1330,"org.eclipse.ui.edit.paste",1294596276052
executed,command,org.eclipse.ui,3.6.1.M20100826-1330,"org.eclipse.ui.edit.paste",1294596277224
executed,command,org.eclipse.ui,3.6.1.M20100826-1330,"org.eclipse.ui.edit.paste",1294596278771
executed,command,org.eclipse.ui,3.6.1.M20100826-1330,"org.eclipse.ui.edit.paste",1294596280177
executed,command,org.eclipse.ui,3.6.1.M20100826-1330,"org.eclipse.ui.edit.paste",1294596282177
executed,command,org.eclipse.ui,3.6.1.M20100826-1330,"org.eclipse.ui.edit.paste",1294596284052
executed,command,org.eclipse.ui,3.6.1.M20100826-1330,"org.eclipse.ui.edit.paste",1294596292146
executed,command,org.eclipse.ui,3.6.1.M20100826-1330,"org.eclipse.ui.edit.paste",1294596294396
executed,command,org.eclipse.ui,3.6.1.M20100826-1330,"org.eclipse.ui.edit.paste",1294596297177
executed,command,org.eclipse.ui,3.6.1.M20100826-1330,"org.eclipse.ui.edit.paste",1294596298630
executed,command,org.eclipse.ui,3.6.1.M20100826-1330,"org.eclipse.ui.edit.paste",1294596300489
executed,command,org.eclipse.ui,3.6.1.M20100826-1330,"org.eclipse.ui.edit.paste",1294596302396
executed,command,org.eclipse.ui,3.6.1.M20100826-1330,"org.eclipse.ui.edit.paste",1294596303974
executed,command,org.eclipse.ui,3.6.1.M20100826-1330,"org.eclipse.ui.edit.paste",1294596305724
executed,command,org.eclipse.ui,3.6.1.M20100826-1330,"org.eclipse.ui.edit.paste",1294596307130
executed,command,org.eclipse.ui,3.6.1.M20100826-1330,"org.eclipse.ui.edit.paste",1294596308880
executed,command,org.eclipse.ui,3.6.1.M20100826-1330,"org.eclipse.ui.edit.paste",1294596310771
executed,command,org.eclipse.ui,3.6.1.M20100826-1330,"org.eclipse.ui.edit.paste",1294596316927
executed,command,org.eclipse.ui,3.6.1.M20100826-1330,"org.eclipse.ui.edit.paste",1294596319083
executed,command,org.eclipse.ui,3.6.1.M20100826-1330,"org.eclipse.ui.edit.paste",1294596320786
executed,command,org.eclipse.ui,3.6.1.M20100826-1330,"org.eclipse.ui.edit.paste",1294596324552
executed,command,org.eclipse.ui,3.6.1.M20100826-1330,"org.eclipse.ui.edit.paste",1294596325802
executed,command,org.eclipse.ui,3.6.1.M20100826-1330,"org.eclipse.ui.edit.paste",1294596327271
executed,command,org.eclipse.ui,3.6.1.M20100826-1330,"org.eclipse.ui.edit.paste",1294596328427
executed,command,org.eclipse.ui,3.6.1.M20100826-1330,"org.eclipse.ui.edit.paste",1294596329739
executed,command,org.eclipse.ui,3.6.1.M20100826-1330,"org.eclipse.ui.edit.paste",1294596331208
executed,command,org.eclipse.ui,3.6.1.M20100826-1330,"org.eclipse.ui.edit.paste",1294596332739
executed,command,org.eclipse.ui,3.6.1.M20100826-1330,"org.eclipse.ui.edit.paste",1294596334411
executed,command,org.eclipse.ui,3.6.1.M20100826-1330,"org.eclipse.ui.edit.paste",1294596337568
executed,command,org.eclipse.ui,3.6.1.M20100826-1330,"org.eclipse.ui.edit.paste",1294596338739
executed,command,org.eclipse.ui,3.6.1.M20100826-1330,"org.eclipse.ui.edit.paste",1294596340083
executed,command,org.eclipse.ui,3.6.1.M20100826-1330,"org.eclipse.ui.edit.paste",1294596341568
executed,command,org.eclipse.ui,3.6.1.M20100826-1330,"org.eclipse.ui.edit.paste",1294596345302
executed,command,org.eclipse.ui,3.6.1.M20100826-1330,"org.eclipse.ui.edit.paste",1294596346489
executed,command,org.eclipse.ui,3.6.1.M20100826-1330,"org.eclipse.ui.edit.paste",1294596347802
executed,command,org.eclipse.ui,3.6.1.M20100826-1330,"org.eclipse.ui.edit.paste",1294596349224
executed,command,org.eclipse.ui,3.6.1.M20100826-1330,"org.eclipse.ui.edit.paste",1294596350583
executed,command,org.eclipse.ui,3.6.1.M20100826-1330,"org.eclipse.ui.edit.paste",1294596353927
executed,command,org.eclipse.ui,3.6.1.M20100826-1330,"org.eclipse.ui.edit.paste",1294596355161
executed,command,org.eclipse.ui,3.6.1.M20100826-1330,"org.eclipse.ui.edit.paste",1294596356568
executed,command,org.eclipse.ui,3.6.1.M20100826-1330,"org.eclipse.ui.edit.paste",1294596357974
executed,command,org.eclipse.ui,3.6.1.M20100826-1330,"org.eclipse.ui.edit.paste",1294596360958
executed,command,org.eclipse.ui,3.6.1.M20100826-1330,"org.eclipse.ui.file.save",1294596361943
deactivated,workbench,org.eclipse.ui.workbench,3.6.1.M20100826-1330,"",1294596364818
activated,workbench,org.eclipse.ui.workbench,3.6.1.M20100826-1330,"",1294596365786
executed,command,org.eclipse.ui,3.6.1.M20100826-1330,"org.eclipse.ui.file.save",1294596724021
activated,view,org.eclipse.jdt.ui,3.6.1.r361_v20100825-0800,"org.eclipse.jdt.ui.PackageExplorer",1294597484083
deactivated,workbench,org.eclipse.ui.workbench,3.6.1.M20100826-1330,"",1294597486849
activated,workbench,org.eclipse.ui.workbench,3.6.1.M20100826-1330,"",1294597504552
executed,command,org.eclipse.ui,3.6.1.M20100826-1330,"org.eclipse.ui.newWizard",1294597504568
opened,editor,com.instantiations.designer.core.ui,,"com.instantiations.designer.core.guiEditor",1294597504693
activated,editor,com.instantiations.designer.core.ui,,"com.instantiations.designer.core.guiEditor",1294597504786
executed,command,org.eclipse.ui.workbench.texteditor,3.6.1.r361_v20100714-0800,"org.eclipse.ui.edit.text.goto.wordPrevious",1294597510349
executed,command,org.eclipse.ui.workbench.texteditor,3.6.1.r361_v20100714-0800,"org.eclipse.ui.edit.text.select.wordNext",1294597510630
executed,command,org.eclipse.ui.workbench.texteditor,3.6.1.r361_v20100714-0800,"org.eclipse.ui.edit.text.select.wordNext",1294597511052
executed,command,org.eclipse.ui.workbench.texteditor,3.6.1.r361_v20100714-0800,"org.eclipse.ui.edit.text.select.wordNext",1294597511396
executed,command,org.eclipse.ui,3.6.1.M20100826-1330,"org.eclipse.ui.edit.delete",1294597512333
executed,command,org.eclipse.ui,3.6.1.M20100826-1330,"org.eclipse.ui.edit.text.contentAssist.proposals",1294597512693
executed,command,org.eclipse.ui,3.6.1.M20100826-1330,"org.eclipse.ui.file.save",1294597515255
deactivated,workbench,org.eclipse.ui.workbench,3.6.1.M20100826-1330,"",1294597528896
activated,workbench,org.eclipse.ui.workbench,3.6.1.M20100826-1330,"",1294597529349
activated,editor,com.instantiations.designer.core.ui,,"com.instantiations.designer.core.guiEditor",1294597560771
activated,editor,com.instantiations.designer.core.ui,,"com.instantiations.designer.core.guiEditor",1294597563474
executed,command,org.eclipse.ui,3.6.1.M20100826-1330,"org.eclipse.ui.edit.delete",1294597582255
deactivated,workbench,org.eclipse.ui.workbench,3.6.1.M20100826-1330,"",1294597642802
activated,workbench,org.eclipse.ui.workbench,3.6.1.M20100826-1330,"",1294597658489
deactivated,workbench,org.eclipse.ui.workbench,3.6.1.M20100826-1330,"",1294597662099
activated,workbench,org.eclipse.ui.workbench,3.6.1.M20100826-1330,"",1294597672161
activated,editor,com.instantiations.designer.core.ui,,"com.instantiations.designer.core.guiEditor",1294597730693
activated,editor,com.instantiations.designer.core.ui,,"com.instantiations.designer.core.guiEditor",1294597746661
deactivated,workbench,org.eclipse.ui.workbench,3.6.1.M20100826-1330,"",1294597796630
activated,workbench,org.eclipse.ui.workbench,3.6.1.M20100826-1330,"",1294597796677
