what,kind,bundleId,bundleVersion,description,time
executed,command,org.eclipse.ui.workbench.texteditor,3.6.1.r361_v20100714-0800,"org.eclipse.ui.edit.text.goto.wordPrevious",1295029452609
executed,command,org.eclipse.ui.workbench.texteditor,3.6.1.r361_v20100714-0800,"org.eclipse.ui.edit.text.select.wordNext",1295029453250
executed,command,org.eclipse.ui,3.6.1.M20100826-1330,"org.eclipse.ui.file.save",1295029462062
executed,command,org.eclipse.ui.workbench.texteditor,3.6.1.r361_v20100714-0800,"org.eclipse.ui.edit.text.goto.wordNext",1295029462765
executed,command,org.eclipse.ui.workbench.texteditor,3.6.1.r361_v20100714-0800,"org.eclipse.ui.edit.text.select.wordNext",1295029463375
executed,command,org.eclipse.ui,3.6.1.M20100826-1330,"org.eclipse.ui.file.save",1295029466859
executed,command,org.eclipse.ui,3.6.1.M20100826-1330,"org.eclipse.ui.file.save",1295029469328
deactivated,workbench,org.eclipse.ui.workbench,3.6.1.M20100826-1330,"",1295029471187
activated,workbench,org.eclipse.ui.workbench,3.6.1.M20100826-1330,"",1295029471437
executed,command,org.eclipse.jdt.debug.ui,3.5.0.v20100602-0830,"org.eclipse.jdt.debug.ui.localJavaShortcut.run",1295029471562
deactivated,workbench,org.eclipse.ui.workbench,3.6.1.M20100826-1330,"",1295029472000
activated,workbench,org.eclipse.ui.workbench,3.6.1.M20100826-1330,"",1295029480687
deactivated,workbench,org.eclipse.ui.workbench,3.6.1.M20100826-1330,"",1295029481703
activated,workbench,org.eclipse.ui.workbench,3.6.1.M20100826-1330,"",1295029482390
executed,command,org.eclipse.ui,3.6.1.M20100826-1330,"org.eclipse.ui.file.save",1295029485656
deactivated,workbench,org.eclipse.ui.workbench,3.6.1.M20100826-1330,"",1295029487640
activated,workbench,org.eclipse.ui.workbench,3.6.1.M20100826-1330,"",1295029487984
executed,command,org.eclipse.jdt.debug.ui,3.5.0.v20100602-0830,"org.eclipse.jdt.debug.ui.localJavaShortcut.run",1295029488109
deactivated,workbench,org.eclipse.ui.workbench,3.6.1.M20100826-1330,"",1295029488468
activated,workbench,org.eclipse.ui.workbench,3.6.1.M20100826-1330,"",1295029507921
executed,command,org.eclipse.ui.workbench.texteditor,3.6.1.r361_v20100714-0800,"org.eclipse.ui.edit.text.goto.wordNext",1295029510734
executed,command,org.eclipse.ui.workbench.texteditor,3.6.1.r361_v20100714-0800,"org.eclipse.ui.edit.text.goto.wordNext",1295029510937
executed,command,org.eclipse.ui.workbench.texteditor,3.6.1.r361_v20100714-0800,"org.eclipse.ui.edit.text.goto.wordNext",1295029511109
executed,command,org.eclipse.ui,3.6.1.M20100826-1330,"org.eclipse.ui.edit.delete",1295029512015
executed,command,org.eclipse.ui.workbench.texteditor,3.6.1.r361_v20100714-0800,"org.eclipse.ui.edit.text.goto.wordNext",1295029512453
executed,command,org.eclipse.ui,3.6.1.M20100826-1330,"org.eclipse.ui.edit.delete",1295029513125
executed,command,org.eclipse.ui,3.6.1.M20100826-1330,"org.eclipse.ui.file.save",1295029513859
deactivated,workbench,org.eclipse.ui.workbench,3.6.1.M20100826-1330,"",1295029515609
activated,workbench,org.eclipse.ui.workbench,3.6.1.M20100826-1330,"",1295029515781
executed,command,org.eclipse.jdt.debug.ui,3.5.0.v20100602-0830,"org.eclipse.jdt.debug.ui.localJavaShortcut.run",1295029515921
deactivated,workbench,org.eclipse.ui.workbench,3.6.1.M20100826-1330,"",1295029516281
activated,workbench,org.eclipse.ui.workbench,3.6.1.M20100826-1330,"",1295029540921
started,bundle,org.eclipse.mylyn.java.tasks,3.4.0.v20100608-0100-e3x,"org.eclipse.mylyn.java.tasks",1295029555890
activated,editor,com.instantiations.designer.core.ui,,"com.instantiations.designer.core.guiEditor",1295029557000
activated,editor,com.instantiations.designer.core.ui,,"com.instantiations.designer.core.guiEditor",1295029573468
executed,command,org.eclipse.ui.workbench.texteditor,3.6.1.r361_v20100714-0800,"org.eclipse.ui.edit.text.goto.lineStart",1295029590875
executed,command,org.eclipse.ui.workbench.texteditor,3.6.1.r361_v20100714-0800,"org.eclipse.ui.edit.text.select.lineEnd",1295029591593
executed,command,org.eclipse.ui,3.6.1.M20100826-1330,"org.eclipse.ui.edit.cut",1295029591593
executed,command,org.eclipse.ui.workbench.texteditor,3.6.1.r361_v20100714-0800,"org.eclipse.ui.edit.text.goto.wordPrevious",1295029592640
executed,command,org.eclipse.ui,3.6.1.M20100826-1330,"org.eclipse.ui.edit.paste",1295029593390
executed,command,org.eclipse.ui.workbench.texteditor,3.6.1.r361_v20100714-0800,"org.eclipse.ui.edit.text.goto.lineStart",1295029594484
executed,command,org.eclipse.ui,3.6.1.M20100826-1330,"org.eclipse.ui.file.save",1295029595750
executed,command,org.eclipse.ui.workbench.texteditor,3.6.1.r361_v20100714-0800,"org.eclipse.ui.edit.text.goto.wordNext",1295029597156
executed,command,org.eclipse.ui.workbench.texteditor,3.6.1.r361_v20100714-0800,"org.eclipse.ui.edit.text.goto.wordNext",1295029597390
executed,command,org.eclipse.ui.workbench.texteditor,3.6.1.r361_v20100714-0800,"org.eclipse.ui.edit.text.goto.wordNext",1295029597609
executed,command,org.eclipse.ui.workbench.texteditor,3.6.1.r361_v20100714-0800,"org.eclipse.ui.edit.text.goto.wordNext",1295029597828
executed,command,org.eclipse.ui.workbench.texteditor,3.6.1.r361_v20100714-0800,"org.eclipse.ui.edit.text.goto.wordNext",1295029598062
deactivated,workbench,org.eclipse.ui.workbench,3.6.1.M20100826-1330,"",1295029613937
activated,workbench,org.eclipse.ui.workbench,3.6.1.M20100826-1330,"",1295029614187
executed,command,org.eclipse.jdt.debug.ui,3.5.0.v20100602-0830,"org.eclipse.jdt.debug.ui.localJavaShortcut.run",1295029614265
deactivated,workbench,org.eclipse.ui.workbench,3.6.1.M20100826-1330,"",1295029614625
activated,workbench,org.eclipse.ui.workbench,3.6.1.M20100826-1330,"",1295029622312
deactivated,workbench,org.eclipse.ui.workbench,3.6.1.M20100826-1330,"",1295029627406
activated,workbench,org.eclipse.ui.workbench,3.6.1.M20100826-1330,"",1295029628296
no handler,command,org.eclipse.ui.workbench.texteditor,3.6.1.r361_v20100714-0800,"org.eclipse.ui.edit.text.goto.lineStart",1295029793109
deactivated,workbench,org.eclipse.ui.workbench,3.6.1.M20100826-1330,"",1295029812703
activated,workbench,org.eclipse.ui.workbench,3.6.1.M20100826-1330,"",1295029820312
deactivated,workbench,org.eclipse.ui.workbench,3.6.1.M20100826-1330,"",1295029827906
activated,workbench,org.eclipse.ui.workbench,3.6.1.M20100826-1330,"",1295029834750
deactivated,workbench,org.eclipse.ui.workbench,3.6.1.M20100826-1330,"",1295029894203
activated,workbench,org.eclipse.ui.workbench,3.6.1.M20100826-1330,"",1295029896515
no handler,command,org.eclipse.ui.workbench.texteditor,3.6.1.r361_v20100714-0800,"org.eclipse.ui.edit.text.goto.lineStart",1295029897687
deactivated,workbench,org.eclipse.ui.workbench,3.6.1.M20100826-1330,"",1295029960843
activated,workbench,org.eclipse.ui.workbench,3.6.1.M20100826-1330,"",1295029961109
executed,command,org.eclipse.jdt.debug.ui,3.5.0.v20100602-0830,"org.eclipse.jdt.debug.ui.localJavaShortcut.run",1295029961250
deactivated,workbench,org.eclipse.ui.workbench,3.6.1.M20100826-1330,"",1295029961265
activated,workbench,org.eclipse.ui.workbench,3.6.1.M20100826-1330,"",1295029962640
deactivated,workbench,org.eclipse.ui.workbench,3.6.1.M20100826-1330,"",1295029963375
activated,workbench,org.eclipse.ui.workbench,3.6.1.M20100826-1330,"",1295029969171
executed,command,org.eclipse.ui,3.6.1.M20100826-1330,"org.eclipse.ui.file.save",1295030041218
deactivated,workbench,org.eclipse.ui.workbench,3.6.1.M20100826-1330,"",1295030042828
activated,workbench,org.eclipse.ui.workbench,3.6.1.M20100826-1330,"",1295030043187
executed,command,org.eclipse.jdt.debug.ui,3.5.0.v20100602-0830,"org.eclipse.jdt.debug.ui.localJavaShortcut.run",1295030043312
deactivated,workbench,org.eclipse.ui.workbench,3.6.1.M20100826-1330,"",1295030043703
activated,workbench,org.eclipse.ui.workbench,3.6.1.M20100826-1330,"",1295030052890
deactivated,workbench,org.eclipse.ui.workbench,3.6.1.M20100826-1330,"",1295030064109
activated,workbench,org.eclipse.ui.workbench,3.6.1.M20100826-1330,"",1295030069625
deactivated,workbench,org.eclipse.ui.workbench,3.6.1.M20100826-1330,"",1295030076156
activated,workbench,org.eclipse.ui.workbench,3.6.1.M20100826-1330,"",1295030080906
deactivated,workbench,org.eclipse.ui.workbench,3.6.1.M20100826-1330,"",1295030087906
activated,workbench,org.eclipse.ui.workbench,3.6.1.M20100826-1330,"",1295030097515
deactivated,workbench,org.eclipse.ui.workbench,3.6.1.M20100826-1330,"",1295030100187
activated,workbench,org.eclipse.ui.workbench,3.6.1.M20100826-1330,"",1295030102531
deactivated,workbench,org.eclipse.ui.workbench,3.6.1.M20100826-1330,"",1295030123437
activated,workbench,org.eclipse.ui.workbench,3.6.1.M20100826-1330,"",1295030130078
deactivated,workbench,org.eclipse.ui.workbench,3.6.1.M20100826-1330,"",1295030134750
activated,workbench,org.eclipse.ui.workbench,3.6.1.M20100826-1330,"",1295030138687
executed,command,org.eclipse.ui,3.6.1.M20100826-1330,"org.eclipse.ui.file.save",1295030140500
deactivated,workbench,org.eclipse.ui.workbench,3.6.1.M20100826-1330,"",1295030142125
activated,workbench,org.eclipse.ui.workbench,3.6.1.M20100826-1330,"",1295030142421
executed,command,org.eclipse.jdt.debug.ui,3.5.0.v20100602-0830,"org.eclipse.jdt.debug.ui.localJavaShortcut.run",1295030142546
deactivated,workbench,org.eclipse.ui.workbench,3.6.1.M20100826-1330,"",1295030142937
activated,workbench,org.eclipse.ui.workbench,3.6.1.M20100826-1330,"",1295030148703
executed,command,org.eclipse.ui,3.6.1.M20100826-1330,"org.eclipse.ui.edit.undo",1295030152109
deactivated,workbench,org.eclipse.ui.workbench,3.6.1.M20100826-1330,"",1295030152343
activated,workbench,org.eclipse.ui.workbench,3.6.1.M20100826-1330,"",1295030153937
executed,command,org.eclipse.ui,3.6.1.M20100826-1330,"org.eclipse.ui.edit.undo",1295030154765
deactivated,workbench,org.eclipse.ui.workbench,3.6.1.M20100826-1330,"",1295030154984
activated,workbench,org.eclipse.ui.workbench,3.6.1.M20100826-1330,"",1295030155921
executed,command,org.eclipse.ui,3.6.1.M20100826-1330,"org.eclipse.ui.file.save",1295030156468
deactivated,workbench,org.eclipse.ui.workbench,3.6.1.M20100826-1330,"",1295030158250
activated,workbench,org.eclipse.ui.workbench,3.6.1.M20100826-1330,"",1295030158609
executed,command,org.eclipse.jdt.debug.ui,3.5.0.v20100602-0830,"org.eclipse.jdt.debug.ui.localJavaShortcut.run",1295030158718
deactivated,workbench,org.eclipse.ui.workbench,3.6.1.M20100826-1330,"",1295030159078
activated,workbench,org.eclipse.ui.workbench,3.6.1.M20100826-1330,"",1295030165437
executed,command,org.eclipse.ui,3.6.1.M20100826-1330,"org.eclipse.ui.edit.redo",1295030167156
deactivated,workbench,org.eclipse.ui.workbench,3.6.1.M20100826-1330,"",1295030167421
activated,workbench,org.eclipse.ui.workbench,3.6.1.M20100826-1330,"",1295030168406
executed,command,org.eclipse.ui,3.6.1.M20100826-1330,"org.eclipse.ui.edit.redo",1295030168734
deactivated,workbench,org.eclipse.ui.workbench,3.6.1.M20100826-1330,"",1295030168890
activated,workbench,org.eclipse.ui.workbench,3.6.1.M20100826-1330,"",1295030169843
executed,command,org.eclipse.ui,3.6.1.M20100826-1330,"org.eclipse.ui.file.save",1295030170453
deactivated,workbench,org.eclipse.ui.workbench,3.6.1.M20100826-1330,"",1295030172296
activated,workbench,org.eclipse.ui.workbench,3.6.1.M20100826-1330,"",1295030172640
executed,command,org.eclipse.jdt.debug.ui,3.5.0.v20100602-0830,"org.eclipse.jdt.debug.ui.localJavaShortcut.run",1295030172765
deactivated,workbench,org.eclipse.ui.workbench,3.6.1.M20100826-1330,"",1295030173125
activated,workbench,org.eclipse.ui.workbench,3.6.1.M20100826-1330,"",1295030181765
executed,command,org.eclipse.ui,3.6.1.M20100826-1330,"org.eclipse.ui.file.save",1295030208390
deactivated,workbench,org.eclipse.ui.workbench,3.6.1.M20100826-1330,"",1295030210500
activated,workbench,org.eclipse.ui.workbench,3.6.1.M20100826-1330,"",1295030210765
executed,command,org.eclipse.jdt.debug.ui,3.5.0.v20100602-0830,"org.eclipse.jdt.debug.ui.localJavaShortcut.run",1295030210890
deactivated,workbench,org.eclipse.ui.workbench,3.6.1.M20100826-1330,"",1295030211281
activated,workbench,org.eclipse.ui.workbench,3.6.1.M20100826-1330,"",1295030224906
executed,command,org.eclipse.ui,3.6.1.M20100826-1330,"org.eclipse.ui.file.save",1295030232890
deactivated,workbench,org.eclipse.ui.workbench,3.6.1.M20100826-1330,"",1295030234515
activated,workbench,org.eclipse.ui.workbench,3.6.1.M20100826-1330,"",1295030234796
executed,command,org.eclipse.jdt.debug.ui,3.5.0.v20100602-0830,"org.eclipse.jdt.debug.ui.localJavaShortcut.run",1295030234921
deactivated,workbench,org.eclipse.ui.workbench,3.6.1.M20100826-1330,"",1295030235312
activated,workbench,org.eclipse.ui.workbench,3.6.1.M20100826-1330,"",1295030254937
executed,command,org.eclipse.ui,3.6.1.M20100826-1330,"org.eclipse.ui.edit.delete",1295030259687
executed,command,org.eclipse.ui,3.6.1.M20100826-1330,"org.eclipse.ui.file.save",1295030260562
deactivated,workbench,org.eclipse.ui.workbench,3.6.1.M20100826-1330,"",1295030261968
activated,workbench,org.eclipse.ui.workbench,3.6.1.M20100826-1330,"",1295030262281
executed,command,org.eclipse.jdt.debug.ui,3.5.0.v20100602-0830,"org.eclipse.jdt.debug.ui.localJavaShortcut.run",1295030262406
deactivated,workbench,org.eclipse.ui.workbench,3.6.1.M20100826-1330,"",1295030262859
activated,workbench,org.eclipse.ui.workbench,3.6.1.M20100826-1330,"",1295030270062
executed,command,org.eclipse.ui.workbench.texteditor,3.6.1.r361_v20100714-0800,"org.eclipse.ui.edit.text.goto.wordPrevious",1295030272093
executed,command,org.eclipse.ui.workbench.texteditor,3.6.1.r361_v20100714-0800,"org.eclipse.ui.edit.text.goto.wordPrevious",1295030272531
executed,command,org.eclipse.ui.workbench.texteditor,3.6.1.r361_v20100714-0800,"org.eclipse.ui.edit.text.goto.wordPrevious",1295030272750
executed,command,org.eclipse.ui.workbench.texteditor,3.6.1.r361_v20100714-0800,"org.eclipse.ui.edit.text.goto.wordPrevious",1295030272984
executed,command,org.eclipse.ui.workbench.texteditor,3.6.1.r361_v20100714-0800,"org.eclipse.ui.edit.text.goto.wordPrevious",1295030273171
executed,command,org.eclipse.ui.workbench.texteditor,3.6.1.r361_v20100714-0800,"org.eclipse.ui.edit.text.goto.wordPrevious",1295030273468
executed,command,org.eclipse.ui.workbench.texteditor,3.6.1.r361_v20100714-0800,"org.eclipse.ui.edit.text.goto.wordPrevious",1295030273906
executed,command,org.eclipse.ui.workbench.texteditor,3.6.1.r361_v20100714-0800,"org.eclipse.ui.edit.text.select.wordNext",1295030274453
executed,command,org.eclipse.ui.workbench.texteditor,3.6.1.r361_v20100714-0800,"org.eclipse.ui.edit.text.goto.wordNext",1295030275875
executed,command,org.eclipse.ui.workbench.texteditor,3.6.1.r361_v20100714-0800,"org.eclipse.ui.edit.text.select.wordNext",1295030276312
executed,command,org.eclipse.ui.workbench.texteditor,3.6.1.r361_v20100714-0800,"org.eclipse.ui.edit.text.goto.wordPrevious",1295030277546
executed,command,org.eclipse.ui.workbench.texteditor,3.6.1.r361_v20100714-0800,"org.eclipse.ui.edit.text.goto.wordPrevious",1295030277703
executed,command,org.eclipse.ui.workbench.texteditor,3.6.1.r361_v20100714-0800,"org.eclipse.ui.edit.text.select.wordPrevious",1295030278140
executed,command,org.eclipse.ui,3.6.1.M20100826-1330,"org.eclipse.ui.file.save",1295030279031
deactivated,workbench,org.eclipse.ui.workbench,3.6.1.M20100826-1330,"",1295030280437
activated,workbench,org.eclipse.ui.workbench,3.6.1.M20100826-1330,"",1295030280671
executed,command,org.eclipse.jdt.debug.ui,3.5.0.v20100602-0830,"org.eclipse.jdt.debug.ui.localJavaShortcut.run",1295030280812
deactivated,workbench,org.eclipse.ui.workbench,3.6.1.M20100826-1330,"",1295030281265
activated,workbench,org.eclipse.ui.workbench,3.6.1.M20100826-1330,"",1295030327234
deactivated,workbench,org.eclipse.ui.workbench,3.6.1.M20100826-1330,"",1295030330718
activated,workbench,org.eclipse.ui.workbench,3.6.1.M20100826-1330,"",1295030331734
executed,command,org.eclipse.ui.workbench.texteditor,3.6.1.r361_v20100714-0800,"org.eclipse.ui.edit.text.goto.textStart",1295030334921
executed,command,org.eclipse.ui.workbench.texteditor,3.6.1.r361_v20100714-0800,"org.eclipse.ui.edit.text.goto.wordNext",1295030338078
executed,command,org.eclipse.ui.workbench.texteditor,3.6.1.r361_v20100714-0800,"org.eclipse.ui.edit.text.goto.wordNext",1295030338375
executed,command,org.eclipse.jdt.debug.ui,3.5.0.v20100602-0830,"org.eclipse.jdt.debug.ui.localJavaShortcut.run",1295030340953
deactivated,workbench,org.eclipse.ui.workbench,3.6.1.M20100826-1330,"",1295030341328
activated,workbench,org.eclipse.ui.workbench,3.6.1.M20100826-1330,"",1295030361359
executed,command,org.eclipse.ui.ide,3.6.1.M20100825-0800,"org.eclipse.jdt.ui.edit.text.java.correction.assist.proposals",1295030364562
executed,command,org.eclipse.ui.workbench.texteditor,3.6.1.r361_v20100714-0800,"org.eclipse.ui.edit.text.goto.lineStart",1295030366781
executed,command,org.eclipse.ui.workbench.texteditor,3.6.1.r361_v20100714-0800,"org.eclipse.ui.edit.text.goto.lineStart",1295030366953
executed,command,org.eclipse.ui,3.6.1.M20100826-1330,"org.eclipse.ui.edit.delete",1295030368187
executed,command,org.eclipse.ui,3.6.1.M20100826-1330,"org.eclipse.ui.file.save",1295030368468
executed,command,org.eclipse.ui.workbench.texteditor,3.6.1.r361_v20100714-0800,"org.eclipse.ui.edit.text.select.lineEnd",1295030369296
executed,command,org.eclipse.ui,3.6.1.M20100826-1330,"org.eclipse.ui.edit.cut",1295030369593
executed,command,org.eclipse.ui,3.6.1.M20100826-1330,"org.eclipse.ui.edit.delete",1295030369765
executed,command,org.eclipse.ui.workbench.texteditor,3.6.1.r361_v20100714-0800,"org.eclipse.ui.edit.text.goto.lineEnd",1295030370093
executed,command,org.eclipse.ui,3.6.1.M20100826-1330,"org.eclipse.ui.edit.paste",1295030371656
executed,command,org.eclipse.ui,3.6.1.M20100826-1330,"org.eclipse.ui.edit.undo",1295030372796
executed,command,org.eclipse.ui,3.6.1.M20100826-1330,"org.eclipse.ui.edit.undo",1295030373187
executed,command,org.eclipse.ui,3.6.1.M20100826-1330,"org.eclipse.ui.edit.paste",1295030374359
executed,command,org.eclipse.ui,3.6.1.M20100826-1330,"org.eclipse.ui.file.save",1295030375156
executed,command,org.eclipse.ui,3.6.1.M20100826-1330,"org.eclipse.ui.file.save",1295030381546
executed,command,org.eclipse.ui.workbench.texteditor,3.6.1.r361_v20100714-0800,"org.eclipse.ui.edit.text.goto.lineStart",1295030381984
executed,command,org.eclipse.ui.workbench.texteditor,3.6.1.r361_v20100714-0800,"org.eclipse.ui.edit.text.select.lineEnd",1295030382187
executed,command,org.eclipse.ui,3.6.1.M20100826-1330,"org.eclipse.ui.edit.delete",1295030382421
executed,command,org.eclipse.ui,3.6.1.M20100826-1330,"org.eclipse.ui.edit.delete",1295030382578
executed,command,org.eclipse.ui,3.6.1.M20100826-1330,"org.eclipse.ui.file.save",1295030382875
executed,command,org.eclipse.ui.workbench.texteditor,3.6.1.r361_v20100714-0800,"org.eclipse.ui.edit.text.select.lineEnd",1295030383171
executed,command,org.eclipse.ui,3.6.1.M20100826-1330,"org.eclipse.ui.edit.delete",1295030383421
executed,command,org.eclipse.ui,3.6.1.M20100826-1330,"org.eclipse.ui.edit.delete",1295030383593
executed,command,org.eclipse.ui,3.6.1.M20100826-1330,"org.eclipse.ui.file.save",1295030383890
executed,command,org.eclipse.ui.workbench.texteditor,3.6.1.r361_v20100714-0800,"org.eclipse.ui.edit.text.goto.wordNext",1295030387656
executed,command,org.eclipse.ui.workbench.texteditor,3.6.1.r361_v20100714-0800,"org.eclipse.ui.edit.text.goto.wordNext",1295030387843
executed,command,org.eclipse.ui.workbench.texteditor,3.6.1.r361_v20100714-0800,"org.eclipse.ui.edit.text.goto.wordNext",1295030421062
executed,command,org.eclipse.ui.workbench.texteditor,3.6.1.r361_v20100714-0800,"org.eclipse.ui.edit.text.goto.wordNext",1295030421250
executed,command,org.eclipse.ui.workbench.texteditor,3.6.1.r361_v20100714-0800,"org.eclipse.ui.edit.text.goto.wordNext",1295030421406
executed,command,org.eclipse.ui.workbench.texteditor,3.6.1.r361_v20100714-0800,"org.eclipse.ui.edit.text.goto.wordNext",1295030421578
executed,command,org.eclipse.ui,3.6.1.M20100826-1330,"org.eclipse.ui.edit.text.contentAssist.proposals",1295030422828
executed,command,org.eclipse.ui,3.6.1.M20100826-1330,"org.eclipse.ui.edit.text.contentAssist.proposals",1295030424921
executed,command,org.eclipse.ui.ide,3.6.1.M20100825-0800,"org.eclipse.jdt.ui.edit.text.java.correction.assist.proposals",1295030427609
executed,command,org.eclipse.ui.workbench.texteditor,3.6.1.r361_v20100714-0800,"org.eclipse.ui.edit.text.goto.wordPrevious",1295030430453
executed,command,org.eclipse.ui.workbench.texteditor,3.6.1.r361_v20100714-0800,"org.eclipse.ui.edit.text.goto.wordPrevious",1295030430625
executed,command,org.eclipse.ui.workbench.texteditor,3.6.1.r361_v20100714-0800,"org.eclipse.ui.edit.text.select.wordNext",1295030431156
executed,command,org.eclipse.ui.workbench.texteditor,3.6.1.r361_v20100714-0800,"org.eclipse.ui.edit.text.select.lineEnd",1295030431671
executed,command,org.eclipse.ui,3.6.1.M20100826-1330,"org.eclipse.ui.edit.delete",1295030431906
executed,command,org.eclipse.ui,3.6.1.M20100826-1330,"org.eclipse.ui.file.save",1295030432281
executed,command,org.eclipse.ui,3.6.1.M20100826-1330,"org.eclipse.ui.edit.text.contentAssist.proposals",1295030436984
executed,command,org.eclipse.ui,3.6.1.M20100826-1330,"org.eclipse.ui.file.save",1295030451265
executed,command,org.eclipse.ui,3.6.1.M20100826-1330,"org.eclipse.ui.file.save",1295030466015
executed,command,org.eclipse.ui.workbench.texteditor,3.6.1.r361_v20100714-0800,"org.eclipse.ui.edit.text.goto.wordPrevious",1295030466593
executed,command,org.eclipse.ui.workbench.texteditor,3.6.1.r361_v20100714-0800,"org.eclipse.ui.edit.text.goto.wordPrevious",1295030467000
executed,command,org.eclipse.ui.workbench.texteditor,3.6.1.r361_v20100714-0800,"org.eclipse.ui.edit.text.goto.wordPrevious",1295030467187
executed,command,org.eclipse.ui.workbench.texteditor,3.6.1.r361_v20100714-0800,"org.eclipse.ui.edit.text.goto.wordPrevious",1295030467343
executed,command,org.eclipse.ui.workbench.texteditor,3.6.1.r361_v20100714-0800,"org.eclipse.ui.edit.text.goto.wordPrevious",1295030467546
executed,command,org.eclipse.ui.workbench.texteditor,3.6.1.r361_v20100714-0800,"org.eclipse.ui.edit.text.goto.wordPrevious",1295030467750
executed,command,org.eclipse.ui.workbench.texteditor,3.6.1.r361_v20100714-0800,"org.eclipse.ui.edit.text.goto.wordNext",1295030468218
executed,command,org.eclipse.ui.workbench.texteditor,3.6.1.r361_v20100714-0800,"org.eclipse.ui.edit.text.select.wordNext",1295030468781
executed,command,org.eclipse.ui,3.6.1.M20100826-1330,"org.eclipse.ui.edit.text.contentAssist.proposals",1295030488000
executed,command,org.eclipse.ui,3.6.1.M20100826-1330,"org.eclipse.ui.edit.text.contentAssist.proposals",1295030490390
executed,command,org.eclipse.ui,3.6.1.M20100826-1330,"org.eclipse.ui.file.save",1295030491875
executed,command,org.eclipse.ui.workbench.texteditor,3.6.1.r361_v20100714-0800,"org.eclipse.ui.edit.text.goto.wordNext",1295030494703
executed,command,org.eclipse.ui.workbench.texteditor,3.6.1.r361_v20100714-0800,"org.eclipse.ui.edit.text.goto.wordPrevious",1295030501500
executed,command,org.eclipse.ui,3.6.1.M20100826-1330,"org.eclipse.ui.file.save",1295030502390
executed,command,org.eclipse.ui.workbench.texteditor,3.6.1.r361_v20100714-0800,"org.eclipse.ui.edit.text.goto.wordNext",1295030504250
executed,command,org.eclipse.ui.workbench.texteditor,3.6.1.r361_v20100714-0800,"org.eclipse.ui.edit.text.goto.wordNext",1295030536437
executed,command,org.eclipse.ui.workbench.texteditor,3.6.1.r361_v20100714-0800,"org.eclipse.ui.edit.text.goto.wordNext",1295030536640
executed,command,org.eclipse.ui.workbench.texteditor,3.6.1.r361_v20100714-0800,"org.eclipse.ui.edit.text.goto.wordNext",1295030536828
executed,command,org.eclipse.ui.workbench.texteditor,3.6.1.r361_v20100714-0800,"org.eclipse.ui.edit.text.goto.wordNext",1295030537031
executed,command,org.eclipse.ui.workbench.texteditor,3.6.1.r361_v20100714-0800,"org.eclipse.ui.edit.text.goto.wordNext",1295030537281
executed,command,org.eclipse.ui.workbench.texteditor,3.6.1.r361_v20100714-0800,"org.eclipse.ui.edit.text.goto.wordPrevious",1295030537750
deactivated,workbench,org.eclipse.ui.workbench,3.6.1.M20100826-1330,"",1295030548281
activated,workbench,org.eclipse.ui.workbench,3.6.1.M20100826-1330,"",1295030549296
executed,command,org.eclipse.ui.workbench.texteditor,3.6.1.r361_v20100714-0800,"org.eclipse.ui.edit.text.goto.wordPrevious",1295030571062
executed,command,org.eclipse.ui.workbench.texteditor,3.6.1.r361_v20100714-0800,"org.eclipse.ui.edit.text.goto.wordPrevious",1295030571312
executed,command,org.eclipse.ui.workbench.texteditor,3.6.1.r361_v20100714-0800,"org.eclipse.ui.edit.text.goto.wordPrevious",1295030571500
executed,command,org.eclipse.ui.workbench.texteditor,3.6.1.r361_v20100714-0800,"org.eclipse.ui.edit.text.goto.wordNext",1295030572562
executed,command,org.eclipse.ui.workbench.texteditor,3.6.1.r361_v20100714-0800,"org.eclipse.ui.edit.text.goto.wordNext",1295030588953
executed,command,org.eclipse.ui.workbench.texteditor,3.6.1.r361_v20100714-0800,"org.eclipse.ui.edit.text.goto.wordNext",1295030589125
executed,command,org.eclipse.ui.workbench.texteditor,3.6.1.r361_v20100714-0800,"org.eclipse.ui.edit.text.goto.wordNext",1295030589296
executed,command,org.eclipse.ui.workbench.texteditor,3.6.1.r361_v20100714-0800,"org.eclipse.ui.edit.text.goto.wordNext",1295030589468
executed,command,org.eclipse.ui,3.6.1.M20100826-1330,"org.eclipse.ui.edit.delete",1295030590578
executed,command,org.eclipse.ui,3.6.1.M20100826-1330,"org.eclipse.ui.edit.delete",1295030591875
executed,command,org.eclipse.ui,3.6.1.M20100826-1330,"org.eclipse.ui.file.save",1295030592781
deactivated,workbench,org.eclipse.ui.workbench,3.6.1.M20100826-1330,"",1295030594140
activated,workbench,org.eclipse.ui.workbench,3.6.1.M20100826-1330,"",1295030594390
executed,command,org.eclipse.jdt.debug.ui,3.5.0.v20100602-0830,"org.eclipse.jdt.debug.ui.localJavaShortcut.run",1295030594531
activated,view,org.eclipse.ui.console,3.5.0.v20100526,"org.eclipse.ui.console.ConsoleView",1295030595000
activated,editor,com.instantiations.designer.core.ui,,"com.instantiations.designer.core.guiEditor",1295030601531
executed,command,org.eclipse.ui.workbench.texteditor,3.6.1.r361_v20100714-0800,"org.eclipse.ui.edit.text.goto.wordPrevious",1295030603046
executed,command,org.eclipse.ui.workbench.texteditor,3.6.1.r361_v20100714-0800,"org.eclipse.ui.edit.text.goto.wordPrevious",1295030603281
executed,command,org.eclipse.ui.workbench.texteditor,3.6.1.r361_v20100714-0800,"org.eclipse.ui.edit.text.goto.wordPrevious",1295030621406
executed,command,org.eclipse.ui.workbench.texteditor,3.6.1.r361_v20100714-0800,"org.eclipse.ui.edit.text.goto.lineStart",1295030622343
executed,command,org.eclipse.ui.workbench.texteditor,3.6.1.r361_v20100714-0800,"org.eclipse.ui.edit.text.goto.lineStart",1295030632406
executed,command,org.eclipse.ui.workbench.texteditor,3.6.1.r361_v20100714-0800,"org.eclipse.ui.edit.text.goto.lineStart",1295030632625
