what,kind,bundleId,bundleVersion,description,time
executed,command,org.eclipse.ui,3.4.2.M20090204-0800,org.eclipse.ui.file.save,1293203229843
executed,command,org.eclipse.ui.workbench.texteditor,3.4.1.r341_v20080827-1100,org.eclipse.ui.edit.text.select.lineEnd,1293203230125
executed,command,org.eclipse.ui,3.4.2.M20090204-0800,org.eclipse.ui.edit.delete,1293203230359
executed,command,org.eclipse.ui,3.4.2.M20090204-0800,org.eclipse.ui.edit.delete,1293203230546
executed,command,org.eclipse.ui,3.4.2.M20090204-0800,org.eclipse.ui.file.save,1293203230843
deactivated,workbench,org.eclipse.ui.workbench,3.4.2.M20090127-1700,,1293203632281
activated,workbench,org.eclipse.ui.workbench,3.4.2.M20090127-1700,,1293203633921
activated,editor,org.eclipse.jdt.ui,3.4.2.r342_v20090107-0800,org.eclipse.jdt.ui.CompilationUnitEditor,1293203634031
executed,command,org.eclipse.ui,3.4.2.M20090204-0800,org.eclipse.ui.window.nextEditor,1293203634031
activated,view,org.eclipse.jdt.ui,3.4.2.r342_v20090107-0800,org.eclipse.jdt.ui.PackageExplorer,1293203637234
executed,command,org.eclipse.ui,3.4.2.M20090204-0800,org.eclipse.ui.edit.copy,1293203637890
deactivated,workbench,org.eclipse.ui.workbench,3.4.2.M20090127-1700,,1293203638250
activated,workbench,org.eclipse.ui.workbench,3.4.2.M20090127-1700,,1293203657062
executed,command,org.eclipse.ui,3.4.2.M20090204-0800,org.eclipse.ui.edit.paste,1293203657234
activated,editor,org.eclipse.jdt.ui,3.4.2.r342_v20090107-0800,org.eclipse.jdt.ui.CompilationUnitEditor,1293203662375
deactivated,workbench,org.eclipse.ui.workbench,3.4.2.M20090127-1700,,1293203674437
activated,workbench,org.eclipse.ui.workbench,3.4.2.M20090127-1700,,1293203677140
activated,editor,org.eclipse.jdt.ui,3.4.2.r342_v20090107-0800,org.eclipse.jdt.ui.CompilationUnitEditor,1293203677265
executed,command,org.eclipse.jdt.ui,3.4.2.r342_v20090107-0800,org.eclipse.jdt.ui.navigate.open.type,1293203677265
executed,command,org.eclipse.ui.workbench.texteditor,3.4.1.r341_v20080827-1100,org.eclipse.ui.edit.text.goto.lineEnd,1293203694250
executed,command,org.eclipse.ui,3.4.2.M20090204-0800,org.eclipse.ui.edit.text.contentAssist.proposals,1293203707625
executed,command,org.eclipse.ui.workbench.texteditor,3.4.1.r341_v20080827-1100,org.eclipse.ui.edit.text.goto.wordPrevious,1293203708843
executed,command,org.eclipse.ui.workbench.texteditor,3.4.1.r341_v20080827-1100,org.eclipse.ui.edit.text.goto.wordPrevious,1293203709390
executed,command,org.eclipse.ui.workbench.texteditor,3.4.1.r341_v20080827-1100,org.eclipse.ui.edit.text.goto.wordPrevious,1293203709421
executed,command,org.eclipse.ui.workbench.texteditor,3.4.1.r341_v20080827-1100,org.eclipse.ui.edit.text.goto.wordPrevious,1293203709453
