what,kind,bundleId,bundleVersion,description,time
activated,workbench,org.eclipse.ui.workbench,3.4.2.M20090127-1700,,1293263667109
activated,editor,org.eclipse.jdt.ui,3.4.2.r342_v20090107-0800,org.eclipse.jdt.ui.CompilationUnitEditor,1293263772281
activated,editor,org.eclipse.jdt.ui,3.4.2.r342_v20090107-0800,org.eclipse.jdt.ui.CompilationUnitEditor,1293263778156
executed,command,org.eclipse.ui.workbench.texteditor,3.4.1.r341_v20080827-1100,org.eclipse.ui.edit.text.goto.wordNext,1293263789562
executed,command,org.eclipse.ui.workbench.texteditor,3.4.1.r341_v20080827-1100,org.eclipse.ui.edit.text.select.wordNext,1293263789906
executed,command,org.eclipse.ui,3.4.2.M20090204-0800,org.eclipse.ui.file.save,1293263792156
deactivated,workbench,org.eclipse.ui.workbench,3.4.2.M20090127-1700,,1293263793765
activated,workbench,org.eclipse.ui.workbench,3.4.2.M20090127-1700,,1293263793937
activated,editor,org.eclipse.jdt.ui,3.4.2.r342_v20090107-0800,org.eclipse.jdt.ui.CompilationUnitEditor,1293263793984
executed,command,org.eclipse.ui,3.4.2.M20090204-0800,org.eclipse.ui.window.nextEditor,1293263793984
executed,command,org.eclipse.ui.workbench.texteditor,3.4.1.r341_v20080827-1100,org.eclipse.ui.edit.text.goto.wordPrevious,1293263795015
executed,command,org.eclipse.ui.workbench.texteditor,3.4.1.r341_v20080827-1100,org.eclipse.ui.edit.text.goto.wordPrevious,1293263795296
executed,command,org.eclipse.ui.workbench.texteditor,3.4.1.r341_v20080827-1100,org.eclipse.ui.edit.text.goto.lineStart,1293263795828
executed,command,org.eclipse.ui.workbench.texteditor,3.4.1.r341_v20080827-1100,org.eclipse.ui.edit.text.goto.lineEnd,1293263797671
executed,command,org.eclipse.ui.workbench.texteditor,3.4.1.r341_v20080827-1100,org.eclipse.ui.edit.text.goto.lineStart,1293263800640
executed,command,org.eclipse.ui.workbench.texteditor,3.4.1.r341_v20080827-1100,org.eclipse.ui.edit.text.goto.lineEnd,1293263801000
executed,command,org.eclipse.ui,3.4.2.M20090204-0800,org.eclipse.ui.file.save,1293263803062
executed,command,org.eclipse.ui.workbench.texteditor,3.4.1.r341_v20080827-1100,org.eclipse.ui.edit.text.goto.wordNext,1293263803593
executed,command,org.eclipse.ui.workbench.texteditor,3.4.1.r341_v20080827-1100,org.eclipse.ui.edit.text.goto.wordNext,1293263804125
executed,command,org.eclipse.ui.workbench.texteditor,3.4.1.r341_v20080827-1100,org.eclipse.ui.edit.text.goto.wordNext,1293263804156
executed,command,org.eclipse.ui.workbench.texteditor,3.4.1.r341_v20080827-1100,org.eclipse.ui.edit.text.goto.wordNext,1293263804187
executed,command,org.eclipse.ui.workbench.texteditor,3.4.1.r341_v20080827-1100,org.eclipse.ui.edit.text.goto.wordNext,1293263804218
executed,command,org.eclipse.ui.workbench.texteditor,3.4.1.r341_v20080827-1100,org.eclipse.ui.edit.text.goto.wordNext,1293263804250
executed,command,org.eclipse.ui.workbench.texteditor,3.4.1.r341_v20080827-1100,org.eclipse.ui.edit.text.goto.wordNext,1293263804281
executed,command,org.eclipse.ui.workbench.texteditor,3.4.1.r341_v20080827-1100,org.eclipse.ui.edit.text.goto.wordNext,1293263804312
