what,kind,bundleId,bundleVersion,description,time
executed,command,org.eclipse.ui.workbench.texteditor,3.4.1.r341_v20080827-1100,org.eclipse.ui.edit.text.goto.wordNext,1293204702593
executed,command,org.eclipse.ui.workbench.texteditor,3.4.1.r341_v20080827-1100,org.eclipse.ui.edit.text.goto.wordNext,1293204703140
executed,command,org.eclipse.ui.workbench.texteditor,3.4.1.r341_v20080827-1100,org.eclipse.ui.edit.text.goto.wordNext,1293204703171
executed,command,org.eclipse.ui.workbench.texteditor,3.4.1.r341_v20080827-1100,org.eclipse.ui.edit.text.goto.wordNext,1293204703203
executed,command,org.eclipse.ui.workbench.texteditor,3.4.1.r341_v20080827-1100,org.eclipse.ui.edit.text.goto.wordNext,1293204703234
executed,command,org.eclipse.ui.workbench.texteditor,3.4.1.r341_v20080827-1100,org.eclipse.ui.edit.text.goto.wordNext,1293204703265
executed,command,org.eclipse.ui.workbench.texteditor,3.4.1.r341_v20080827-1100,org.eclipse.ui.edit.text.goto.wordNext,1293204703296
executed,command,org.eclipse.ui.workbench.texteditor,3.4.1.r341_v20080827-1100,org.eclipse.ui.edit.text.goto.wordNext,1293204703328
executed,command,org.eclipse.ui.workbench.texteditor,3.4.1.r341_v20080827-1100,org.eclipse.ui.edit.text.goto.wordPrevious,1293204703640
executed,command,org.eclipse.ui,3.4.2.M20090204-0800,org.eclipse.ui.edit.delete,1293204704343
executed,command,org.eclipse.ui,3.4.2.M20090204-0800,org.eclipse.ui.file.save,1293204705515
activated,view,org.eclipse.ui.console,3.3.1.v20090128_r342,org.eclipse.ui.console.ConsoleView,1293204707921
activated,editor,org.eclipse.jdt.ui,3.4.2.r342_v20090107-0800,org.eclipse.jdt.ui.CompilationUnitEditor,1293204709500
deactivated,workbench,org.eclipse.ui.workbench,3.4.2.M20090127-1700,,1293204711640
activated,workbench,org.eclipse.ui.workbench,3.4.2.M20090127-1700,,1293204711968
executed,command,org.eclipse.jdt.debug.ui,3.3.1.v20080730_r341,org.eclipse.jdt.debug.ui.localJavaShortcut.run,1293204712031
activated,view,org.eclipse.ui.console,3.3.1.v20090128_r342,org.eclipse.ui.console.ConsoleView,1293204713468
activated,editor,org.eclipse.jdt.ui,3.4.2.r342_v20090107-0800,org.eclipse.jdt.ui.CompilationUnitEditor,1293204726656
deactivated,workbench,org.eclipse.ui.workbench,3.4.2.M20090127-1700,,1293204728921
activated,workbench,org.eclipse.ui.workbench,3.4.2.M20090127-1700,,1293204738031
activated,editor,org.eclipse.jdt.ui,3.4.2.r342_v20090107-0800,org.eclipse.jdt.ui.CompilationUnitEditor,1293204738078
executed,command,org.eclipse.ui,3.4.2.M20090204-0800,org.eclipse.ui.window.nextEditor,1293204738078
deactivated,workbench,org.eclipse.ui.workbench,3.4.2.M20090127-1700,,1293204749812
activated,workbench,org.eclipse.ui.workbench,3.4.2.M20090127-1700,,1293204751203
activated,editor,org.eclipse.jdt.ui,3.4.2.r342_v20090107-0800,org.eclipse.jdt.ui.CompilationUnitEditor,1293204751296
