what,kind,bundleId,bundleVersion,description,time
activated,workbench,org.eclipse.ui.workbench,3.4.2.M20090127-1700,,1293273721000
opened,editor,org.eclipse.jdt.ui,3.4.2.r342_v20090107-0800,org.eclipse.jdt.ui.CompilationUnitEditor,1293273721140
activated,editor,org.eclipse.jdt.ui,3.4.2.r342_v20090107-0800,org.eclipse.jdt.ui.CompilationUnitEditor,1293273721203
executed,command,org.eclipse.ui,3.4.2.M20090204-0800,org.eclipse.ui.window.nextEditor,1293273721203
executed,command,org.eclipse.ui.workbench.texteditor,3.4.1.r341_v20080827-1100,org.eclipse.ui.edit.text.goto.wordNext,1293273740390
executed,command,org.eclipse.ui.workbench.texteditor,3.4.1.r341_v20080827-1100,org.eclipse.ui.edit.text.goto.wordNext,1293273740937
executed,command,org.eclipse.ui.workbench.texteditor,3.4.1.r341_v20080827-1100,org.eclipse.ui.edit.text.goto.wordNext,1293273740968
executed,command,org.eclipse.ui.workbench.texteditor,3.4.1.r341_v20080827-1100,org.eclipse.ui.edit.text.goto.wordNext,1293273741000
executed,command,org.eclipse.ui.workbench.texteditor,3.4.1.r341_v20080827-1100,org.eclipse.ui.edit.text.goto.wordNext,1293273741031
executed,command,org.eclipse.ui.workbench.texteditor,3.4.1.r341_v20080827-1100,org.eclipse.ui.edit.text.goto.wordNext,1293273741062
executed,command,org.eclipse.ui.workbench.texteditor,3.4.1.r341_v20080827-1100,org.eclipse.ui.edit.text.goto.wordNext,1293273741265
deactivated,workbench,org.eclipse.ui.workbench,3.4.2.M20090127-1700,,1293273742046
activated,workbench,org.eclipse.ui.workbench,3.4.2.M20090127-1700,,1293274223625
activated,view,org.eclipse.ui.console,3.3.1.v20090128_r342,org.eclipse.ui.console.ConsoleView,1293274225203
executed,command,org.eclipse.ui,3.4.2.M20090204-0800,org.eclipse.ui.edit.paste,1293274228312
deactivated,workbench,org.eclipse.ui.workbench,3.4.2.M20090127-1700,,1293274261828
activated,workbench,org.eclipse.ui.workbench,3.4.2.M20090127-1700,,1293274269765
deactivated,workbench,org.eclipse.ui.workbench,3.4.2.M20090127-1700,,1293274270359
activated,workbench,org.eclipse.ui.workbench,3.4.2.M20090127-1700,,1293274364937
deactivated,workbench,org.eclipse.ui.workbench,3.4.2.M20090127-1700,,1293274382140
activated,workbench,org.eclipse.ui.workbench,3.4.2.M20090127-1700,,1293274403734
deactivated,workbench,org.eclipse.ui.workbench,3.4.2.M20090127-1700,,1293274405203
activated,workbench,org.eclipse.ui.workbench,3.4.2.M20090127-1700,,1293274429890
deactivated,workbench,org.eclipse.ui.workbench,3.4.2.M20090127-1700,,1293274430531
activated,workbench,org.eclipse.ui.workbench,3.4.2.M20090127-1700,,1293274432937
