what,kind,bundleId,bundleVersion,description,time
deactivated,workbench,org.eclipse.ui.workbench,3.4.2.M20090127-1700,,1293262933015
activated,workbench,org.eclipse.ui.workbench,3.4.2.M20090127-1700,,1293262935406
deactivated,workbench,org.eclipse.ui.workbench,3.4.2.M20090127-1700,,1293262946281
activated,workbench,org.eclipse.ui.workbench,3.4.2.M20090127-1700,,1293262948171
deactivated,workbench,org.eclipse.ui.workbench,3.4.2.M20090127-1700,,1293262953640
activated,workbench,org.eclipse.ui.workbench,3.4.2.M20090127-1700,,1293262956375
deactivated,workbench,org.eclipse.ui.workbench,3.4.2.M20090127-1700,,1293262956828
activated,workbench,org.eclipse.ui.workbench,3.4.2.M20090127-1700,,1293262967484
deactivated,workbench,org.eclipse.ui.workbench,3.4.2.M20090127-1700,,1293262968718
activated,workbench,org.eclipse.ui.workbench,3.4.2.M20090127-1700,,1293262969015
deactivated,workbench,org.eclipse.ui.workbench,3.4.2.M20090127-1700,,1293262969875
activated,workbench,org.eclipse.ui.workbench,3.4.2.M20090127-1700,,1293262971328
deactivated,workbench,org.eclipse.ui.workbench,3.4.2.M20090127-1700,,1293262980265
activated,workbench,org.eclipse.ui.workbench,3.4.2.M20090127-1700,,1293262983031
deactivated,workbench,org.eclipse.ui.workbench,3.4.2.M20090127-1700,,1293262993125
activated,workbench,org.eclipse.ui.workbench,3.4.2.M20090127-1700,,1293262995218
deactivated,workbench,org.eclipse.ui.workbench,3.4.2.M20090127-1700,,1293262999875
activated,workbench,org.eclipse.ui.workbench,3.4.2.M20090127-1700,,1293263002062
deactivated,workbench,org.eclipse.ui.workbench,3.4.2.M20090127-1700,,1293263018000
activated,workbench,org.eclipse.ui.workbench,3.4.2.M20090127-1700,,1293263020843
deactivated,workbench,org.eclipse.ui.workbench,3.4.2.M20090127-1700,,1293263021906
activated,workbench,org.eclipse.ui.workbench,3.4.2.M20090127-1700,,1293263023015
deactivated,workbench,org.eclipse.ui.workbench,3.4.2.M20090127-1700,,1293263024187
activated,workbench,org.eclipse.ui.workbench,3.4.2.M20090127-1700,,1293263025796
deactivated,workbench,org.eclipse.ui.workbench,3.4.2.M20090127-1700,,1293263032687
