what,kind,bundleId,bundleVersion,description,time
executed,command,org.eclipse.ui,3.4.2.M20090204-0800,org.eclipse.ui.edit.cut,1293185332796
executed,command,org.eclipse.ui,3.4.2.M20090204-0800,org.eclipse.ui.edit.paste,1293185338437
deactivated,workbench,org.eclipse.ui.workbench,3.4.2.M20090127-1700,,1293185343640
activated,workbench,org.eclipse.ui.workbench,3.4.2.M20090127-1700,,1293185436109
executed,command,org.eclipse.ui.workbench.texteditor,3.4.1.r341_v20080827-1100,org.eclipse.ui.edit.text.goto.wordNext,1293185438109
executed,command,org.eclipse.ui,3.4.2.M20090204-0800,org.eclipse.ui.edit.undo,1293185453765
executed,command,org.eclipse.ui,3.4.2.M20090204-0800,org.eclipse.ui.edit.undo,1293185454171
executed,command,org.eclipse.ui.workbench.texteditor,3.4.1.r341_v20080827-1100,org.eclipse.ui.edit.text.goto.lineStart,1293185456562
executed,command,org.eclipse.ui,3.4.2.M20090204-0800,org.eclipse.ui.file.save,1293185459484
deactivated,workbench,org.eclipse.ui.workbench,3.4.2.M20090127-1700,,1293185468890
activated,workbench,org.eclipse.ui.workbench,3.4.2.M20090127-1700,,1293185469296
executed,command,org.eclipse.ui,3.4.2.M20090204-0800,org.eclipse.ui.edit.text.contentAssist.proposals,1293185477843
executed,command,org.eclipse.ui,3.4.2.M20090204-0800,org.eclipse.ui.file.save,1293185480156
executed,command,org.eclipse.ui,3.4.2.M20090204-0800,org.eclipse.ui.edit.text.contentAssist.proposals,1293185489843
executed,command,org.eclipse.ui,3.4.2.M20090204-0800,org.eclipse.ui.file.save,1293185493343
executed,command,org.eclipse.ui.workbench.texteditor,3.4.1.r341_v20080827-1100,org.eclipse.ui.edit.text.goto.lineStart,1293185496500
executed,command,org.eclipse.ui.workbench.texteditor,3.4.1.r341_v20080827-1100,org.eclipse.ui.edit.text.goto.lineStart,1293185497281
executed,command,org.eclipse.ui,3.4.2.M20090204-0800,org.eclipse.ui.edit.copy,1293185500265
executed,command,org.eclipse.ui,3.4.2.M20090204-0800,org.eclipse.ui.edit.paste,1293185502046
executed,command,org.eclipse.ui,3.4.2.M20090204-0800,org.eclipse.ui.edit.text.contentAssist.proposals,1293185504031
executed,command,org.eclipse.ui.workbench.texteditor,3.4.1.r341_v20080827-1100,org.eclipse.ui.edit.text.select.wordPrevious,1293185505750
executed,command,org.eclipse.ui,3.4.2.M20090204-0800,org.eclipse.ui.edit.delete,1293185506453
executed,command,org.eclipse.ui.workbench.texteditor,3.4.1.r341_v20080827-1100,org.eclipse.ui.edit.text.goto.lineEnd,1293185507390
executed,command,org.eclipse.ui,3.4.2.M20090204-0800,org.eclipse.ui.edit.text.contentAssist.proposals,1293185509109
executed,command,org.eclipse.ui,3.4.2.M20090204-0800,org.eclipse.ui.file.save,1293185511343
