what,kind,bundleId,bundleVersion,description,time
no handler,command,org.eclipse.datatools.enablement.sybase.asa.schemaobjecteditor.examples,,"org.eclipse.datatools.enablement.sybase.asa.schemaobjecteditor.examples.tableschemaeditor.cutcolumn",1295026606375
no handler,command,org.eclipse.datatools.enablement.sybase.asa.schemaobjecteditor.examples,,"org.eclipse.datatools.enablement.sybase.asa.schemaobjecteditor.examples.tableschemaeditor.cutcolumn",1295026606375
no handler,command,org.eclipse.datatools.enablement.sybase.asa.schemaobjecteditor.examples,,"org.eclipse.datatools.enablement.sybase.asa.schemaobjecteditor.examples.tableschemaeditor.cutcolumn",1295026606375
no handler,command,org.eclipse.datatools.enablement.sybase.asa.schemaobjecteditor.examples,,"org.eclipse.datatools.enablement.sybase.asa.schemaobjecteditor.examples.tableschemaeditor.cutcolumn",1295026606375
no handler,command,org.eclipse.datatools.enablement.sybase.asa.schemaobjecteditor.examples,,"org.eclipse.datatools.enablement.sybase.asa.schemaobjecteditor.examples.tableschemaeditor.cutcolumn",1295026606375
no handler,command,org.eclipse.datatools.enablement.sybase.asa.schemaobjecteditor.examples,,"org.eclipse.datatools.enablement.sybase.asa.schemaobjecteditor.examples.tableschemaeditor.cutcolumn",1295026606375
no handler,command,org.eclipse.datatools.enablement.sybase.asa.schemaobjecteditor.examples,,"org.eclipse.datatools.enablement.sybase.asa.schemaobjecteditor.examples.tableschemaeditor.cutcolumn",1295026606375
no handler,command,org.eclipse.datatools.enablement.sybase.asa.schemaobjecteditor.examples,,"org.eclipse.datatools.enablement.sybase.asa.schemaobjecteditor.examples.tableschemaeditor.cutcolumn",1295026606375
no handler,command,org.eclipse.datatools.enablement.sybase.asa.schemaobjecteditor.examples,,"org.eclipse.datatools.enablement.sybase.asa.schemaobjecteditor.examples.tableschemaeditor.cutcolumn",1295026606375
no handler,command,org.eclipse.datatools.enablement.sybase.asa.schemaobjecteditor.examples,,"org.eclipse.datatools.enablement.sybase.asa.schemaobjecteditor.examples.tableschemaeditor.cutcolumn",1295026606375
no handler,command,org.eclipse.datatools.enablement.sybase.asa.schemaobjecteditor.examples,,"org.eclipse.datatools.enablement.sybase.asa.schemaobjecteditor.examples.tableschemaeditor.cutcolumn",1295026606375
no handler,command,org.eclipse.datatools.enablement.sybase.asa.schemaobjecteditor.examples,,"org.eclipse.datatools.enablement.sybase.asa.schemaobjecteditor.examples.tableschemaeditor.cutcolumn",1295026606375
no handler,command,org.eclipse.datatools.enablement.sybase.asa.schemaobjecteditor.examples,,"org.eclipse.datatools.enablement.sybase.asa.schemaobjecteditor.examples.tableschemaeditor.cutcolumn",1295026606375
no handler,command,org.eclipse.datatools.enablement.sybase.asa.schemaobjecteditor.examples,,"org.eclipse.datatools.enablement.sybase.asa.schemaobjecteditor.examples.tableschemaeditor.cutcolumn",1295026606375
no handler,command,org.eclipse.datatools.enablement.sybase.asa.schemaobjecteditor.examples,,"org.eclipse.datatools.enablement.sybase.asa.schemaobjecteditor.examples.tableschemaeditor.cutcolumn",1295026606375
no handler,command,org.eclipse.datatools.enablement.sybase.asa.schemaobjecteditor.examples,,"org.eclipse.datatools.enablement.sybase.asa.schemaobjecteditor.examples.tableschemaeditor.cutcolumn",1295026606375
no handler,command,org.eclipse.datatools.enablement.sybase.asa.schemaobjecteditor.examples,,"org.eclipse.datatools.enablement.sybase.asa.schemaobjecteditor.examples.tableschemaeditor.cutcolumn",1295026606375
no handler,command,org.eclipse.datatools.enablement.sybase.asa.schemaobjecteditor.examples,,"org.eclipse.datatools.enablement.sybase.asa.schemaobjecteditor.examples.tableschemaeditor.cutcolumn",1295026606375
no handler,command,org.eclipse.datatools.enablement.sybase.asa.schemaobjecteditor.examples,,"org.eclipse.datatools.enablement.sybase.asa.schemaobjecteditor.examples.tableschemaeditor.cutcolumn",1295026606375
no handler,command,org.eclipse.datatools.enablement.sybase.asa.schemaobjecteditor.examples,,"org.eclipse.datatools.enablement.sybase.asa.schemaobjecteditor.examples.tableschemaeditor.cutcolumn",1295026606375
no handler,command,org.eclipse.datatools.enablement.sybase.asa.schemaobjecteditor.examples,,"org.eclipse.datatools.enablement.sybase.asa.schemaobjecteditor.examples.tableschemaeditor.cutcolumn",1295026606375
no handler,command,org.eclipse.datatools.enablement.sybase.asa.schemaobjecteditor.examples,,"org.eclipse.datatools.enablement.sybase.asa.schemaobjecteditor.examples.tableschemaeditor.cutcolumn",1295026606375
no handler,command,org.eclipse.datatools.enablement.sybase.asa.schemaobjecteditor.examples,,"org.eclipse.datatools.enablement.sybase.asa.schemaobjecteditor.examples.tableschemaeditor.cutcolumn",1295026606375
no handler,command,org.eclipse.datatools.enablement.sybase.asa.schemaobjecteditor.examples,,"org.eclipse.datatools.enablement.sybase.asa.schemaobjecteditor.examples.tableschemaeditor.cutcolumn",1295026606375
no handler,command,org.eclipse.datatools.enablement.sybase.asa.schemaobjecteditor.examples,,"org.eclipse.datatools.enablement.sybase.asa.schemaobjecteditor.examples.tableschemaeditor.cutcolumn",1295026606375
no handler,command,org.eclipse.datatools.enablement.sybase.asa.schemaobjecteditor.examples,,"org.eclipse.datatools.enablement.sybase.asa.schemaobjecteditor.examples.tableschemaeditor.cutcolumn",1295026606375
no handler,command,org.eclipse.datatools.enablement.sybase.asa.schemaobjecteditor.examples,,"org.eclipse.datatools.enablement.sybase.asa.schemaobjecteditor.examples.tableschemaeditor.cutcolumn",1295026606375
no handler,command,org.eclipse.datatools.enablement.sybase.asa.schemaobjecteditor.examples,,"org.eclipse.datatools.enablement.sybase.asa.schemaobjecteditor.examples.tableschemaeditor.cutcolumn",1295026606375
no handler,command,org.eclipse.datatools.enablement.sybase.asa.schemaobjecteditor.examples,,"org.eclipse.datatools.enablement.sybase.asa.schemaobjecteditor.examples.tableschemaeditor.cutcolumn",1295026606375
no handler,command,org.eclipse.datatools.enablement.sybase.asa.schemaobjecteditor.examples,,"org.eclipse.datatools.enablement.sybase.asa.schemaobjecteditor.examples.tableschemaeditor.cutcolumn",1295026606375
no handler,command,org.eclipse.datatools.enablement.sybase.asa.schemaobjecteditor.examples,,"org.eclipse.datatools.enablement.sybase.asa.schemaobjecteditor.examples.tableschemaeditor.cutcolumn",1295026606375
no handler,command,org.eclipse.datatools.enablement.sybase.asa.schemaobjecteditor.examples,,"org.eclipse.datatools.enablement.sybase.asa.schemaobjecteditor.examples.tableschemaeditor.cutcolumn",1295026606375
no handler,command,org.eclipse.datatools.enablement.sybase.asa.schemaobjecteditor.examples,,"org.eclipse.datatools.enablement.sybase.asa.schemaobjecteditor.examples.tableschemaeditor.cutcolumn",1295026606375
no handler,command,org.eclipse.datatools.enablement.sybase.asa.schemaobjecteditor.examples,,"org.eclipse.datatools.enablement.sybase.asa.schemaobjecteditor.examples.tableschemaeditor.cutcolumn",1295026606375
no handler,command,org.eclipse.datatools.enablement.sybase.asa.schemaobjecteditor.examples,,"org.eclipse.datatools.enablement.sybase.asa.schemaobjecteditor.examples.tableschemaeditor.cutcolumn",1295026606375
no handler,command,org.eclipse.datatools.enablement.sybase.asa.schemaobjecteditor.examples,,"org.eclipse.datatools.enablement.sybase.asa.schemaobjecteditor.examples.tableschemaeditor.cutcolumn",1295026606375
no handler,command,org.eclipse.datatools.enablement.sybase.asa.schemaobjecteditor.examples,,"org.eclipse.datatools.enablement.sybase.asa.schemaobjecteditor.examples.tableschemaeditor.cutcolumn",1295026606406
no handler,command,org.eclipse.datatools.enablement.sybase.asa.schemaobjecteditor.examples,,"org.eclipse.datatools.enablement.sybase.asa.schemaobjecteditor.examples.tableschemaeditor.cutcolumn",1295026606406
no handler,command,org.eclipse.datatools.enablement.sybase.asa.schemaobjecteditor.examples,,"org.eclipse.datatools.enablement.sybase.asa.schemaobjecteditor.examples.tableschemaeditor.cutcolumn",1295026606406
no handler,command,org.eclipse.datatools.enablement.sybase.asa.schemaobjecteditor.examples,,"org.eclipse.datatools.enablement.sybase.asa.schemaobjecteditor.examples.tableschemaeditor.cutcolumn",1295026606406
no handler,command,org.eclipse.datatools.enablement.sybase.asa.schemaobjecteditor.examples,,"org.eclipse.datatools.enablement.sybase.asa.schemaobjecteditor.examples.tableschemaeditor.cutcolumn",1295026606406
no handler,command,org.eclipse.datatools.enablement.sybase.asa.schemaobjecteditor.examples,,"org.eclipse.datatools.enablement.sybase.asa.schemaobjecteditor.examples.tableschemaeditor.cutcolumn",1295026606406
no handler,command,org.eclipse.datatools.enablement.sybase.asa.schemaobjecteditor.examples,,"org.eclipse.datatools.enablement.sybase.asa.schemaobjecteditor.examples.tableschemaeditor.cutcolumn",1295026606406
no handler,command,org.eclipse.datatools.enablement.sybase.asa.schemaobjecteditor.examples,,"org.eclipse.datatools.enablement.sybase.asa.schemaobjecteditor.examples.tableschemaeditor.cutcolumn",1295026606406
no handler,command,org.eclipse.datatools.enablement.sybase.asa.schemaobjecteditor.examples,,"org.eclipse.datatools.enablement.sybase.asa.schemaobjecteditor.examples.tableschemaeditor.cutcolumn",1295026606406
no handler,command,org.eclipse.datatools.enablement.sybase.asa.schemaobjecteditor.examples,,"org.eclipse.datatools.enablement.sybase.asa.schemaobjecteditor.examples.tableschemaeditor.cutcolumn",1295026606406
no handler,command,org.eclipse.datatools.enablement.sybase.asa.schemaobjecteditor.examples,,"org.eclipse.datatools.enablement.sybase.asa.schemaobjecteditor.examples.tableschemaeditor.cutcolumn",1295026606406
no handler,command,org.eclipse.datatools.enablement.sybase.asa.schemaobjecteditor.examples,,"org.eclipse.datatools.enablement.sybase.asa.schemaobjecteditor.examples.tableschemaeditor.cutcolumn",1295026606406
no handler,command,org.eclipse.datatools.enablement.sybase.asa.schemaobjecteditor.examples,,"org.eclipse.datatools.enablement.sybase.asa.schemaobjecteditor.examples.tableschemaeditor.cutcolumn",1295026606406
no handler,command,org.eclipse.datatools.enablement.sybase.asa.schemaobjecteditor.examples,,"org.eclipse.datatools.enablement.sybase.asa.schemaobjecteditor.examples.tableschemaeditor.cutcolumn",1295026606406
no handler,command,org.eclipse.datatools.enablement.sybase.asa.schemaobjecteditor.examples,,"org.eclipse.datatools.enablement.sybase.asa.schemaobjecteditor.examples.tableschemaeditor.cutcolumn",1295026606406
no handler,command,org.eclipse.datatools.enablement.sybase.asa.schemaobjecteditor.examples,,"org.eclipse.datatools.enablement.sybase.asa.schemaobjecteditor.examples.tableschemaeditor.cutcolumn",1295026606406
no handler,command,org.eclipse.datatools.enablement.sybase.asa.schemaobjecteditor.examples,,"org.eclipse.datatools.enablement.sybase.asa.schemaobjecteditor.examples.tableschemaeditor.cutcolumn",1295026606406
no handler,command,org.eclipse.datatools.enablement.sybase.asa.schemaobjecteditor.examples,,"org.eclipse.datatools.enablement.sybase.asa.schemaobjecteditor.examples.tableschemaeditor.cutcolumn",1295026606406
no handler,command,org.eclipse.datatools.enablement.sybase.asa.schemaobjecteditor.examples,,"org.eclipse.datatools.enablement.sybase.asa.schemaobjecteditor.examples.tableschemaeditor.cutcolumn",1295026606406
no handler,command,org.eclipse.datatools.enablement.sybase.asa.schemaobjecteditor.examples,,"org.eclipse.datatools.enablement.sybase.asa.schemaobjecteditor.examples.tableschemaeditor.cutcolumn",1295026606406
no handler,command,org.eclipse.datatools.enablement.sybase.asa.schemaobjecteditor.examples,,"org.eclipse.datatools.enablement.sybase.asa.schemaobjecteditor.examples.tableschemaeditor.cutcolumn",1295026606406
no handler,command,org.eclipse.datatools.enablement.sybase.asa.schemaobjecteditor.examples,,"org.eclipse.datatools.enablement.sybase.asa.schemaobjecteditor.examples.tableschemaeditor.cutcolumn",1295026606406
no handler,command,org.eclipse.datatools.enablement.sybase.asa.schemaobjecteditor.examples,,"org.eclipse.datatools.enablement.sybase.asa.schemaobjecteditor.examples.tableschemaeditor.cutcolumn",1295026606406
no handler,command,org.eclipse.datatools.enablement.sybase.asa.schemaobjecteditor.examples,,"org.eclipse.datatools.enablement.sybase.asa.schemaobjecteditor.examples.tableschemaeditor.cutcolumn",1295026606406
no handler,command,org.eclipse.datatools.enablement.sybase.asa.schemaobjecteditor.examples,,"org.eclipse.datatools.enablement.sybase.asa.schemaobjecteditor.examples.tableschemaeditor.cutcolumn",1295026606406
no handler,command,org.eclipse.datatools.enablement.sybase.asa.schemaobjecteditor.examples,,"org.eclipse.datatools.enablement.sybase.asa.schemaobjecteditor.examples.tableschemaeditor.cutcolumn",1295026606406
no handler,command,org.eclipse.datatools.enablement.sybase.asa.schemaobjecteditor.examples,,"org.eclipse.datatools.enablement.sybase.asa.schemaobjecteditor.examples.tableschemaeditor.cutcolumn",1295026606406
no handler,command,org.eclipse.datatools.enablement.sybase.asa.schemaobjecteditor.examples,,"org.eclipse.datatools.enablement.sybase.asa.schemaobjecteditor.examples.tableschemaeditor.cutcolumn",1295026606406
no handler,command,org.eclipse.datatools.enablement.sybase.asa.schemaobjecteditor.examples,,"org.eclipse.datatools.enablement.sybase.asa.schemaobjecteditor.examples.tableschemaeditor.cutcolumn",1295026606406
no handler,command,org.eclipse.datatools.enablement.sybase.asa.schemaobjecteditor.examples,,"org.eclipse.datatools.enablement.sybase.asa.schemaobjecteditor.examples.tableschemaeditor.cutcolumn",1295026606406
no handler,command,org.eclipse.datatools.enablement.sybase.asa.schemaobjecteditor.examples,,"org.eclipse.datatools.enablement.sybase.asa.schemaobjecteditor.examples.tableschemaeditor.cutcolumn",1295026606406
no handler,command,org.eclipse.datatools.enablement.sybase.asa.schemaobjecteditor.examples,,"org.eclipse.datatools.enablement.sybase.asa.schemaobjecteditor.examples.tableschemaeditor.cutcolumn",1295026606406
no handler,command,org.eclipse.datatools.enablement.sybase.asa.schemaobjecteditor.examples,,"org.eclipse.datatools.enablement.sybase.asa.schemaobjecteditor.examples.tableschemaeditor.cutcolumn",1295026606406
no handler,command,org.eclipse.datatools.enablement.sybase.asa.schemaobjecteditor.examples,,"org.eclipse.datatools.enablement.sybase.asa.schemaobjecteditor.examples.tableschemaeditor.cutcolumn",1295026606406
no handler,command,org.eclipse.datatools.enablement.sybase.asa.schemaobjecteditor.examples,,"org.eclipse.datatools.enablement.sybase.asa.schemaobjecteditor.examples.tableschemaeditor.cutcolumn",1295026606406
no handler,command,org.eclipse.datatools.enablement.sybase.asa.schemaobjecteditor.examples,,"org.eclipse.datatools.enablement.sybase.asa.schemaobjecteditor.examples.tableschemaeditor.cutcolumn",1295026606406
no handler,command,org.eclipse.datatools.enablement.sybase.asa.schemaobjecteditor.examples,,"org.eclipse.datatools.enablement.sybase.asa.schemaobjecteditor.examples.tableschemaeditor.cutcolumn",1295026606406
no handler,command,org.eclipse.datatools.enablement.sybase.asa.schemaobjecteditor.examples,,"org.eclipse.datatools.enablement.sybase.asa.schemaobjecteditor.examples.tableschemaeditor.cutcolumn",1295026606406
no handler,command,org.eclipse.datatools.enablement.sybase.asa.schemaobjecteditor.examples,,"org.eclipse.datatools.enablement.sybase.asa.schemaobjecteditor.examples.tableschemaeditor.cutcolumn",1295026606406
no handler,command,org.eclipse.datatools.enablement.sybase.asa.schemaobjecteditor.examples,,"org.eclipse.datatools.enablement.sybase.asa.schemaobjecteditor.examples.tableschemaeditor.cutcolumn",1295026606406
no handler,command,org.eclipse.datatools.enablement.sybase.asa.schemaobjecteditor.examples,,"org.eclipse.datatools.enablement.sybase.asa.schemaobjecteditor.examples.tableschemaeditor.cutcolumn",1295026606406
no handler,command,org.eclipse.datatools.enablement.sybase.asa.schemaobjecteditor.examples,,"org.eclipse.datatools.enablement.sybase.asa.schemaobjecteditor.examples.tableschemaeditor.cutcolumn",1295026606406
no handler,command,org.eclipse.datatools.enablement.sybase.asa.schemaobjecteditor.examples,,"org.eclipse.datatools.enablement.sybase.asa.schemaobjecteditor.examples.tableschemaeditor.cutcolumn",1295026606406
no handler,command,org.eclipse.datatools.enablement.sybase.asa.schemaobjecteditor.examples,,"org.eclipse.datatools.enablement.sybase.asa.schemaobjecteditor.examples.tableschemaeditor.cutcolumn",1295026606406
no handler,command,org.eclipse.datatools.enablement.sybase.asa.schemaobjecteditor.examples,,"org.eclipse.datatools.enablement.sybase.asa.schemaobjecteditor.examples.tableschemaeditor.cutcolumn",1295026606406
no handler,command,org.eclipse.datatools.enablement.sybase.asa.schemaobjecteditor.examples,,"org.eclipse.datatools.enablement.sybase.asa.schemaobjecteditor.examples.tableschemaeditor.cutcolumn",1295026606406
no handler,command,org.eclipse.datatools.enablement.sybase.asa.schemaobjecteditor.examples,,"org.eclipse.datatools.enablement.sybase.asa.schemaobjecteditor.examples.tableschemaeditor.cutcolumn",1295026606406
no handler,command,org.eclipse.datatools.enablement.sybase.asa.schemaobjecteditor.examples,,"org.eclipse.datatools.enablement.sybase.asa.schemaobjecteditor.examples.tableschemaeditor.cutcolumn",1295026606406
no handler,command,org.eclipse.datatools.enablement.sybase.asa.schemaobjecteditor.examples,,"org.eclipse.datatools.enablement.sybase.asa.schemaobjecteditor.examples.tableschemaeditor.cutcolumn",1295026606406
no handler,command,org.eclipse.datatools.enablement.sybase.asa.schemaobjecteditor.examples,,"org.eclipse.datatools.enablement.sybase.asa.schemaobjecteditor.examples.tableschemaeditor.cutcolumn",1295026606406
no handler,command,org.eclipse.datatools.enablement.sybase.asa.schemaobjecteditor.examples,,"org.eclipse.datatools.enablement.sybase.asa.schemaobjecteditor.examples.tableschemaeditor.cutcolumn",1295026606406
no handler,command,org.eclipse.datatools.enablement.sybase.asa.schemaobjecteditor.examples,,"org.eclipse.datatools.enablement.sybase.asa.schemaobjecteditor.examples.tableschemaeditor.cutcolumn",1295026606406
no handler,command,org.eclipse.datatools.enablement.sybase.asa.schemaobjecteditor.examples,,"org.eclipse.datatools.enablement.sybase.asa.schemaobjecteditor.examples.tableschemaeditor.cutcolumn",1295026606406
no handler,command,org.eclipse.datatools.enablement.sybase.asa.schemaobjecteditor.examples,,"org.eclipse.datatools.enablement.sybase.asa.schemaobjecteditor.examples.tableschemaeditor.cutcolumn",1295026606406
no handler,command,org.eclipse.datatools.enablement.sybase.asa.schemaobjecteditor.examples,,"org.eclipse.datatools.enablement.sybase.asa.schemaobjecteditor.examples.tableschemaeditor.cutcolumn",1295026606406
no handler,command,org.eclipse.datatools.enablement.sybase.asa.schemaobjecteditor.examples,,"org.eclipse.datatools.enablement.sybase.asa.schemaobjecteditor.examples.tableschemaeditor.cutcolumn",1295026606406
no handler,command,org.eclipse.datatools.enablement.sybase.asa.schemaobjecteditor.examples,,"org.eclipse.datatools.enablement.sybase.asa.schemaobjecteditor.examples.tableschemaeditor.cutcolumn",1295026606406
no handler,command,org.eclipse.datatools.enablement.sybase.asa.schemaobjecteditor.examples,,"org.eclipse.datatools.enablement.sybase.asa.schemaobjecteditor.examples.tableschemaeditor.cutcolumn",1295026606406
no handler,command,org.eclipse.datatools.enablement.sybase.asa.schemaobjecteditor.examples,,"org.eclipse.datatools.enablement.sybase.asa.schemaobjecteditor.examples.tableschemaeditor.cutcolumn",1295026606406
no handler,command,org.eclipse.datatools.enablement.sybase.asa.schemaobjecteditor.examples,,"org.eclipse.datatools.enablement.sybase.asa.schemaobjecteditor.examples.tableschemaeditor.cutcolumn",1295026606406
no handler,command,org.eclipse.datatools.enablement.sybase.asa.schemaobjecteditor.examples,,"org.eclipse.datatools.enablement.sybase.asa.schemaobjecteditor.examples.tableschemaeditor.cutcolumn",1295026606406
no handler,command,org.eclipse.datatools.enablement.sybase.asa.schemaobjecteditor.examples,,"org.eclipse.datatools.enablement.sybase.asa.schemaobjecteditor.examples.tableschemaeditor.cutcolumn",1295026606406
no handler,command,org.eclipse.datatools.enablement.sybase.asa.schemaobjecteditor.examples,,"org.eclipse.datatools.enablement.sybase.asa.schemaobjecteditor.examples.tableschemaeditor.cutcolumn",1295026606406
no handler,command,org.eclipse.datatools.enablement.sybase.asa.schemaobjecteditor.examples,,"org.eclipse.datatools.enablement.sybase.asa.schemaobjecteditor.examples.tableschemaeditor.cutcolumn",1295026606406
no handler,command,org.eclipse.datatools.enablement.sybase.asa.schemaobjecteditor.examples,,"org.eclipse.datatools.enablement.sybase.asa.schemaobjecteditor.examples.tableschemaeditor.cutcolumn",1295026606406
no handler,command,org.eclipse.datatools.enablement.sybase.asa.schemaobjecteditor.examples,,"org.eclipse.datatools.enablement.sybase.asa.schemaobjecteditor.examples.tableschemaeditor.cutcolumn",1295026606406
no handler,command,org.eclipse.datatools.enablement.sybase.asa.schemaobjecteditor.examples,,"org.eclipse.datatools.enablement.sybase.asa.schemaobjecteditor.examples.tableschemaeditor.cutcolumn",1295026606406
no handler,command,org.eclipse.datatools.enablement.sybase.asa.schemaobjecteditor.examples,,"org.eclipse.datatools.enablement.sybase.asa.schemaobjecteditor.examples.tableschemaeditor.cutcolumn",1295026606406
no handler,command,org.eclipse.datatools.enablement.sybase.asa.schemaobjecteditor.examples,,"org.eclipse.datatools.enablement.sybase.asa.schemaobjecteditor.examples.tableschemaeditor.cutcolumn",1295026606406
no handler,command,org.eclipse.datatools.enablement.sybase.asa.schemaobjecteditor.examples,,"org.eclipse.datatools.enablement.sybase.asa.schemaobjecteditor.examples.tableschemaeditor.cutcolumn",1295026606406
no handler,command,org.eclipse.datatools.enablement.sybase.asa.schemaobjecteditor.examples,,"org.eclipse.datatools.enablement.sybase.asa.schemaobjecteditor.examples.tableschemaeditor.cutcolumn",1295026606406
no handler,command,org.eclipse.datatools.enablement.sybase.asa.schemaobjecteditor.examples,,"org.eclipse.datatools.enablement.sybase.asa.schemaobjecteditor.examples.tableschemaeditor.cutcolumn",1295026606406
no handler,command,org.eclipse.datatools.enablement.sybase.asa.schemaobjecteditor.examples,,"org.eclipse.datatools.enablement.sybase.asa.schemaobjecteditor.examples.tableschemaeditor.cutcolumn",1295026606406
no handler,command,org.eclipse.datatools.enablement.sybase.asa.schemaobjecteditor.examples,,"org.eclipse.datatools.enablement.sybase.asa.schemaobjecteditor.examples.tableschemaeditor.cutcolumn",1295026606406
no handler,command,org.eclipse.datatools.enablement.sybase.asa.schemaobjecteditor.examples,,"org.eclipse.datatools.enablement.sybase.asa.schemaobjecteditor.examples.tableschemaeditor.cutcolumn",1295026606406
no handler,command,org.eclipse.datatools.enablement.sybase.asa.schemaobjecteditor.examples,,"org.eclipse.datatools.enablement.sybase.asa.schemaobjecteditor.examples.tableschemaeditor.cutcolumn",1295026606406
no handler,command,org.eclipse.datatools.enablement.sybase.asa.schemaobjecteditor.examples,,"org.eclipse.datatools.enablement.sybase.asa.schemaobjecteditor.examples.tableschemaeditor.cutcolumn",1295026606406
no handler,command,org.eclipse.datatools.enablement.sybase.asa.schemaobjecteditor.examples,,"org.eclipse.datatools.enablement.sybase.asa.schemaobjecteditor.examples.tableschemaeditor.cutcolumn",1295026606406
no handler,command,org.eclipse.datatools.enablement.sybase.asa.schemaobjecteditor.examples,,"org.eclipse.datatools.enablement.sybase.asa.schemaobjecteditor.examples.tableschemaeditor.cutcolumn",1295026606406
no handler,command,org.eclipse.datatools.enablement.sybase.asa.schemaobjecteditor.examples,,"org.eclipse.datatools.enablement.sybase.asa.schemaobjecteditor.examples.tableschemaeditor.cutcolumn",1295026606406
no handler,command,org.eclipse.datatools.enablement.sybase.asa.schemaobjecteditor.examples,,"org.eclipse.datatools.enablement.sybase.asa.schemaobjecteditor.examples.tableschemaeditor.cutcolumn",1295026606406
no handler,command,org.eclipse.datatools.enablement.sybase.asa.schemaobjecteditor.examples,,"org.eclipse.datatools.enablement.sybase.asa.schemaobjecteditor.examples.tableschemaeditor.cutcolumn",1295026606406
no handler,command,org.eclipse.datatools.enablement.sybase.asa.schemaobjecteditor.examples,,"org.eclipse.datatools.enablement.sybase.asa.schemaobjecteditor.examples.tableschemaeditor.cutcolumn",1295026606406
no handler,command,org.eclipse.datatools.enablement.sybase.asa.schemaobjecteditor.examples,,"org.eclipse.datatools.enablement.sybase.asa.schemaobjecteditor.examples.tableschemaeditor.cutcolumn",1295026606406
no handler,command,org.eclipse.datatools.enablement.sybase.asa.schemaobjecteditor.examples,,"org.eclipse.datatools.enablement.sybase.asa.schemaobjecteditor.examples.tableschemaeditor.cutcolumn",1295026606406
no handler,command,org.eclipse.datatools.enablement.sybase.asa.schemaobjecteditor.examples,,"org.eclipse.datatools.enablement.sybase.asa.schemaobjecteditor.examples.tableschemaeditor.cutcolumn",1295026606406
no handler,command,org.eclipse.datatools.enablement.sybase.asa.schemaobjecteditor.examples,,"org.eclipse.datatools.enablement.sybase.asa.schemaobjecteditor.examples.tableschemaeditor.cutcolumn",1295026606406
no handler,command,org.eclipse.datatools.enablement.sybase.asa.schemaobjecteditor.examples,,"org.eclipse.datatools.enablement.sybase.asa.schemaobjecteditor.examples.tableschemaeditor.cutcolumn",1295026606406
no handler,command,org.eclipse.datatools.enablement.sybase.asa.schemaobjecteditor.examples,,"org.eclipse.datatools.enablement.sybase.asa.schemaobjecteditor.examples.tableschemaeditor.cutcolumn",1295026606406
