what,kind,bundleId,bundleVersion,description,time
activated,workbench,org.eclipse.ui.workbench,3.4.2.M20090127-1700,,1293273396953
deactivated,workbench,org.eclipse.ui.workbench,3.4.2.M20090127-1700,,1293273402109
activated,workbench,org.eclipse.ui.workbench,3.4.2.M20090127-1700,,1293273487093
executed,command,org.eclipse.ui,3.4.2.M20090204-0800,org.eclipse.ui.edit.paste,1293273491406
deactivated,workbench,org.eclipse.ui.workbench,3.4.2.M20090127-1700,,1293273495953
activated,workbench,org.eclipse.ui.workbench,3.4.2.M20090127-1700,,1293273509781
executed,command,org.eclipse.ui,3.4.2.M20090204-0800,org.eclipse.ui.edit.paste,1293273512609
deactivated,workbench,org.eclipse.ui.workbench,3.4.2.M20090127-1700,,1293273516859
activated,workbench,org.eclipse.ui.workbench,3.4.2.M20090127-1700,,1293273532468
executed,command,org.eclipse.ui,3.4.2.M20090204-0800,org.eclipse.ui.edit.paste,1293273533968
deactivated,workbench,org.eclipse.ui.workbench,3.4.2.M20090127-1700,,1293273536625
activated,workbench,org.eclipse.ui.workbench,3.4.2.M20090127-1700,,1293273599218
executed,command,org.eclipse.ui,3.4.2.M20090204-0800,org.eclipse.ui.edit.copy,1293273608734
deactivated,workbench,org.eclipse.ui.workbench,3.4.2.M20090127-1700,,1293273609453
activated,workbench,org.eclipse.ui.workbench,3.4.2.M20090127-1700,,1293273652843
activated,editor,org.eclipse.jdt.ui,3.4.2.r342_v20090107-0800,org.eclipse.jdt.ui.CompilationUnitEditor,1293273654625
activated,editor,org.eclipse.jdt.ui,3.4.2.r342_v20090107-0800,org.eclipse.jdt.ui.CompilationUnitEditor,1293273660171
deactivated,workbench,org.eclipse.ui.workbench,3.4.2.M20090127-1700,,1293273666515
activated,workbench,org.eclipse.ui.workbench,3.4.2.M20090127-1700,,1293273673468
opened,editor,org.eclipse.jdt.ui,3.4.2.r342_v20090107-0800,org.eclipse.jdt.ui.CompilationUnitEditor,1293273673609
activated,editor,org.eclipse.jdt.ui,3.4.2.r342_v20090107-0800,org.eclipse.jdt.ui.CompilationUnitEditor,1293273673703
executed,command,org.eclipse.ui,3.4.2.M20090204-0800,org.eclipse.ui.window.nextEditor,1293273673703
deactivated,workbench,org.eclipse.ui.workbench,3.4.2.M20090127-1700,,1293273696000
activated,workbench,org.eclipse.ui.workbench,3.4.2.M20090127-1700,,1293273697140
deactivated,workbench,org.eclipse.ui.workbench,3.4.2.M20090127-1700,,1293273717437
