what,kind,bundleId,bundleVersion,description,time
executed,command,org.eclipse.ui.workbench.texteditor,3.4.1.r341_v20080827-1100,org.eclipse.ui.edit.text.goto.wordNext,1293193984640
executed,command,org.eclipse.ui.workbench.texteditor,3.4.1.r341_v20080827-1100,org.eclipse.ui.edit.text.goto.wordNext,1293193985171
executed,command,org.eclipse.ui.workbench.texteditor,3.4.1.r341_v20080827-1100,org.eclipse.ui.edit.text.goto.wordNext,1293193985203
executed,command,org.eclipse.ui.workbench.texteditor,3.4.1.r341_v20080827-1100,org.eclipse.ui.edit.text.goto.wordNext,1293193985250
executed,command,org.eclipse.ui.workbench.texteditor,3.4.1.r341_v20080827-1100,org.eclipse.ui.edit.text.goto.wordNext,1293193985281
executed,command,org.eclipse.ui.workbench.texteditor,3.4.1.r341_v20080827-1100,org.eclipse.ui.edit.text.goto.wordNext,1293193985312
executed,command,org.eclipse.ui.workbench.texteditor,3.4.1.r341_v20080827-1100,org.eclipse.ui.edit.text.goto.wordNext,1293193985343
executed,command,org.eclipse.ui.workbench.texteditor,3.4.1.r341_v20080827-1100,org.eclipse.ui.edit.text.goto.wordNext,1293193985375
executed,command,org.eclipse.ui.workbench.texteditor,3.4.1.r341_v20080827-1100,org.eclipse.ui.edit.text.goto.wordPrevious,1293193985687
executed,command,org.eclipse.ui,3.4.2.M20090204-0800,org.eclipse.ui.edit.text.contentAssist.proposals,1293193990953
executed,command,org.eclipse.ui,3.4.2.M20090204-0800,org.eclipse.ui.file.save,1293193996265
executed,command,org.eclipse.ui,3.4.2.M20090204-0800,org.eclipse.ui.edit.text.contentAssist.proposals,1293194003687
executed,command,org.eclipse.ui,3.4.2.M20090204-0800,org.eclipse.ui.edit.text.contentAssist.proposals,1293194010921
executed,command,org.eclipse.ui.workbench.texteditor,3.4.1.r341_v20080827-1100,org.eclipse.ui.edit.text.goto.lineEnd,1293194013515
executed,command,org.eclipse.ui,3.4.2.M20090204-0800,org.eclipse.ui.edit.text.contentAssist.proposals,1293194021671
executed,command,org.eclipse.ui,3.4.2.M20090204-0800,org.eclipse.ui.edit.text.contentAssist.proposals,1293194031406
executed,command,org.eclipse.ui,3.4.2.M20090204-0800,org.eclipse.ui.edit.text.contentAssist.proposals,1293194037328
executed,command,org.eclipse.ui,3.4.2.M20090204-0800,org.eclipse.ui.edit.text.contentAssist.proposals,1293194053187
executed,command,org.eclipse.ui,3.4.2.M20090204-0800,org.eclipse.ui.edit.text.contentAssist.proposals,1293194062484
executed,command,org.eclipse.ui,3.4.2.M20090204-0800,org.eclipse.ui.edit.text.contentAssist.proposals,1293194065453
executed,command,org.eclipse.ui,3.4.2.M20090204-0800,org.eclipse.ui.file.save,1293194070625
executed,command,org.eclipse.ui.workbench.texteditor,3.4.1.r341_v20080827-1100,org.eclipse.ui.edit.text.goto.wordNext,1293194072140
executed,command,org.eclipse.ui.workbench.texteditor,3.4.1.r341_v20080827-1100,org.eclipse.ui.edit.text.goto.wordNext,1293194082281
executed,command,org.eclipse.ui,3.4.2.M20090204-0800,org.eclipse.ui.edit.text.contentAssist.proposals,1293194087843
executed,command,org.eclipse.ui.workbench.texteditor,3.4.1.r341_v20080827-1100,org.eclipse.ui.edit.text.goto.wordNext,1293194091265
