what,kind,bundleId,bundleVersion,description,time
started,bundle,org.eclipse.wst.server.ui,1.1.205.v20100908,"org.eclipse.wst.server.ui",1294638676870
started,bundle,org.eclipse.wst.jsdt.debug.ui,1.0.1.v201008170101,"org.eclipse.wst.jsdt.debug.ui",1294638677042
activated,view,org.eclipse.ui.console,3.5.0.v20100526,"org.eclipse.ui.console.ConsoleView",1294638677699
activated,editor,com.instantiations.designer.core.ui,,"com.instantiations.designer.core.guiEditor",1294638680403
deactivated,workbench,org.eclipse.ui.workbench,3.6.1.M20100826-1330,"",1294638685297
activated,workbench,org.eclipse.ui.workbench,3.6.1.M20100826-1330,"",1294638685938
deactivated,workbench,org.eclipse.ui.workbench,3.6.1.M20100826-1330,"",1294638706122
activated,workbench,org.eclipse.ui.workbench,3.6.1.M20100826-1330,"",1294638706810
executed,command,org.eclipse.jdt.debug.ui,3.5.0.v20100602-0830,"org.eclipse.jdt.debug.ui.localJavaShortcut.run",1294638706857
deactivated,workbench,org.eclipse.ui.workbench,3.6.1.M20100826-1330,"",1294638707670
activated,workbench,org.eclipse.ui.workbench,3.6.1.M20100826-1330,"",1294638716332
activated,view,org.eclipse.ui.console,3.5.0.v20100526,"org.eclipse.ui.console.ConsoleView",1294638716363
activated,editor,com.instantiations.designer.core.ui,,"com.instantiations.designer.core.guiEditor",1294638721460
deactivated,workbench,org.eclipse.ui.workbench,3.6.1.M20100826-1330,"",1294638726526
activated,workbench,org.eclipse.ui.workbench,3.6.1.M20100826-1330,"",1294638727495
executed,command,org.eclipse.ui.workbench.texteditor,3.6.1.r361_v20100714-0800,"org.eclipse.ui.edit.text.goto.wordNext",1294638732342
executed,command,org.eclipse.ui.workbench.texteditor,3.6.1.r361_v20100714-0800,"org.eclipse.ui.edit.text.goto.wordNext",1294638732686
executed,command,org.eclipse.ui,3.6.1.M20100826-1330,"org.eclipse.ui.file.save",1294638737001
started,bundle,org.eclipse.wst.common.frameworks,1.2.0.v201003040800,"org.eclipse.wst.common.frameworks",1294638737345
started,bundle,org.eclipse.wst.common.emf,1.2.1.v201008260500,"org.eclipse.wst.common.emf",1294638737548
started,bundle,org.eclipse.jem.util,2.1.2.v201008120100,"org.eclipse.jem.util",1294638737580
started,bundle,org.eclipse.wst.common.emfworkbench.integration,1.2.2.v201008242000,"org.eclipse.wst.common.emfworkbench.integration",1294638738283
started,bundle,org.eclipse.wst.common.modulecore,1.2.3.v201008242000,"org.eclipse.wst.common.modulecore",1294638738408
started,bundle,org.eclipse.jst.j2ee.core,1.2.2.v201008120100,"org.eclipse.jst.j2ee.core",1294638738471
started,bundle,org.eclipse.jem,2.0.400.v201005110200,"org.eclipse.jem",1294638738549
started,bundle,org.eclipse.wst.xml.core,1.1.502.v201009010342,"org.eclipse.wst.xml.core",1294638738736
started,bundle,org.eclipse.wst.validation,1.2.200.v201005271900,"org.eclipse.wst.validation",1294638738799
started,bundle,org.eclipse.jst.j2ee,1.1.402.v201009151730,"org.eclipse.jst.j2ee",1294638738908
started,bundle,org.eclipse.jst.server.core,1.2.101.v20100421,"org.eclipse.jst.server.core",1294638738971
started,bundle,org.eclipse.jst.jee,1.0.301.v201007151900,"org.eclipse.jst.jee",1294638739143
executed,command,org.eclipse.ui,3.6.1.M20100826-1330,"org.eclipse.ui.file.save",1294638741535
executed,command,org.eclipse.ui,3.6.1.M20100826-1330,"org.eclipse.ui.edit.delete",1294638745209
executed,command,org.eclipse.ui,3.6.1.M20100826-1330,"org.eclipse.ui.file.save",1294638751447
deactivated,workbench,org.eclipse.ui.workbench,3.6.1.M20100826-1330,"",1294638761610
activated,workbench,org.eclipse.ui.workbench,3.6.1.M20100826-1330,"",1294638761923
executed,command,org.eclipse.jdt.debug.ui,3.5.0.v20100602-0830,"org.eclipse.jdt.debug.ui.localJavaShortcut.run",1294638762001
deactivated,workbench,org.eclipse.ui.workbench,3.6.1.M20100826-1330,"",1294638762814
activated,workbench,org.eclipse.ui.workbench,3.6.1.M20100826-1330,"",1294638782889
deactivated,workbench,org.eclipse.ui.workbench,3.6.1.M20100826-1330,"",1294638790628
activated,workbench,org.eclipse.ui.workbench,3.6.1.M20100826-1330,"",1294638810697
deactivated,workbench,org.eclipse.ui.workbench,3.6.1.M20100826-1330,"",1294638831969
activated,workbench,org.eclipse.ui.workbench,3.6.1.M20100826-1330,"",1294638834032
executed,command,org.eclipse.ui.workbench.texteditor,3.6.1.r361_v20100714-0800,"org.eclipse.ui.edit.text.goto.wordNext",1294638851130
executed,command,org.eclipse.ui.workbench.texteditor,3.6.1.r361_v20100714-0800,"org.eclipse.ui.edit.text.select.lineEnd",1294638851958
executed,command,org.eclipse.ui.workbench.texteditor,3.6.1.r361_v20100714-0800,"org.eclipse.ui.edit.text.goto.lineStart",1294638853600
executed,command,org.eclipse.ui.workbench.texteditor,3.6.1.r361_v20100714-0800,"org.eclipse.ui.edit.text.goto.wordNext",1294638853912
executed,command,org.eclipse.ui.workbench.texteditor,3.6.1.r361_v20100714-0800,"org.eclipse.ui.edit.text.goto.wordNext",1294638854459
executed,command,org.eclipse.ui.workbench.texteditor,3.6.1.r361_v20100714-0800,"org.eclipse.ui.edit.text.goto.wordNext",1294638854475
executed,command,org.eclipse.ui.workbench.texteditor,3.6.1.r361_v20100714-0800,"org.eclipse.ui.edit.text.goto.wordNext",1294638854537
executed,command,org.eclipse.ui.workbench.texteditor,3.6.1.r361_v20100714-0800,"org.eclipse.ui.edit.text.goto.wordNext",1294638854569
executed,command,org.eclipse.ui.workbench.texteditor,3.6.1.r361_v20100714-0800,"org.eclipse.ui.edit.text.goto.wordNext",1294638854600
executed,command,org.eclipse.ui.workbench.texteditor,3.6.1.r361_v20100714-0800,"org.eclipse.ui.edit.text.goto.wordNext",1294638854631
executed,command,org.eclipse.ui.workbench.texteditor,3.6.1.r361_v20100714-0800,"org.eclipse.ui.edit.text.goto.wordNext",1294638854662
executed,command,org.eclipse.ui.workbench.texteditor,3.6.1.r361_v20100714-0800,"org.eclipse.ui.edit.text.goto.wordNext",1294638854694
executed,command,org.eclipse.ui.workbench.texteditor,3.6.1.r361_v20100714-0800,"org.eclipse.ui.edit.text.goto.wordNext",1294638854725
executed,command,org.eclipse.ui.workbench.texteditor,3.6.1.r361_v20100714-0800,"org.eclipse.ui.edit.text.goto.wordNext",1294638855069
executed,command,org.eclipse.ui.workbench.texteditor,3.6.1.r361_v20100714-0800,"org.eclipse.ui.edit.text.goto.wordNext",1294638855272
executed,command,org.eclipse.ui.workbench.texteditor,3.6.1.r361_v20100714-0800,"org.eclipse.ui.edit.text.goto.wordNext",1294638855459
executed,command,org.eclipse.ui.workbench.texteditor,3.6.1.r361_v20100714-0800,"org.eclipse.ui.edit.text.goto.wordNext",1294638855663
executed,command,org.eclipse.ui.workbench.texteditor,3.6.1.r361_v20100714-0800,"org.eclipse.ui.edit.text.goto.wordNext",1294638855960
executed,command,org.eclipse.ui.workbench.texteditor,3.6.1.r361_v20100714-0800,"org.eclipse.ui.edit.text.select.lineEnd",1294638856335
executed,command,org.eclipse.ui,3.6.1.M20100826-1330,"org.eclipse.ui.edit.delete",1294638857100
executed,command,org.eclipse.ui,3.6.1.M20100826-1330,"org.eclipse.ui.file.save",1294638857460
executed,command,org.eclipse.ui,3.6.1.M20100826-1330,"org.eclipse.ui.edit.undo",1294638860273
executed,command,org.eclipse.ui.workbench.texteditor,3.6.1.r361_v20100714-0800,"org.eclipse.ui.edit.text.goto.lineStart",1294638861946
executed,command,org.eclipse.ui.workbench.texteditor,3.6.1.r361_v20100714-0800,"org.eclipse.ui.edit.text.goto.wordNext",1294638862196
executed,command,org.eclipse.ui.workbench.texteditor,3.6.1.r361_v20100714-0800,"org.eclipse.ui.edit.text.goto.lineEnd",1294638862461
executed,command,org.eclipse.ui.workbench.texteditor,3.6.1.r361_v20100714-0800,"org.eclipse.ui.edit.text.select.lineEnd",1294638878560
executed,command,org.eclipse.ui,3.6.1.M20100826-1330,"org.eclipse.ui.edit.delete",1294638879153
executed,command,org.eclipse.ui,3.6.1.M20100826-1330,"org.eclipse.ui.file.save",1294638879544
executed,command,org.eclipse.ui.workbench.texteditor,3.6.1.r361_v20100714-0800,"org.eclipse.ui.edit.text.select.lineEnd",1294638887218
executed,command,org.eclipse.ui,3.6.1.M20100826-1330,"org.eclipse.ui.edit.delete",1294638887796
executed,command,org.eclipse.ui,3.6.1.M20100826-1330,"org.eclipse.ui.file.save",1294638888015
deactivated,workbench,org.eclipse.ui.workbench,3.6.1.M20100826-1330,"",1294638891969
activated,workbench,org.eclipse.ui.workbench,3.6.1.M20100826-1330,"",1294638892516
deactivated,workbench,org.eclipse.ui.workbench,3.6.1.M20100826-1330,"",1294638968209
activated,workbench,org.eclipse.ui.workbench,3.6.1.M20100826-1330,"",1294638968256
deactivated,workbench,org.eclipse.ui.workbench,3.6.1.M20100826-1330,"",1294638972804
activated,workbench,org.eclipse.ui.workbench,3.6.1.M20100826-1330,"",1294638972867
deactivated,workbench,org.eclipse.ui.workbench,3.6.1.M20100826-1330,"",1294638977571
activated,workbench,org.eclipse.ui.workbench,3.6.1.M20100826-1330,"",1294638977634
deactivated,workbench,org.eclipse.ui.workbench,3.6.1.M20100826-1330,"",1294639062766
activated,workbench,org.eclipse.ui.workbench,3.6.1.M20100826-1330,"",1294639062766
deactivated,workbench,org.eclipse.ui.workbench,3.6.1.M20100826-1330,"",1294639062860
activated,workbench,org.eclipse.ui.workbench,3.6.1.M20100826-1330,"",1294639065470
deactivated,workbench,org.eclipse.ui.workbench,3.6.1.M20100826-1330,"",1294639143533
activated,workbench,org.eclipse.ui.workbench,3.6.1.M20100826-1330,"",1294639144283
deactivated,workbench,org.eclipse.ui.workbench,3.6.1.M20100826-1330,"",1294639146736
activated,workbench,org.eclipse.ui.workbench,3.6.1.M20100826-1330,"",1294639156753
deactivated,workbench,org.eclipse.ui.workbench,3.6.1.M20100826-1330,"",1294639171459
activated,workbench,org.eclipse.ui.workbench,3.6.1.M20100826-1330,"",1294639171506
deactivated,workbench,org.eclipse.ui.workbench,3.6.1.M20100826-1330,"",1294639226498
activated,workbench,org.eclipse.ui.workbench,3.6.1.M20100826-1330,"",1294639226889
executed,command,org.eclipse.jdt.debug.ui,3.5.0.v20100602-0830,"org.eclipse.jdt.debug.ui.localJavaShortcut.run",1294639226983
deactivated,workbench,org.eclipse.ui.workbench,3.6.1.M20100826-1330,"",1294639227045
activated,workbench,org.eclipse.ui.workbench,3.6.1.M20100826-1330,"",1294639228077
deactivated,workbench,org.eclipse.ui.workbench,3.6.1.M20100826-1330,"",1294639229421
activated,workbench,org.eclipse.ui.workbench,3.6.1.M20100826-1330,"",1294639233531
executed,command,org.eclipse.ui.workbench.texteditor,3.6.1.r361_v20100714-0800,"org.eclipse.ui.edit.text.select.lineEnd",1294639306995
executed,command,org.eclipse.ui,3.6.1.M20100826-1330,"org.eclipse.ui.file.save",1294639309730
executed,command,org.eclipse.ui.workbench.texteditor,3.6.1.r361_v20100714-0800,"org.eclipse.ui.edit.text.goto.wordPrevious",1294639312855
executed,command,org.eclipse.ui.workbench.texteditor,3.6.1.r361_v20100714-0800,"org.eclipse.ui.edit.text.goto.wordPrevious",1294639313074
executed,command,org.eclipse.ui.workbench.texteditor,3.6.1.r361_v20100714-0800,"org.eclipse.ui.edit.text.goto.wordPrevious",1294639313402
executed,command,org.eclipse.ui,3.6.1.M20100826-1330,"org.eclipse.ui.file.save",1294639314934
deactivated,workbench,org.eclipse.ui.workbench,3.6.1.M20100826-1330,"",1294639316262
activated,workbench,org.eclipse.ui.workbench,3.6.1.M20100826-1330,"",1294639316856
executed,command,org.eclipse.ui,3.6.1.M20100826-1330,"org.eclipse.ui.edit.delete",1294639322591
executed,command,org.eclipse.ui,3.6.1.M20100826-1330,"org.eclipse.ui.edit.delete",1294639323388
executed,command,org.eclipse.ui,3.6.1.M20100826-1330,"org.eclipse.ui.file.save",1294639325076
deactivated,workbench,org.eclipse.ui.workbench,3.6.1.M20100826-1330,"",1294639326076
activated,workbench,org.eclipse.ui.workbench,3.6.1.M20100826-1330,"",1294639326639
deactivated,workbench,org.eclipse.ui.workbench,3.6.1.M20100826-1330,"",1294639351049
activated,workbench,org.eclipse.ui.workbench,3.6.1.M20100826-1330,"",1294639351096
executed,command,org.eclipse.jdt.debug.ui,3.5.0.v20100602-0830,"org.eclipse.jdt.debug.ui.localJavaShortcut.run",1294639361972
deactivated,workbench,org.eclipse.ui.workbench,3.6.1.M20100826-1330,"",1294639362051
activated,workbench,org.eclipse.ui.workbench,3.6.1.M20100826-1330,"",1294639362957
deactivated,workbench,org.eclipse.ui.workbench,3.6.1.M20100826-1330,"",1294639364129
activated,workbench,org.eclipse.ui.workbench,3.6.1.M20100826-1330,"",1294639367739
executed,command,org.eclipse.ui,3.6.1.M20100826-1330,"org.eclipse.ui.edit.undo",1294639369817
executed,command,org.eclipse.ui,3.6.1.M20100826-1330,"org.eclipse.ui.edit.undo",1294639370411
executed,command,org.eclipse.ui,3.6.1.M20100826-1330,"org.eclipse.ui.edit.undo",1294639370896
executed,command,org.eclipse.ui,3.6.1.M20100826-1330,"org.eclipse.ui.edit.undo",1294639371380
executed,command,org.eclipse.ui,3.6.1.M20100826-1330,"org.eclipse.ui.edit.undo",1294639371833
executed,command,org.eclipse.ui,3.6.1.M20100826-1330,"org.eclipse.ui.edit.undo",1294639372208
executed,command,org.eclipse.ui,3.6.1.M20100826-1330,"org.eclipse.ui.edit.undo",1294639372552
executed,command,org.eclipse.ui,3.6.1.M20100826-1330,"org.eclipse.ui.edit.undo",1294639372880
executed,command,org.eclipse.ui,3.6.1.M20100826-1330,"org.eclipse.ui.edit.undo",1294639373287
executed,command,org.eclipse.ui,3.6.1.M20100826-1330,"org.eclipse.ui.file.save",1294639374365
executed,command,org.eclipse.jdt.debug.ui,3.5.0.v20100602-0830,"org.eclipse.jdt.debug.ui.localJavaShortcut.run",1294639376662
deactivated,workbench,org.eclipse.ui.workbench,3.6.1.M20100826-1330,"",1294639377756
activated,workbench,org.eclipse.ui.workbench,3.6.1.M20100826-1330,"",1294639383226
deactivated,workbench,org.eclipse.ui.workbench,3.6.1.M20100826-1330,"",1294639386085
activated,workbench,org.eclipse.ui.workbench,3.6.1.M20100826-1330,"",1294639386648
executed,command,org.eclipse.ui,3.6.1.M20100826-1330,"org.eclipse.ui.edit.delete",1294639417402
executed,command,org.eclipse.ui,3.6.1.M20100826-1330,"org.eclipse.ui.edit.delete",1294639418527
executed,command,org.eclipse.ui,3.6.1.M20100826-1330,"org.eclipse.ui.file.save",1294639419308
deactivated,workbench,org.eclipse.ui.workbench,3.6.1.M20100826-1330,"",1294639420652
activated,workbench,org.eclipse.ui.workbench,3.6.1.M20100826-1330,"",1294639421230
executed,command,org.eclipse.ui,3.6.1.M20100826-1330,"org.eclipse.ui.edit.delete",1294639435669
executed,command,org.eclipse.ui,3.6.1.M20100826-1330,"org.eclipse.ui.edit.delete",1294639438248
executed,command,org.eclipse.ui,3.6.1.M20100826-1330,"org.eclipse.ui.file.save",1294639438779
deactivated,workbench,org.eclipse.ui.workbench,3.6.1.M20100826-1330,"",1294639439982
activated,workbench,org.eclipse.ui.workbench,3.6.1.M20100826-1330,"",1294639440560
executed,command,org.eclipse.ui,3.6.1.M20100826-1330,"org.eclipse.ui.edit.delete",1294639457547
executed,command,org.eclipse.ui,3.6.1.M20100826-1330,"org.eclipse.ui.file.save",1294639458937
deactivated,workbench,org.eclipse.ui.workbench,3.6.1.M20100826-1330,"",1294639460078
activated,workbench,org.eclipse.ui.workbench,3.6.1.M20100826-1330,"",1294639460641
deactivated,workbench,org.eclipse.ui.workbench,3.6.1.M20100826-1330,"",1294639477955
activated,workbench,org.eclipse.ui.workbench,3.6.1.M20100826-1330,"",1294639478018
executed,command,org.eclipse.ui,3.6.1.M20100826-1330,"org.eclipse.ui.file.save",1294639500004
executed,command,org.eclipse.ui,3.6.1.M20100826-1330,"org.eclipse.ui.edit.undo",1294639529749
deactivated,workbench,org.eclipse.ui.workbench,3.6.1.M20100826-1330,"",1294639529905
activated,workbench,org.eclipse.ui.workbench,3.6.1.M20100826-1330,"",1294639530499
deactivated,workbench,org.eclipse.ui.workbench,3.6.1.M20100826-1330,"",1294639550116
activated,workbench,org.eclipse.ui.workbench,3.6.1.M20100826-1330,"",1294639550163
deactivated,workbench,org.eclipse.ui.workbench,3.6.1.M20100826-1330,"",1294639552992
activated,workbench,org.eclipse.ui.workbench,3.6.1.M20100826-1330,"",1294639553070
deactivated,workbench,org.eclipse.ui.workbench,3.6.1.M20100826-1330,"",1294639556040
activated,workbench,org.eclipse.ui.workbench,3.6.1.M20100826-1330,"",1294639556087
deactivated,workbench,org.eclipse.ui.workbench,3.6.1.M20100826-1330,"",1294639587005
activated,workbench,org.eclipse.ui.workbench,3.6.1.M20100826-1330,"",1294639587067
deactivated,workbench,org.eclipse.ui.workbench,3.6.1.M20100826-1330,"",1294639590116
activated,workbench,org.eclipse.ui.workbench,3.6.1.M20100826-1330,"",1294639590162
executed,command,org.eclipse.ui,3.6.1.M20100826-1330,"org.eclipse.ui.edit.undo",1294639640510
deactivated,workbench,org.eclipse.ui.workbench,3.6.1.M20100826-1330,"",1294639640603
activated,workbench,org.eclipse.ui.workbench,3.6.1.M20100826-1330,"",1294639641182
executed,command,org.eclipse.ui,3.6.1.M20100826-1330,"org.eclipse.ui.edit.undo",1294639772153
deactivated,workbench,org.eclipse.ui.workbench,3.6.1.M20100826-1330,"",1294639772309
activated,workbench,org.eclipse.ui.workbench,3.6.1.M20100826-1330,"",1294639772872
executed,command,org.eclipse.ui.workbench.texteditor,3.6.1.r361_v20100714-0800,"org.eclipse.ui.edit.text.goto.lineEnd",1294639813042
executed,command,org.eclipse.ui,3.6.1.M20100826-1330,"org.eclipse.ui.edit.text.contentAssist.proposals",1294639832265
executed,command,org.eclipse.ui.workbench.texteditor,3.6.1.r361_v20100714-0800,"org.eclipse.ui.edit.text.select.wordPrevious",1294639841157
executed,command,org.eclipse.ui.workbench.texteditor,3.6.1.r361_v20100714-0800,"org.eclipse.ui.edit.text.select.wordPrevious",1294639841360
executed,command,org.eclipse.ui.workbench.texteditor,3.6.1.r361_v20100714-0800,"org.eclipse.ui.edit.text.select.wordPrevious",1294639841673
executed,command,org.eclipse.ui,3.6.1.M20100826-1330,"org.eclipse.ui.edit.text.contentAssist.proposals",1294639842955
executed,command,org.eclipse.ui,3.6.1.M20100826-1330,"org.eclipse.ui.edit.text.contentAssist.proposals",1294639848815
executed,command,org.eclipse.ui,3.6.1.M20100826-1330,"org.eclipse.ui.edit.undo",1294639849784
executed,command,org.eclipse.ui,3.6.1.M20100826-1330,"org.eclipse.ui.edit.text.contentAssist.proposals",1294639853269
executed,command,org.eclipse.ui.workbench.texteditor,3.6.1.r361_v20100714-0800,"org.eclipse.ui.edit.text.goto.lineEnd",1294639860646
executed,command,org.eclipse.ui,3.6.1.M20100826-1330,"org.eclipse.ui.file.save",1294639861443
deactivated,workbench,org.eclipse.ui.workbench,3.6.1.M20100826-1330,"",1294639863365
activated,workbench,org.eclipse.ui.workbench,3.6.1.M20100826-1330,"",1294639863912
executed,command,org.eclipse.ui,3.6.1.M20100826-1330,"org.eclipse.ui.file.save",1294639873992
deactivated,workbench,org.eclipse.ui.workbench,3.6.1.M20100826-1330,"",1294639875430
activated,workbench,org.eclipse.ui.workbench,3.6.1.M20100826-1330,"",1294639876024
executed,command,org.eclipse.ui,3.6.1.M20100826-1330,"org.eclipse.ui.file.save",1294639889371
deactivated,workbench,org.eclipse.ui.workbench,3.6.1.M20100826-1330,"",1294639890746
activated,workbench,org.eclipse.ui.workbench,3.6.1.M20100826-1330,"",1294639891277
executed,command,org.eclipse.ui,3.6.1.M20100826-1330,"org.eclipse.ui.file.save",1294639898685
executed,command,org.eclipse.jdt.debug.ui,3.5.0.v20100602-0830,"org.eclipse.jdt.debug.ui.localJavaShortcut.run",1294639900779
deactivated,workbench,org.eclipse.ui.workbench,3.6.1.M20100826-1330,"",1294639901764
activated,workbench,org.eclipse.ui.workbench,3.6.1.M20100826-1330,"",1294639910859
executed,command,org.eclipse.ui,3.6.1.M20100826-1330,"org.eclipse.ui.edit.delete",1294639913313
executed,command,org.eclipse.ui,3.6.1.M20100826-1330,"org.eclipse.ui.file.save",1294639913719
deactivated,workbench,org.eclipse.ui.workbench,3.6.1.M20100826-1330,"",1294639915173
activated,workbench,org.eclipse.ui.workbench,3.6.1.M20100826-1330,"",1294639915485
executed,command,org.eclipse.jdt.debug.ui,3.5.0.v20100602-0830,"org.eclipse.jdt.debug.ui.localJavaShortcut.run",1294639915532
deactivated,workbench,org.eclipse.ui.workbench,3.6.1.M20100826-1330,"",1294639916501
activated,workbench,org.eclipse.ui.workbench,3.6.1.M20100826-1330,"",1294639922221
executed,command,org.eclipse.ui,3.6.1.M20100826-1330,"org.eclipse.ui.edit.delete",1294639926894
executed,command,org.eclipse.ui,3.6.1.M20100826-1330,"org.eclipse.ui.edit.delete",1294639927019
executed,command,org.eclipse.ui,3.6.1.M20100826-1330,"org.eclipse.ui.file.save",1294639927722
deactivated,workbench,org.eclipse.ui.workbench,3.6.1.M20100826-1330,"",1294639930192
activated,workbench,org.eclipse.ui.workbench,3.6.1.M20100826-1330,"",1294639930520
executed,command,org.eclipse.jdt.debug.ui,3.5.0.v20100602-0830,"org.eclipse.jdt.debug.ui.localJavaShortcut.run",1294639930614
deactivated,workbench,org.eclipse.ui.workbench,3.6.1.M20100826-1330,"",1294639931583
activated,workbench,org.eclipse.ui.workbench,3.6.1.M20100826-1330,"",1294639934802
executed,command,org.eclipse.ui,3.6.1.M20100826-1330,"org.eclipse.ui.file.save",1294639938272
deactivated,workbench,org.eclipse.ui.workbench,3.6.1.M20100826-1330,"",1294639939647
activated,workbench,org.eclipse.ui.workbench,3.6.1.M20100826-1330,"",1294639939959
executed,command,org.eclipse.jdt.debug.ui,3.5.0.v20100602-0830,"org.eclipse.jdt.debug.ui.localJavaShortcut.run",1294639939991
deactivated,workbench,org.eclipse.ui.workbench,3.6.1.M20100826-1330,"",1294639940991
activated,workbench,org.eclipse.ui.workbench,3.6.1.M20100826-1330,"",1294639943085
executed,command,org.eclipse.ui,3.6.1.M20100826-1330,"org.eclipse.ui.file.save",1294639945461
deactivated,workbench,org.eclipse.ui.workbench,3.6.1.M20100826-1330,"",1294639946836
activated,workbench,org.eclipse.ui.workbench,3.6.1.M20100826-1330,"",1294639947164
executed,command,org.eclipse.jdt.debug.ui,3.5.0.v20100602-0830,"org.eclipse.jdt.debug.ui.localJavaShortcut.run",1294639947242
deactivated,workbench,org.eclipse.ui.workbench,3.6.1.M20100826-1330,"",1294639948211
activated,workbench,org.eclipse.ui.workbench,3.6.1.M20100826-1330,"",1294639950274
deactivated,workbench,org.eclipse.ui.workbench,3.6.1.M20100826-1330,"",1294639955259
activated,workbench,org.eclipse.ui.workbench,3.6.1.M20100826-1330,"",1294639955822
deactivated,workbench,org.eclipse.ui.workbench,3.6.1.M20100826-1330,"",1294639966840
activated,workbench,org.eclipse.ui.workbench,3.6.1.M20100826-1330,"",1294639966887
executed,command,org.eclipse.ui,3.6.1.M20100826-1330,"org.eclipse.ui.file.save",1294639974935
executed,command,org.eclipse.ui,3.6.1.M20100826-1330,"org.eclipse.ui.file.save",1294639984953
deactivated,workbench,org.eclipse.ui.workbench,3.6.1.M20100826-1330,"",1294639990470
activated,workbench,org.eclipse.ui.workbench,3.6.1.M20100826-1330,"",1294639990533
executed,command,org.eclipse.ui,3.6.1.M20100826-1330,"org.eclipse.ui.edit.undo",1294639991830
deactivated,workbench,org.eclipse.ui.workbench,3.6.1.M20100826-1330,"",1294639991986
activated,workbench,org.eclipse.ui.workbench,3.6.1.M20100826-1330,"",1294639992549
deactivated,workbench,org.eclipse.ui.workbench,3.6.1.M20100826-1330,"",1294639999206
activated,workbench,org.eclipse.ui.workbench,3.6.1.M20100826-1330,"",1294639999222
deactivated,workbench,org.eclipse.ui.workbench,3.6.1.M20100826-1330,"",1294639999316
activated,workbench,org.eclipse.ui.workbench,3.6.1.M20100826-1330,"",1294640001535
deactivated,workbench,org.eclipse.ui.workbench,3.6.1.M20100826-1330,"",1294640005489
activated,workbench,org.eclipse.ui.workbench,3.6.1.M20100826-1330,"",1294640005504
deactivated,workbench,org.eclipse.ui.workbench,3.6.1.M20100826-1330,"",1294640005614
activated,workbench,org.eclipse.ui.workbench,3.6.1.M20100826-1330,"",1294640029635
deactivated,workbench,org.eclipse.ui.workbench,3.6.1.M20100826-1330,"",1294640042981
activated,workbench,org.eclipse.ui.workbench,3.6.1.M20100826-1330,"",1294640045732
deactivated,workbench,org.eclipse.ui.workbench,3.6.1.M20100826-1330,"",1294640064345
activated,workbench,org.eclipse.ui.workbench,3.6.1.M20100826-1330,"",1294640064361
deactivated,workbench,org.eclipse.ui.workbench,3.6.1.M20100826-1330,"",1294640064439
activated,workbench,org.eclipse.ui.workbench,3.6.1.M20100826-1330,"",1294640068111
executed,command,org.eclipse.ui.workbench.texteditor,3.6.1.r361_v20100714-0800,"org.eclipse.ui.edit.text.goto.wordNext",1294640080552
executed,command,org.eclipse.ui.workbench.texteditor,3.6.1.r361_v20100714-0800,"org.eclipse.ui.edit.text.goto.wordNext",1294640081067
executed,command,org.eclipse.ui.workbench.texteditor,3.6.1.r361_v20100714-0800,"org.eclipse.ui.edit.text.goto.wordNext",1294640081083
executed,command,org.eclipse.ui.workbench.texteditor,3.6.1.r361_v20100714-0800,"org.eclipse.ui.edit.text.goto.wordNext",1294640081145
executed,command,org.eclipse.ui.workbench.texteditor,3.6.1.r361_v20100714-0800,"org.eclipse.ui.edit.text.goto.wordNext",1294640081192
executed,command,org.eclipse.ui.workbench.texteditor,3.6.1.r361_v20100714-0800,"org.eclipse.ui.edit.text.goto.wordNext",1294640081208
executed,command,org.eclipse.ui.workbench.texteditor,3.6.1.r361_v20100714-0800,"org.eclipse.ui.edit.text.goto.wordNext",1294640081239
executed,command,org.eclipse.ui.workbench.texteditor,3.6.1.r361_v20100714-0800,"org.eclipse.ui.edit.text.goto.wordNext",1294640081270
executed,command,org.eclipse.ui.workbench.texteditor,3.6.1.r361_v20100714-0800,"org.eclipse.ui.edit.text.goto.wordNext",1294640081599
executed,command,org.eclipse.ui,3.6.1.M20100826-1330,"org.eclipse.ui.edit.text.contentAssist.proposals",1294640082661
deactivated,workbench,org.eclipse.ui.workbench,3.6.1.M20100826-1330,"",1294640094633
activated,workbench,org.eclipse.ui.workbench,3.6.1.M20100826-1330,"",1294640134014
deactivated,workbench,org.eclipse.ui.workbench,3.6.1.M20100826-1330,"",1294640135092
activated,workbench,org.eclipse.ui.workbench,3.6.1.M20100826-1330,"",1294640135327
executed,command,org.eclipse.ui,3.6.1.M20100826-1330,"org.eclipse.ui.edit.undo",1294640143828
deactivated,workbench,org.eclipse.ui.workbench,3.6.1.M20100826-1330,"",1294640143937
activated,workbench,org.eclipse.ui.workbench,3.6.1.M20100826-1330,"",1294640144500
deactivated,workbench,org.eclipse.ui.workbench,3.6.1.M20100826-1330,"",1294640165362
activated,workbench,org.eclipse.ui.workbench,3.6.1.M20100826-1330,"",1294640167394
deactivated,workbench,org.eclipse.ui.workbench,3.6.1.M20100826-1330,"",1294640221026
activated,workbench,org.eclipse.ui.workbench,3.6.1.M20100826-1330,"",1294640221042
deactivated,workbench,org.eclipse.ui.workbench,3.6.1.M20100826-1330,"",1294640221073
activated,workbench,org.eclipse.ui.workbench,3.6.1.M20100826-1330,"",1294640240826
deactivated,workbench,org.eclipse.ui.workbench,3.6.1.M20100826-1330,"",1294640282800
activated,workbench,org.eclipse.ui.workbench,3.6.1.M20100826-1330,"",1294640296162
deactivated,workbench,org.eclipse.ui.workbench,3.6.1.M20100826-1330,"",1294640297834
activated,workbench,org.eclipse.ui.workbench,3.6.1.M20100826-1330,"",1294640426508
executed,command,org.eclipse.ui,3.6.1.M20100826-1330,"org.eclipse.ui.file.save",1294640427273
deactivated,workbench,org.eclipse.ui.workbench,3.6.1.M20100826-1330,"",1294640428445
activated,workbench,org.eclipse.ui.workbench,3.6.1.M20100826-1330,"",1294640529411
deactivated,workbench,org.eclipse.ui.workbench,3.6.1.M20100826-1330,"",1294640533099
