what,kind,bundleId,bundleVersion,description,time
executed,command,org.eclipse.ui.workbench.texteditor,3.4.1.r341_v20080827-1100,org.eclipse.ui.edit.text.select.wordNext,1293269269031
executed,command,org.eclipse.ui.workbench.texteditor,3.4.1.r341_v20080827-1100,org.eclipse.ui.edit.text.goto.wordPrevious,1293269272375
executed,command,org.eclipse.ui.workbench.texteditor,3.4.1.r341_v20080827-1100,org.eclipse.ui.edit.text.goto.wordPrevious,1293269272593
executed,command,org.eclipse.ui.workbench.texteditor,3.4.1.r341_v20080827-1100,org.eclipse.ui.edit.text.goto.wordPrevious,1293269272796
executed,command,org.eclipse.ui.workbench.texteditor,3.4.1.r341_v20080827-1100,org.eclipse.ui.edit.text.select.wordPrevious,1293269273234
deactivated,workbench,org.eclipse.ui.workbench,3.4.2.M20090127-1700,,1293269273921
activated,workbench,org.eclipse.ui.workbench,3.4.2.M20090127-1700,,1293269277515
executed,command,org.eclipse.ui.workbench.texteditor,3.4.1.r341_v20080827-1100,org.eclipse.ui.edit.text.goto.wordNext,1293269280625
executed,command,org.eclipse.ui.workbench.texteditor,3.4.1.r341_v20080827-1100,org.eclipse.ui.edit.text.select.wordNext,1293269281046
executed,command,org.eclipse.ui.workbench.texteditor,3.4.1.r341_v20080827-1100,org.eclipse.ui.edit.text.select.wordPrevious,1293269284156
executed,command,org.eclipse.ui,3.4.2.M20090204-0800,org.eclipse.ui.file.save,1293269286234
deactivated,workbench,org.eclipse.ui.workbench,3.4.2.M20090127-1700,,1293269286796
activated,workbench,org.eclipse.ui.workbench,3.4.2.M20090127-1700,,1293269290812
deactivated,workbench,org.eclipse.ui.workbench,3.4.2.M20090127-1700,,1293269291468
activated,workbench,org.eclipse.ui.workbench,3.4.2.M20090127-1700,,1293269297046
deactivated,workbench,org.eclipse.ui.workbench,3.4.2.M20090127-1700,,1293269297515
activated,workbench,org.eclipse.ui.workbench,3.4.2.M20090127-1700,,1293269301703
deactivated,workbench,org.eclipse.ui.workbench,3.4.2.M20090127-1700,,1293269302640
activated,workbench,org.eclipse.ui.workbench,3.4.2.M20090127-1700,,1293269309250
deactivated,workbench,org.eclipse.ui.workbench,3.4.2.M20090127-1700,,1293269315812
activated,workbench,org.eclipse.ui.workbench,3.4.2.M20090127-1700,,1293269317890
deactivated,workbench,org.eclipse.ui.workbench,3.4.2.M20090127-1700,,1293269319921
activated,workbench,org.eclipse.ui.workbench,3.4.2.M20090127-1700,,1293269320703
deactivated,workbench,org.eclipse.ui.workbench,3.4.2.M20090127-1700,,1293269320875
activated,workbench,org.eclipse.ui.workbench,3.4.2.M20090127-1700,,1293269321796
