what,kind,bundleId,bundleVersion,description,time
executed,command,org.eclipse.ui.workbench.texteditor,3.4.1.r341_v20080827-1100,org.eclipse.ui.edit.text.select.lineEnd,1293194127406
executed,command,org.eclipse.ui.workbench.texteditor,3.4.1.r341_v20080827-1100,org.eclipse.ui.edit.text.select.lineEnd,1293194127515
executed,command,org.eclipse.ui,3.4.2.M20090204-0800,org.eclipse.ui.edit.cut,1293194129015
executed,command,org.eclipse.ui.workbench.texteditor,3.4.1.r341_v20080827-1100,org.eclipse.ui.edit.text.select.wordPrevious,1293194130812
executed,command,org.eclipse.ui.workbench.texteditor,3.4.1.r341_v20080827-1100,org.eclipse.ui.edit.text.select.wordPrevious,1293194131015
executed,command,org.eclipse.ui,3.4.2.M20090204-0800,org.eclipse.ui.edit.paste,1293194131953
executed,command,org.eclipse.ui.workbench.texteditor,3.4.1.r341_v20080827-1100,org.eclipse.ui.edit.text.goto.wordNext,1293194132328
executed,command,org.eclipse.ui.workbench.texteditor,3.4.1.r341_v20080827-1100,org.eclipse.ui.edit.text.goto.wordNext,1293194132890
executed,command,org.eclipse.ui.workbench.texteditor,3.4.1.r341_v20080827-1100,org.eclipse.ui.edit.text.goto.wordNext,1293194133093
executed,command,org.eclipse.ui.workbench.texteditor,3.4.1.r341_v20080827-1100,org.eclipse.ui.edit.text.goto.wordNext,1293194135265
executed,command,org.eclipse.ui.workbench.texteditor,3.4.1.r341_v20080827-1100,org.eclipse.ui.edit.text.goto.wordNext,1293194135484
executed,command,org.eclipse.ui.workbench.texteditor,3.4.1.r341_v20080827-1100,org.eclipse.ui.edit.text.goto.wordNext,1293194135656
executed,command,org.eclipse.ui.workbench.texteditor,3.4.1.r341_v20080827-1100,org.eclipse.ui.edit.text.goto.lineStart,1293194138296
executed,command,org.eclipse.ui.workbench.texteditor,3.4.1.r341_v20080827-1100,org.eclipse.ui.edit.text.goto.lineStart,1293194139000
executed,command,org.eclipse.ui.workbench.texteditor,3.4.1.r341_v20080827-1100,org.eclipse.ui.edit.text.select.lineEnd,1293194139875
executed,command,org.eclipse.ui,3.4.2.M20090204-0800,org.eclipse.ui.edit.copy,1293194140734
executed,command,org.eclipse.ui,3.4.2.M20090204-0800,org.eclipse.ui.edit.paste,1293194141484
executed,command,org.eclipse.ui.workbench.texteditor,3.4.1.r341_v20080827-1100,org.eclipse.ui.edit.text.goto.wordNext,1293194143562
executed,command,org.eclipse.ui.workbench.texteditor,3.4.1.r341_v20080827-1100,org.eclipse.ui.edit.text.goto.wordNext,1293194144093
executed,command,org.eclipse.ui.workbench.texteditor,3.4.1.r341_v20080827-1100,org.eclipse.ui.edit.text.goto.wordNext,1293194144125
executed,command,org.eclipse.ui.workbench.texteditor,3.4.1.r341_v20080827-1100,org.eclipse.ui.edit.text.goto.wordNext,1293194144156
executed,command,org.eclipse.ui.workbench.texteditor,3.4.1.r341_v20080827-1100,org.eclipse.ui.edit.text.goto.wordNext,1293194144187
executed,command,org.eclipse.ui.workbench.texteditor,3.4.1.r341_v20080827-1100,org.eclipse.ui.edit.text.goto.wordNext,1293194144218
executed,command,org.eclipse.ui.workbench.texteditor,3.4.1.r341_v20080827-1100,org.eclipse.ui.edit.text.goto.wordNext,1293194144250
executed,command,org.eclipse.ui.workbench.texteditor,3.4.1.r341_v20080827-1100,org.eclipse.ui.edit.text.goto.wordNext,1293194144296
