what,kind,bundleId,bundleVersion,description,time
executed,command,org.eclipse.ui,3.4.2.M20090204-0800,org.eclipse.ui.file.save,1293135688328
executed,command,org.eclipse.ui.workbench.texteditor,3.4.1.r341_v20080827-1100,org.eclipse.ui.edit.text.goto.wordNext,1293135691562
executed,command,org.eclipse.ui.workbench.texteditor,3.4.1.r341_v20080827-1100,org.eclipse.ui.edit.text.goto.wordNext,1293135691828
executed,command,org.eclipse.ui,3.4.2.M20090204-0800,org.eclipse.ui.edit.text.contentAssist.proposals,1293135712484
executed,command,org.eclipse.ui.workbench.texteditor,3.4.1.r341_v20080827-1100,org.eclipse.ui.edit.text.goto.lineEnd,1293135715953
executed,command,org.eclipse.ui,3.4.2.M20090204-0800,org.eclipse.ui.file.save,1293135716656
executed,command,org.eclipse.ui,3.4.2.M20090204-0800,org.eclipse.ui.edit.text.contentAssist.proposals,1293135726000
executed,command,org.eclipse.ui.workbench.texteditor,3.4.1.r341_v20080827-1100,org.eclipse.ui.edit.text.goto.lineEnd,1293135728656
executed,command,org.eclipse.ui,3.4.2.M20090204-0800,org.eclipse.ui.file.save,1293135736109
executed,command,org.eclipse.ui,3.4.2.M20090204-0800,org.eclipse.ui.edit.text.contentAssist.proposals,1293135744062
executed,command,org.eclipse.ui,3.4.2.M20090204-0800,org.eclipse.ui.file.save,1293135752828
executed,command,org.eclipse.ui.workbench.texteditor,3.4.1.r341_v20080827-1100,org.eclipse.ui.edit.text.goto.lineStart,1293135756687
executed,command,org.eclipse.ui.workbench.texteditor,3.4.1.r341_v20080827-1100,org.eclipse.ui.edit.text.select.lineEnd,1293135756921
executed,command,org.eclipse.ui,3.4.2.M20090204-0800,org.eclipse.ui.edit.delete,1293135757156
executed,command,org.eclipse.ui,3.4.2.M20090204-0800,org.eclipse.ui.edit.delete,1293135757312
executed,command,org.eclipse.ui,3.4.2.M20090204-0800,org.eclipse.ui.file.save,1293135757671
deactivated,workbench,org.eclipse.ui.workbench,3.4.2.M20090127-1700,,1293135762328
activated,workbench,org.eclipse.ui.workbench,3.4.2.M20090127-1700,,1293135774562
executed,command,org.eclipse.ui,3.4.2.M20090204-0800,org.eclipse.ui.newWizard,1293135774609
opened,editor,org.eclipse.jdt.ui,3.4.2.r342_v20090107-0800,org.eclipse.jdt.ui.CompilationUnitEditor,1293135774671
activated,editor,org.eclipse.jdt.ui,3.4.2.r342_v20090107-0800,org.eclipse.jdt.ui.CompilationUnitEditor,1293135774734
executed,command,org.eclipse.ui,3.4.2.M20090204-0800,org.eclipse.ui.edit.text.contentAssist.proposals,1293135800328
executed,command,org.eclipse.ui.workbench.texteditor,3.4.1.r341_v20080827-1100,org.eclipse.ui.edit.text.goto.wordNext,1293135803328
executed,command,org.eclipse.ui.workbench.texteditor,3.4.1.r341_v20080827-1100,org.eclipse.ui.edit.text.goto.wordNext,1293135803515
executed,command,org.eclipse.ui.workbench.texteditor,3.4.1.r341_v20080827-1100,org.eclipse.ui.edit.text.goto.wordNext,1293135803687
