what,kind,bundleId,bundleVersion,description,time
executed,command,org.eclipse.ui.workbench.texteditor,3.4.1.r341_v20080827-1100,org.eclipse.ui.edit.text.goto.wordNext,1293136791609
executed,command,org.eclipse.ui.workbench.texteditor,3.4.1.r341_v20080827-1100,org.eclipse.ui.edit.text.goto.wordNext,1293136791625
executed,command,org.eclipse.ui.workbench.texteditor,3.4.1.r341_v20080827-1100,org.eclipse.ui.edit.text.goto.wordNext,1293136791656
executed,command,org.eclipse.ui.workbench.texteditor,3.4.1.r341_v20080827-1100,org.eclipse.ui.edit.text.goto.wordNext,1293136791703
executed,command,org.eclipse.ui.workbench.texteditor,3.4.1.r341_v20080827-1100,org.eclipse.ui.edit.text.goto.wordNext,1293136791734
executed,command,org.eclipse.ui.workbench.texteditor,3.4.1.r341_v20080827-1100,org.eclipse.ui.edit.text.goto.wordNext,1293136792031
started,bundle,org.eclipse.mylyn.java.tasks,3.0.5.v20090218-1800-e3x,org.eclipse.mylyn.java.tasks,1293136795968
deactivated,workbench,org.eclipse.ui.workbench,3.4.2.M20090127-1700,,1293136797234
activated,workbench,org.eclipse.ui.workbench,3.4.2.M20090127-1700,,1293136797437
activated,editor,org.eclipse.jdt.ui,3.4.2.r342_v20090107-0800,org.eclipse.jdt.ui.CompilationUnitEditor,1293136797578
executed,command,org.eclipse.ui,3.4.2.M20090204-0800,org.eclipse.ui.window.nextEditor,1293136797578
executed,command,org.eclipse.ui.workbench.texteditor,3.4.1.r341_v20080827-1100,org.eclipse.ui.edit.text.goto.lineStart,1293136798640
executed,command,org.eclipse.ui.workbench.texteditor,3.4.1.r341_v20080827-1100,org.eclipse.ui.edit.text.goto.wordNext,1293136799015
executed,command,org.eclipse.ui.workbench.texteditor,3.4.1.r341_v20080827-1100,org.eclipse.ui.edit.text.goto.wordNext,1293136799218
executed,command,org.eclipse.ui.workbench.texteditor,3.4.1.r341_v20080827-1100,org.eclipse.ui.edit.text.select.wordPrevious,1293136799593
executed,command,org.eclipse.ui,3.4.2.M20090204-0800,org.eclipse.ui.file.save,1293136800859
deactivated,workbench,org.eclipse.ui.workbench,3.4.2.M20090127-1700,,1293136801531
activated,workbench,org.eclipse.ui.workbench,3.4.2.M20090127-1700,,1293136801687
activated,view,org.eclipse.jdt.ui,3.4.2.r342_v20090107-0800,org.eclipse.jdt.ui.PackageExplorer,1293136801718
executed,command,org.eclipse.ui,3.4.2.M20090204-0800,org.eclipse.ui.window.nextView,1293136801718
deactivated,workbench,org.eclipse.ui.workbench,3.4.2.M20090127-1700,,1293136803812
activated,workbench,org.eclipse.ui.workbench,3.4.2.M20090127-1700,,1293136804000
activated,editor,org.eclipse.jdt.ui,3.4.2.r342_v20090107-0800,org.eclipse.jdt.ui.CompilationUnitEditor,1293136804140
executed,command,org.eclipse.ui,3.4.2.M20090204-0800,org.eclipse.ui.window.nextEditor,1293136804140
executed,command,org.eclipse.jdt.ui,3.4.2.r342_v20090107-0800,org.eclipse.jdt.ui.edit.text.java.organize.imports,1293136807000
