what,kind,bundleId,bundleVersion,description,time
executed,command,org.eclipse.ui,3.4.2.M20090204-0800,org.eclipse.ui.edit.undo,1293202815015
executed,command,org.eclipse.ui,3.4.2.M20090204-0800,org.eclipse.ui.edit.undo,1293202815046
executed,command,org.eclipse.ui,3.4.2.M20090204-0800,org.eclipse.ui.edit.undo,1293202815093
executed,command,org.eclipse.ui,3.4.2.M20090204-0800,org.eclipse.ui.edit.undo,1293202815125
executed,command,org.eclipse.ui,3.4.2.M20090204-0800,org.eclipse.ui.edit.undo,1293202815390
executed,command,org.eclipse.ui,3.4.2.M20090204-0800,org.eclipse.ui.edit.undo,1293202815656
executed,command,org.eclipse.ui,3.4.2.M20090204-0800,org.eclipse.ui.edit.undo,1293202815937
executed,command,org.eclipse.ui,3.4.2.M20090204-0800,org.eclipse.ui.edit.undo,1293202816171
executed,command,org.eclipse.ui,3.4.2.M20090204-0800,org.eclipse.ui.edit.undo,1293202816484
executed,command,org.eclipse.ui,3.4.2.M20090204-0800,org.eclipse.ui.edit.undo,1293202816750
executed,command,org.eclipse.ui,3.4.2.M20090204-0800,org.eclipse.ui.edit.undo,1293202817109
executed,command,org.eclipse.ui,3.4.2.M20090204-0800,org.eclipse.ui.edit.undo,1293202817500
executed,command,org.eclipse.ui,3.4.2.M20090204-0800,org.eclipse.ui.edit.undo,1293202818046
executed,command,org.eclipse.ui,3.4.2.M20090204-0800,org.eclipse.ui.edit.undo,1293202819390
executed,command,org.eclipse.ui,3.4.2.M20090204-0800,org.eclipse.ui.edit.redo,1293202820890
executed,command,org.eclipse.ui,3.4.2.M20090204-0800,org.eclipse.ui.edit.redo,1293202823296
executed,command,org.eclipse.ui,3.4.2.M20090204-0800,org.eclipse.ui.edit.undo,1293202823968
executed,command,org.eclipse.ui,3.4.2.M20090204-0800,org.eclipse.ui.file.save,1293202824437
deactivated,workbench,org.eclipse.ui.workbench,3.4.2.M20090127-1700,,1293202825203
activated,workbench,org.eclipse.ui.workbench,3.4.2.M20090127-1700,,1293202825562
activated,editor,org.eclipse.jdt.ui,3.4.2.r342_v20090107-0800,org.eclipse.jdt.ui.CompilationUnitEditor,1293202825687
executed,command,org.eclipse.ui,3.4.2.M20090204-0800,org.eclipse.ui.window.nextEditor,1293202825687
executed,command,org.eclipse.ui.workbench.texteditor,3.4.1.r341_v20080827-1100,org.eclipse.ui.edit.text.goto.wordNext,1293202829296
executed,command,org.eclipse.ui.workbench.texteditor,3.4.1.r341_v20080827-1100,org.eclipse.ui.edit.text.goto.wordNext,1293202829515
executed,command,org.eclipse.ui.workbench.texteditor,3.4.1.r341_v20080827-1100,org.eclipse.ui.edit.text.select.wordNext,1293202829859
