what,kind,bundleId,bundleVersion,description,time
executed,command,org.eclipse.ui.workbench.texteditor,3.4.1.r341_v20080827-1100,org.eclipse.ui.edit.text.select.wordNext,1293188961109
executed,command,org.eclipse.ui,3.4.2.M20090204-0800,org.eclipse.ui.file.save,1293188963578
executed,command,org.eclipse.ui.workbench.texteditor,3.4.1.r341_v20080827-1100,org.eclipse.ui.edit.text.goto.wordPrevious,1293189134437
executed,command,org.eclipse.ui,3.4.2.M20090204-0800,org.eclipse.ui.file.save,1293189136234
deactivated,workbench,org.eclipse.ui.workbench,3.4.2.M20090127-1700,,1293189170796
activated,workbench,org.eclipse.ui.workbench,3.4.2.M20090127-1700,,1293189302359
deactivated,workbench,org.eclipse.ui.workbench,3.4.2.M20090127-1700,,1293189303109
activated,workbench,org.eclipse.ui.workbench,3.4.2.M20090127-1700,,1293189322984
deactivated,workbench,org.eclipse.ui.workbench,3.4.2.M20090127-1700,,1293189325468
activated,workbench,org.eclipse.ui.workbench,3.4.2.M20090127-1700,,1293189667812
executed,command,org.eclipse.ui.workbench.texteditor,3.4.1.r341_v20080827-1100,org.eclipse.ui.edit.text.goto.lineStart,1293189672281
executed,command,org.eclipse.ui.workbench.texteditor,3.4.1.r341_v20080827-1100,org.eclipse.ui.edit.text.goto.lineEnd,1293189674015
deactivated,workbench,org.eclipse.ui.workbench,3.4.2.M20090127-1700,,1293189676921
activated,workbench,org.eclipse.ui.workbench,3.4.2.M20090127-1700,,1293190054031
deactivated,workbench,org.eclipse.ui.workbench,3.4.2.M20090127-1700,,1293190054812
activated,workbench,org.eclipse.ui.workbench,3.4.2.M20090127-1700,,1293190347671
deactivated,workbench,org.eclipse.ui.workbench,3.4.2.M20090127-1700,,1293190348203
activated,workbench,org.eclipse.ui.workbench,3.4.2.M20090127-1700,,1293190350875
deactivated,workbench,org.eclipse.ui.workbench,3.4.2.M20090127-1700,,1293190366218
activated,workbench,org.eclipse.ui.workbench,3.4.2.M20090127-1700,,1293190531843
deactivated,workbench,org.eclipse.ui.workbench,3.4.2.M20090127-1700,,1293190534015
activated,workbench,org.eclipse.ui.workbench,3.4.2.M20090127-1700,,1293190583187
executed,command,org.eclipse.ui,3.4.2.M20090204-0800,org.eclipse.ui.file.save,1293190587234
deactivated,workbench,org.eclipse.ui.workbench,3.4.2.M20090127-1700,,1293190591640
activated,workbench,org.eclipse.ui.workbench,3.4.2.M20090127-1700,,1293190765031
