what,kind,bundleId,bundleVersion,description,time
executed,command,org.eclipse.ui.workbench.texteditor,3.4.1.r341_v20080827-1100,org.eclipse.ui.edit.text.select.wordPrevious,1293135810453
executed,command,org.eclipse.ui.workbench.texteditor,3.4.1.r341_v20080827-1100,org.eclipse.ui.edit.text.select.wordPrevious,1293135811000
executed,command,org.eclipse.ui.workbench.texteditor,3.4.1.r341_v20080827-1100,org.eclipse.ui.edit.text.select.wordPrevious,1293135811031
executed,command,org.eclipse.ui.workbench.texteditor,3.4.1.r341_v20080827-1100,org.eclipse.ui.edit.text.select.wordPrevious,1293135811062
executed,command,org.eclipse.ui.workbench.texteditor,3.4.1.r341_v20080827-1100,org.eclipse.ui.edit.text.select.wordPrevious,1293135811093
executed,command,org.eclipse.ui.workbench.texteditor,3.4.1.r341_v20080827-1100,org.eclipse.ui.edit.text.select.wordPrevious,1293135811125
executed,command,org.eclipse.ui.workbench.texteditor,3.4.1.r341_v20080827-1100,org.eclipse.ui.edit.text.select.wordPrevious,1293135811156
executed,command,org.eclipse.ui.workbench.texteditor,3.4.1.r341_v20080827-1100,org.eclipse.ui.edit.text.select.wordPrevious,1293135811187
executed,command,org.eclipse.ui.workbench.texteditor,3.4.1.r341_v20080827-1100,org.eclipse.ui.edit.text.select.wordPrevious,1293135811218
executed,command,org.eclipse.ui.workbench.texteditor,3.4.1.r341_v20080827-1100,org.eclipse.ui.edit.text.select.wordNext,1293135811468
executed,command,org.eclipse.ui.workbench.texteditor,3.4.1.r341_v20080827-1100,org.eclipse.ui.edit.text.select.wordNext,1293135811718
executed,command,org.eclipse.ui,3.4.2.M20090204-0800,org.eclipse.ui.edit.text.contentAssist.proposals,1293135821093
executed,command,org.eclipse.ui,3.4.2.M20090204-0800,org.eclipse.ui.edit.text.contentAssist.proposals,1293135823234
executed,command,org.eclipse.ui,3.4.2.M20090204-0800,org.eclipse.ui.edit.text.contentAssist.proposals,1293135827984
executed,command,org.eclipse.ui.workbench.texteditor,3.4.1.r341_v20080827-1100,org.eclipse.ui.edit.text.goto.wordNext,1293135864937
executed,command,org.eclipse.ui.workbench.texteditor,3.4.1.r341_v20080827-1100,org.eclipse.ui.edit.text.goto.wordNext,1293135865484
executed,command,org.eclipse.ui.workbench.texteditor,3.4.1.r341_v20080827-1100,org.eclipse.ui.edit.text.goto.wordNext,1293135865515
executed,command,org.eclipse.ui.workbench.texteditor,3.4.1.r341_v20080827-1100,org.eclipse.ui.edit.text.goto.wordNext,1293135865546
executed,command,org.eclipse.ui.workbench.texteditor,3.4.1.r341_v20080827-1100,org.eclipse.ui.edit.text.goto.wordNext,1293135865578
executed,command,org.eclipse.ui.workbench.texteditor,3.4.1.r341_v20080827-1100,org.eclipse.ui.edit.text.goto.wordNext,1293135865609
executed,command,org.eclipse.ui.workbench.texteditor,3.4.1.r341_v20080827-1100,org.eclipse.ui.edit.text.goto.wordNext,1293135865765
executed,command,org.eclipse.ui,3.4.2.M20090204-0800,org.eclipse.ui.file.save,1293135868843
executed,command,org.eclipse.ui,3.4.2.M20090204-0800,org.eclipse.ui.edit.text.contentAssist.proposals,1293135871906
executed,command,org.eclipse.ui,3.4.2.M20090204-0800,org.eclipse.ui.edit.text.contentAssist.proposals,1293135874218
executed,command,org.eclipse.ui,3.4.2.M20090204-0800,org.eclipse.ui.file.save,1293135875437
