what,kind,bundleId,bundleVersion,description,time
stopped,bundle,org.eclipse.mylyn.team.ui,3.4.2.v20100909-0100-e3x,"org.eclipse.mylyn.team.ui",1294598636833
stopped,bundle,org.eclipse.ui.navigator.resources,3.4.201.M20100707-0800,"org.eclipse.ui.navigator.resources",1294598636833
stopped,bundle,org.eclipse.ltk.ui.refactoring,3.5.0.v20100526-0800,"org.eclipse.ltk.ui.refactoring",1294598636833
stopped,bundle,org.eclipse.mylyn.bugzilla.ui,3.4.2.v20100909-0100-e3x,"org.eclipse.mylyn.bugzilla.ui",1294598636833
stopped,bundle,org.eclipse.mylyn.ide.ui,3.4.0.v20100608-0100-e3x,"org.eclipse.mylyn.ide.ui",1294598636833
stopped,bundle,org.eclipse.mylyn.resources.ui,3.4.1.v20100909-0100-e3x,"org.eclipse.mylyn.resources.ui",1294598636833
stopped,bundle,org.eclipse.mylyn.wikitext.tasks.ui,1.3.1.v20100823-0100-e3x,"org.eclipse.mylyn.wikitext.tasks.ui",1294598636833
stopped,bundle,org.eclipse.mylyn.context.ui,3.4.1.v20100909-0100-e3x,"org.eclipse.mylyn.context.ui",1294598636833
stopped,bundle,org.eclipse.mylyn.help.ui,3.4.1.v20100823-0100-e3x,"org.eclipse.mylyn.help.ui",1294598636833
stopped,bundle,org.eclipse.mylyn.tasks.bugs,3.4.1.v20100823-0100-e3x,"org.eclipse.mylyn.tasks.bugs",1294598636833
stopped,bundle,org.eclipse.mylyn.tasks.ui,3.4.2.v20100902-0100-e3x,"org.eclipse.mylyn.tasks.ui",1294598636849
stopped,bundle,org.eclipse.team.cvs.ui,3.3.301.R36x_v20100825-0800,"org.eclipse.team.cvs.ui",1294598636849
stopped,bundle,org.eclipse.team.ui,3.5.101.R36x_v20100825-0800,"org.eclipse.team.ui",1294598636849
stopped,bundle,org.eclipse.compare,3.5.100.I20100526-0800,"org.eclipse.compare",1294598636849
stopped,bundle,org.eclipse.datatools.enablement.ingres.ui,1.0.0.v201006242214,"org.eclipse.datatools.enablement.ingres.ui",1294598636849
stopped,bundle,org.eclipse.datatools.sqltools.db.derby.ui,1.0.0.v200906020900,"org.eclipse.datatools.sqltools.db.derby.ui",1294598636849
stopped,bundle,org.eclipse.datatools.sqltools.db.generic.ui,1.0.0.v200906020900,"org.eclipse.datatools.sqltools.db.generic.ui",1294598636849
stopped,bundle,org.eclipse.datatools.sqltools.routineeditor.ui,1.0.1.v201004060545,"org.eclipse.datatools.sqltools.routineeditor.ui",1294598636849
stopped,bundle,org.eclipse.datatools.sqltools.sqlbuilder,1.0.3.v201009131745,"org.eclipse.datatools.sqltools.sqlbuilder",1294598636849
stopped,bundle,org.eclipse.datatools.sqltools.debugger.core,1.0.1.v201005250945,"org.eclipse.datatools.sqltools.debugger.core",1294598636849
stopped,bundle,org.eclipse.datatools.sqltools.schemaobjecteditor.ui.pages,1.1.0.200810071,"org.eclipse.datatools.sqltools.schemaobjecteditor.ui.pages",1294598636849
stopped,bundle,org.eclipse.datatools.sqltools.schemaobjecteditor.ui,1.1.1.200810071,"org.eclipse.datatools.sqltools.schemaobjecteditor.ui",1294598636849
stopped,bundle,org.eclipse.datatools.sqltools.sqlscrapbook,1.0.1.v201005250945,"org.eclipse.datatools.sqltools.sqlscrapbook",1294598636849
stopped,bundle,org.eclipse.datatools.sqltools.sqleditor,1.0.1.v201005130745,"org.eclipse.datatools.sqltools.sqleditor",1294598636849
stopped,bundle,org.eclipse.datatools.sqltools.editor.core.ui,1.0.0.v201001150815,"org.eclipse.datatools.sqltools.editor.core.ui",1294598636849
activated,perspective,org.eclipse.jdt.ui,,"org.eclipse.jdt.ui.JavaPerspective",1294634640053
started,bundle,org.eclipse.osgi,3.6.1.R36x_v20100806,"org.eclipse.osgi",1294634640053
started,bundle,org.eclipse.equinox.simpleconfigurator,1.0.200.v20100503,"org.eclipse.equinox.simpleconfigurator",1294634640084
started,bundle,com.ibm.icu,4.2.1.v20100412,"com.ibm.icu",1294634640147
started,bundle,org.eclipse.compare.core,3.5.100.I20100526-0800,"org.eclipse.compare.core",1294634640257
started,bundle,org.eclipse.core.contenttype,3.4.100.v20100505-1235,"org.eclipse.core.contenttype",1294634640257
started,bundle,org.eclipse.core.databinding.observable,1.3.0.I20100601-0800,"org.eclipse.core.databinding.observable",1294634640367
started,bundle,org.eclipse.core.expressions,3.4.200.v20100505,"org.eclipse.core.expressions",1294634640476
started,bundle,org.eclipse.core.filebuffers,3.5.100.v20100520-0800,"org.eclipse.core.filebuffers",1294634640476
started,bundle,org.eclipse.core.filesystem,1.3.1.R36x_v20100727-0745,"org.eclipse.core.filesystem",1294634640476
started,bundle,org.eclipse.core.jobs,3.5.1.R36x_v20100824,"org.eclipse.core.jobs",1294634640492
started,bundle,org.eclipse.core.net,1.2.100.I20100511-0800,"org.eclipse.core.net",1294634640868
started,bundle,org.eclipse.core.resources,3.6.0.R36x_v20100825-0600,"org.eclipse.core.resources",1294634641040
started,bundle,org.eclipse.core.runtime,3.6.0.v20100505,"org.eclipse.core.runtime",1294634641040
started,bundle,org.eclipse.core.runtime.compatibility,3.2.100.v20100505,"org.eclipse.core.runtime.compatibility",1294634641103
started,bundle,org.eclipse.core.runtime.compatibility.auth,3.2.200.v20100517,"org.eclipse.core.runtime.compatibility.auth",1294634641166
started,bundle,org.eclipse.debug.core,3.6.0.v20100519,"org.eclipse.debug.core",1294634641166
started,bundle,org.eclipse.debug.ui,3.6.1.v20100901_r361,"org.eclipse.debug.ui",1294634641307
started,bundle,org.eclipse.epp.usagedata.gathering,1.3.0.R201005261100,"org.eclipse.epp.usagedata.gathering",1294634641902
started,bundle,org.eclipse.epp.usagedata.recording,1.3.0.R201005261100,"org.eclipse.epp.usagedata.recording",1294634642012
started,bundle,org.eclipse.equinox.app,1.3.1.R36x_v20100803,"org.eclipse.equinox.app",1294634642059
started,bundle,org.eclipse.equinox.common,3.6.0.v20100503,"org.eclipse.equinox.common",1294634642059
started,bundle,org.eclipse.equinox.ds,1.2.1.R36x_v20100803,"org.eclipse.equinox.ds",1294634642184
started,bundle,org.eclipse.equinox.event,1.2.0.v20100503,"org.eclipse.equinox.event",1294634642247
started,bundle,org.eclipse.equinox.p2.core,2.0.2.R36x_v20100804,"org.eclipse.equinox.p2.core",1294634642310
started,bundle,org.eclipse.equinox.p2.directorywatcher,1.0.202.R36x_v20100727,"org.eclipse.equinox.p2.directorywatcher",1294634642451
started,bundle,org.eclipse.equinox.p2.engine,2.0.0.v20100606,"org.eclipse.equinox.p2.engine",1294634642764
started,bundle,org.eclipse.equinox.p2.metadata,2.0.0.v20100601,"org.eclipse.equinox.p2.metadata",1294634642764
started,bundle,org.eclipse.equinox.p2.metadata.repository,1.1.0.v20100513,"org.eclipse.equinox.p2.metadata.repository",1294634642890
started,bundle,org.eclipse.equinox.p2.operations,2.0.0.v20100510,"org.eclipse.equinox.p2.operations",1294634643046
started,bundle,org.eclipse.equinox.p2.reconciler.dropins,1.1.0.v20100525,"org.eclipse.equinox.p2.reconciler.dropins",1294634643093
started,bundle,org.eclipse.equinox.p2.repository,2.0.1.R36x_v20100823,"org.eclipse.equinox.p2.repository",1294634643344
started,bundle,org.eclipse.equinox.p2.ui.sdk.scheduler,1.0.0.v20100507-1815,"org.eclipse.equinox.p2.ui.sdk.scheduler",1294634643438
started,bundle,org.eclipse.equinox.p2.updatechecker,1.1.101.R36x_v20100823,"org.eclipse.equinox.p2.updatechecker",1294634643532
started,bundle,org.eclipse.equinox.preferences,3.3.0.v20100503,"org.eclipse.equinox.preferences",1294634643673
started,bundle,org.eclipse.equinox.registry,3.5.0.v20100503,"org.eclipse.equinox.registry",1294634643673
started,bundle,org.eclipse.equinox.security,1.0.200.v20100503,"org.eclipse.equinox.security",1294634644206
started,bundle,org.eclipse.equinox.util,1.0.200.v20100503,"org.eclipse.equinox.util",1294634644441
started,bundle,org.eclipse.help,3.5.0.v20100524,"org.eclipse.help",1294634644504
started,bundle,org.eclipse.jdt.core,3.6.1.v_A68_R36x,"org.eclipse.jdt.core",1294634644598
started,bundle,org.eclipse.jdt.core.manipulation,1.3.0.v20100520-0800,"org.eclipse.jdt.core.manipulation",1294634644692
started,bundle,org.eclipse.jdt.debug,3.6.1.v20100715_r361,"org.eclipse.jdt.debug",1294634645083
started,bundle,org.eclipse.jdt.debug.ui,3.5.0.v20100602-0830,"org.eclipse.jdt.debug.ui",1294634645083
started,bundle,org.eclipse.jdt.launching,3.5.100.v20100526,"org.eclipse.jdt.launching",1294634645146
started,bundle,org.eclipse.jdt.ui,3.6.1.r361_v20100825-0800,"org.eclipse.jdt.ui",1294634645146
started,bundle,org.eclipse.jface,3.6.1.M20100825-0800,"org.eclipse.jface",1294634645178
started,bundle,org.eclipse.jst.ws.jaxws.utils,1.0.0.v201004171919,"org.eclipse.jst.ws.jaxws.utils",1294634645287
started,bundle,org.eclipse.ltk.core.refactoring,3.5.100.v20100526-0800,"org.eclipse.ltk.core.refactoring",1294634645507
started,bundle,org.eclipse.ltk.ui.refactoring,3.5.0.v20100526-0800,"org.eclipse.ltk.ui.refactoring",1294634645507
started,bundle,org.eclipse.team.core,3.5.100.R36x_v20100825-0800,"org.eclipse.team.core",1294634645522
started,bundle,org.eclipse.ui,3.6.1.M20100826-1330,"org.eclipse.ui",1294634645538
started,bundle,org.eclipse.ui.console,3.5.0.v20100526,"org.eclipse.ui.console",1294634645601
started,bundle,org.eclipse.ui.editors,3.6.1.r361_v20100825-0800,"org.eclipse.ui.editors",1294634645601
started,bundle,org.eclipse.ui.ide,3.6.1.M20100825-0800,"org.eclipse.ui.ide",1294634645710
started,bundle,org.eclipse.ui.net,1.2.100.I20100505-1245,"org.eclipse.ui.net",1294634645804
started,bundle,org.eclipse.ui.views,3.5.0.I20100527-0800,"org.eclipse.ui.views",1294634645883
started,bundle,org.eclipse.ui.workbench,3.6.1.M20100826-1330,"org.eclipse.ui.workbench",1294634645930
started,bundle,org.eclipse.ui.workbench.texteditor,3.6.1.r361_v20100714-0800,"org.eclipse.ui.workbench.texteditor",1294634646039
started,bundle,org.eclipse.wst.common.project.facet.core,1.4.102.v201008170019,"org.eclipse.wst.common.project.facet.core",1294634646118
started,bundle,org.eclipse.wst.web,1.1.401.v201007151900,"org.eclipse.wst.web",1294634646196
started,bundle,com.instantiations.common.core,6.0.0.r36x201012170819,"com.instantiations.common.core",1294634646243
started,bundle,com.instantiations.designer.core,8.1.1.r36x201012191024,"com.instantiations.designer.core",1294634646243
started,bundle,com.instantiations.designer.core.databinding,8.1.1.r36x201012191024,"com.instantiations.designer.core.databinding",1294634646243
started,bundle,com.instantiations.designer.core.lib,8.1.1.r36x201012191024,"com.instantiations.designer.core.lib",1294634646306
started,bundle,com.instantiations.designer.gxt.databinding,8.1.1.r36x201012191837,"com.instantiations.designer.gxt.databinding",1294634646306
started,bundle,com.instantiations.eclipse.ui,8.1.1.r36x201012191012,"com.instantiations.eclipse.ui",1294634646353
started,bundle,com.instantiations.eclipse.util,6.0.0.r36x201012170819,"com.instantiations.eclipse.util",1294634646353
started,bundle,com.google.appengine.eclipse.core,1.4.2.v201012211742,"com.google.appengine.eclipse.core",1294634646353
started,bundle,com.google.gdt.eclipse.core,1.4.2.v201012211742,"com.google.gdt.eclipse.core",1294634646353
started,bundle,com.google.gdt.eclipse.platform.e36,1.4.2.v201012211742,"com.google.gdt.eclipse.platform.e36",1294634646368
started,bundle,com.google.gdt.eclipse.platform.shared,1.4.2.v201012211742,"com.google.gdt.eclipse.platform.shared",1294634646368
started,bundle,com.google.gdt.eclipse.suite,1.4.2.v201012211742,"com.google.gdt.eclipse.suite",1294634646368
started,bundle,com.google.gwt.eclipse.core,1.4.2.v201012211742,"com.google.gwt.eclipse.core",1294634646415
started,bundle,com.instantiations.designer.swing.databinding,8.1.1.r36x201012170656,"com.instantiations.designer.swing.databinding",1294634646651
os,sysinfo,,,"win32",1294634646776
arch,sysinfo,,,"x86",1294634646776
ws,sysinfo,,,"win32",1294634646776
locale,sysinfo,,,"en_US",1294634646776
processors,sysinfo,,,"2",1294634646776
java.runtime.name,sysinfo,,,"Java(TM) 2 Runtime Environment, Standard Edition",1294634646776
java.runtime.version,sysinfo,,,"1.5.0_06-b05",1294634646776
java.specification.name,sysinfo,,,"Java Platform API Specification",1294634646776
java.specification.vendor,sysinfo,,,"Sun Microsystems Inc.",1294634646776
java.specification.version,sysinfo,,,"1.5",1294634646776
java.vendor,sysinfo,,,"Sun Microsystems Inc.",1294634646776
java.version,sysinfo,,,"1.5.0_06",1294634646776
java.vm.info,sysinfo,,,"mixed mode",1294634646776
java.vm.name,sysinfo,,,"Java HotSpot(TM) Client VM",1294634646776
java.vm.specification.name,sysinfo,,,"Java Virtual Machine Specification",1294634646776
java.vm.specification.vendor,sysinfo,,,"Sun Microsystems Inc.",1294634646776
java.vm.specification.version,sysinfo,,,"1.0",1294634646776
java.vm.vendor,sysinfo,,,"Sun Microsystems Inc.",1294634646776
java.vm.version,sysinfo,,,"1.5.0_06-b05",1294634646776
started,bundle,org.eclipse.mylyn.commons.net,3.4.1.v20100625-2100-e3x,"org.eclipse.mylyn.commons.net",1294634646776
started,bundle,org.eclipse.emf.ecore,2.6.1.v20100914-1218,"org.eclipse.emf.ecore",1294634647622
started,bundle,org.eclipse.emf.ecore.xmi,2.5.0.v20100521-1846,"org.eclipse.emf.ecore.xmi",1294634649017
started,bundle,org.eclipse.mylyn.commons.ui,3.4.0.v20100608-0100-e3x,"org.eclipse.mylyn.commons.ui",1294634650223
started,bundle,org.eclipse.jst.common.project.facet.core,1.4.102.v201008182136,"org.eclipse.jst.common.project.facet.core",1294634650412
started,bundle,org.eclipse.jst.ws.jaxrs.core,1.0.200.v201008201800,"org.eclipse.jst.ws.jaxrs.core",1294634650803
started,bundle,org.eclipse.mylyn.bugzilla.core,3.4.2.v20100902-0100-e3x,"org.eclipse.mylyn.bugzilla.core",1294634651446
started,bundle,org.eclipse.mylyn.bugzilla.ui,3.4.2.v20100909-0100-e3x,"org.eclipse.mylyn.bugzilla.ui",1294634652308
started,bundle,org.eclipse.ui.forms,3.5.2.r36_v20100702,"org.eclipse.ui.forms",1294634652997
started,bundle,org.eclipse.mylyn.context.core,3.4.1.v20100909-0100-e3x,"org.eclipse.mylyn.context.core",1294634653483
started,bundle,org.eclipse.mylyn.context.ui,3.4.1.v20100909-0100-e3x,"org.eclipse.mylyn.context.ui",1294634653655
started,bundle,org.eclipse.mylyn.tasks.ui,3.4.2.v20100902-0100-e3x,"org.eclipse.mylyn.tasks.ui",1294634654376
started,bundle,org.eclipse.mylyn.team.ui,3.4.2.v20100909-0100-e3x,"org.eclipse.mylyn.team.ui",1294634654690
started,bundle,org.eclipse.update.scheduler,3.2.300.v20100512,"org.eclipse.update.scheduler",1294634654940
started,bundle,org.eclipse.jsch.core,1.1.200.I20100505-1245,"org.eclipse.jsch.core",1294634658310
started,bundle,org.eclipse.team.cvs.core,3.3.300.I20100526-0800,"org.eclipse.team.cvs.core",1294634658435
started,bundle,org.eclipse.team.ui,3.5.101.R36x_v20100825-0800,"org.eclipse.team.ui",1294634659939
started,bundle,org.eclipse.team.cvs.ui,3.3.301.R36x_v20100825-0800,"org.eclipse.team.cvs.ui",1294634661303
started,bundle,org.eclipse.update.configurator,3.3.100.v20100512,"org.eclipse.update.configurator",1294634661757
started,bundle,org.eclipse.update.core,3.2.402.R36x_v20100629,"org.eclipse.update.core",1294634662024
started,bundle,com.instantiations.designer.gwt,8.1.1.r36x201012191114,"com.instantiations.designer.gwt",1294634663622
started,bundle,com.instantiations.designer.swing,8.1.1.r36x201012170656,"com.instantiations.designer.swing",1294634663841
started,bundle,com.instantiations.designer.core.xml,8.1.1.r36x201012191058,"com.instantiations.designer.core.xml",1294634670251
started,bundle,com.instantiations.designer.gwt.ExtGWT,8.1.1.r36x201012191837,"com.instantiations.designer.gwt.ExtGWT",1294634670580
started,bundle,com.instantiations.designer.gwt.SmartGWT,8.1.1.r36x201012191837,"com.instantiations.designer.gwt.SmartGWT",1294634670674
started,bundle,com.instantiations.designer.gwt.UiBinder,8.1.1.r36x201012191114,"com.instantiations.designer.gwt.UiBinder",1294634670862
started,bundle,org.eclipse.jdt.junit,3.6.1.r361_v20100825-0800,"org.eclipse.jdt.junit",1294634671677
started,bundle,com.instantiations.eclipse.debug,6.0.0.r36x201012170819,"com.instantiations.eclipse.debug",1294634672006
started,bundle,com.instantiations.eclipse.startup,6.0.0.r36x201012170819,"com.instantiations.eclipse.startup",1294634672006
started,bundle,com.instantiations.eclipse.usageprofiler,6.0.0.r36x201012170819,"com.instantiations.eclipse.usageprofiler",1294634672429
started,bundle,com.instantiations.eclipse.usageprofiler.ui,6.0.0.r36x201012170819,"com.instantiations.eclipse.usageprofiler.ui",1294634672789
started,bundle,org.eclipse.jdt.apt.core,3.3.401.R36_v20100727-0110,"org.eclipse.jdt.apt.core",1294634687583
started,bundle,org.eclipse.core.variables,3.2.400.v20100505,"org.eclipse.core.variables",1294634689024
started,bundle,org.eclipse.mylyn.ide.ui,3.4.0.v20100608-0100-e3x,"org.eclipse.mylyn.ide.ui",1294634689416
started,bundle,org.eclipse.jst.ws.jaxws.ui,1.0.1.v201008232129,"org.eclipse.jst.ws.jaxws.ui",1294634689432
started,bundle,org.eclipse.mylyn.java.ui,3.4.0.v20100608-0100-e3x,"org.eclipse.mylyn.java.ui",1294634689495
started,bundle,org.eclipse.pde.api.tools,1.0.202.v20100820_r361,"org.eclipse.pde.api.tools",1294634690482
started,bundle,org.eclipse.pde.api.tools.ui,1.0.201.v20100820_r361,"org.eclipse.pde.api.tools.ui",1294634690513
executed,command,org.eclipse.ui,3.6.1.M20100826-1330,"org.eclipse.ui.edit.text.contentAssist.proposals",1294634691892
started,bundle,org.eclipse.mylyn.java.tasks,3.4.0.v20100608-0100-e3x,"org.eclipse.mylyn.java.tasks",1294634691955
deactivated,workbench,org.eclipse.ui.workbench,3.6.1.M20100826-1330,"",1294634700741
activated,workbench,org.eclipse.ui.workbench,3.6.1.M20100826-1330,"",1294634700741
deactivated,workbench,org.eclipse.ui.workbench,3.6.1.M20100826-1330,"",1294634700819
activated,workbench,org.eclipse.ui.workbench,3.6.1.M20100826-1330,"",1294634757786
deactivated,workbench,org.eclipse.ui.workbench,3.6.1.M20100826-1330,"",1294634767217
started,bundle,com.instantiations.designer.runtime.lib,8.1.1.r36x201012191024,"com.instantiations.designer.runtime.lib",1294634767655
started,bundle,com.instantiations.designer.gwt.GWTExt,8.1.1.r36x201012191837,"com.instantiations.designer.gwt.GWTExt",1294634767812
started,bundle,com.instantiations.designer.swing.FormLayout,8.1.1.r36x201012170656,"com.instantiations.designer.swing.FormLayout",1294634767890
started,bundle,com.instantiations.designer.swing.hc,8.1.1.r36x201012170656,"com.instantiations.designer.swing.hc",1294634767906
started,bundle,org.eclipse.pde.core,3.6.1.v20100902_r361,"org.eclipse.pde.core",1294634768172
started,bundle,org.eclipse.pde,3.6.1.v201009090800,"org.eclipse.pde",1294634768219
started,bundle,org.eclipse.equinox.simpleconfigurator.manipulator,2.0.0.v20100503,"org.eclipse.equinox.simpleconfigurator.manipulator",1294634768641
started,bundle,org.eclipse.equinox.frameworkadmin,2.0.0.v20100503,"org.eclipse.equinox.frameworkadmin",1294634768656
started,bundle,com.instantiations.designer.core.apiImpl,8.1.1.r36x201012191024,"com.instantiations.designer.core.apiImpl",1294634771112
started,bundle,com.instantiations.designer.swing.jsr296,8.1.1.r36x201012170656,"com.instantiations.designer.swing.jsr296",1294634776243
started,bundle,com.instantiations.designer.swing.MigLayout.lib,8.1.1.r36x201012170656,"com.instantiations.designer.swing.MigLayout.lib",1294634777056
started,bundle,com.instantiations.designer.swing.MigLayout,8.1.1.r36x201012170656,"com.instantiations.designer.swing.MigLayout",1294634777056
activated,workbench,org.eclipse.ui.workbench,3.6.1.M20100826-1330,"",1294634778120
started,bundle,com.instantiations.designer.os,8.1.1.r36x201012191024,"com.instantiations.designer.os",1294634803678
started,bundle,com.instantiations.designer.os.win32,8.1.1.r36x201012191024,"com.instantiations.designer.os.win32",1294634803725
started,bundle,com.instantiations.designer.swing.ams,8.1.1.r36x201012170656,"com.instantiations.designer.swing.ams",1294634804006
started,bundle,com.instantiations.designer.swing.FormLayout.lib,8.1.1.r36x201012170656,"com.instantiations.designer.swing.FormLayout.lib",1294634804382
deactivated,workbench,org.eclipse.ui.workbench,3.6.1.M20100826-1330,"",1294634808683
activated,workbench,org.eclipse.ui.workbench,3.6.1.M20100826-1330,"",1294634887985
deactivated,workbench,org.eclipse.ui.workbench,3.6.1.M20100826-1330,"",1294634905707
activated,workbench,org.eclipse.ui.workbench,3.6.1.M20100826-1330,"",1294634907616
started,bundle,org.eclipse.pde.launching,3.6.0.v20100601,"org.eclipse.pde.launching",1294634952507
started,bundle,org.eclipse.ui.views.log,1.0.100.v20100423,"org.eclipse.ui.views.log",1294634952538
started,bundle,org.eclipse.pde.ui,3.6.1.v20100810_r361,"org.eclipse.pde.ui",1294634952538
executed,command,org.eclipse.ui,3.6.1.M20100826-1330,"org.eclipse.ui.edit.text.contentAssist.proposals",1294634965771
executed,command,org.eclipse.ui.workbench.texteditor,3.6.1.r361_v20100714-0800,"org.eclipse.ui.edit.text.goto.lineEnd",1294634967804
executed,command,org.eclipse.ui,3.6.1.M20100826-1330,"org.eclipse.ui.edit.text.contentAssist.proposals",1294634969665
executed,command,org.eclipse.ui.workbench.texteditor,3.6.1.r361_v20100714-0800,"org.eclipse.ui.edit.text.goto.lineEnd",1294634973200
executed,command,org.eclipse.ui,3.6.1.M20100826-1330,"org.eclipse.ui.file.save",1294634974858
executed,command,org.eclipse.ui,3.6.1.M20100826-1330,"org.eclipse.ui.edit.text.contentAssist.proposals",1294634978800
executed,command,org.eclipse.ui.workbench.texteditor,3.6.1.r361_v20100714-0800,"org.eclipse.ui.edit.text.select.lineStart",1294634980004
executed,command,org.eclipse.ui,3.6.1.M20100826-1330,"org.eclipse.ui.edit.delete",1294634980255
opened,view,org.eclipse.jdt.ui,3.6.1.r361_v20100825-0800,"org.eclipse.jdt.ui.PackageExplorer",1294634983211
opened,view,org.eclipse.ui.ide,3.6.1.M20100825-0800,"org.eclipse.ui.views.ProblemView",1294634983461
opened,view,org.eclipse.ui.console,3.5.0.v20100526,"org.eclipse.ui.console.ConsoleView",1294634983555
started,bundle,org.eclipse.search,3.6.0.v20100520-0800,"org.eclipse.search",1294634983758
opened,view,org.eclipse.mylyn.tasks.ui,3.4.2.v20100902-0100-e3x,"org.eclipse.mylyn.tasks.ui.views.tasks",1294634984056
opened,view,org.eclipse.ui.views,3.5.0.I20100527-0800,"org.eclipse.ui.views.ContentOutline",1294634984181
activated,view,org.eclipse.jdt.ui,3.6.1.r361_v20100825-0800,"org.eclipse.jdt.ui.PackageExplorer",1294634985510
started,bundle,org.eclipse.wst.ws.service.policy.ui,1.0.202.v201004211732,"org.eclipse.wst.ws.service.policy.ui",1294634985776
started,bundle,org.eclipse.wst.ws.service.policy,1.0.203.v201004211732,"org.eclipse.wst.ws.service.policy",1294634985807
started,bundle,org.eclipse.wst.command.env,1.0.409.v201004211805,"org.eclipse.wst.command.env",1294634985901
started,bundle,org.eclipse.wst.ws,1.1.203.v201004211805,"org.eclipse.wst.ws",1294634985917
started,bundle,org.eclipse.wst.common.frameworks.ui,1.2.0.v201004080500,"org.eclipse.wst.common.frameworks.ui",1294634986105
started,bundle,org.eclipse.wst.common.core,1.2.0.v200908252030,"org.eclipse.wst.common.core",1294634986105
started,bundle,com.instantiations.designer.gwt.wizards,8.1.1.r36x201012191837,"com.instantiations.designer.gwt.wizards",1294634986324
started,bundle,org.eclipse.compare,3.5.100.I20100526-0800,"org.eclipse.compare",1294634986605
deactivated,workbench,org.eclipse.ui.workbench,3.6.1.M20100826-1330,"",1294634992455
activated,workbench,org.eclipse.ui.workbench,3.6.1.M20100826-1330,"",1294634998008
started,bundle,com.google.gdt.eclipse.maven,1.4.2.v201012211742,"com.google.gdt.eclipse.maven",1294634998102
activated,editor,com.instantiations.designer.core.ui,,"com.instantiations.designer.core.guiEditor",1294635001744
executed,command,org.eclipse.ui,3.6.1.M20100826-1330,"org.eclipse.ui.edit.text.contentAssist.proposals",1294635003807
executed,command,org.eclipse.ui,3.6.1.M20100826-1330,"org.eclipse.ui.edit.text.contentAssist.proposals",1294635006042
executed,command,org.eclipse.ui.workbench.texteditor,3.6.1.r361_v20100714-0800,"org.eclipse.ui.edit.text.goto.lineEnd",1294635011935
executed,command,org.eclipse.ui,3.6.1.M20100826-1330,"org.eclipse.ui.file.save",1294635017265
executed,command,org.eclipse.ui.ide,3.6.1.M20100825-0800,"org.eclipse.jdt.ui.edit.text.java.correction.assist.proposals",1294635020016
executed,command,org.eclipse.ui.workbench.texteditor,3.6.1.r361_v20100714-0800,"org.eclipse.ui.edit.text.goto.lineEnd",1294635022017
executed,command,org.eclipse.ui.workbench.texteditor,3.6.1.r361_v20100714-0800,"org.eclipse.ui.edit.text.goto.wordNext",1294635023002
executed,command,org.eclipse.ui.workbench.texteditor,3.6.1.r361_v20100714-0800,"org.eclipse.ui.edit.text.goto.wordNext",1294635023205
executed,command,org.eclipse.ui.workbench.texteditor,3.6.1.r361_v20100714-0800,"org.eclipse.ui.edit.text.goto.wordNext",1294635023377
executed,command,org.eclipse.ui.workbench.texteditor,3.6.1.r361_v20100714-0800,"org.eclipse.ui.edit.text.goto.wordNext",1294635023549
executed,command,org.eclipse.ui.workbench.texteditor,3.6.1.r361_v20100714-0800,"org.eclipse.ui.edit.text.goto.wordNext",1294635023752
executed,command,org.eclipse.ui,3.6.1.M20100826-1330,"org.eclipse.ui.file.save",1294635025909
executed,command,org.eclipse.ui.workbench.texteditor,3.6.1.r361_v20100714-0800,"org.eclipse.ui.edit.text.select.lineStart",1294635045854
executed,command,org.eclipse.ui,3.6.1.M20100826-1330,"org.eclipse.ui.edit.delete",1294635046136
executed,command,org.eclipse.ui,3.6.1.M20100826-1330,"org.eclipse.ui.file.save",1294635046495
activated,view,org.eclipse.jdt.ui,3.6.1.r361_v20100825-0800,"org.eclipse.jdt.ui.PackageExplorer",1294635053623
opened,editor,org.eclipse.jdt.ui,3.6.1.r361_v20100825-0800,"org.eclipse.jdt.ui.CompilationUnitEditor",1294635063173
activated,editor,org.eclipse.jdt.ui,3.6.1.r361_v20100825-0800,"org.eclipse.jdt.ui.CompilationUnitEditor",1294635063361
executed,command,org.eclipse.ui,3.6.1.M20100826-1330,"org.eclipse.ui.file.refresh",1294635064643
executed,command,org.eclipse.ui,3.6.1.M20100826-1330,"org.eclipse.ui.file.save",1294635075647
deactivated,workbench,org.eclipse.ui.workbench,3.6.1.M20100826-1330,"",1294635079304
activated,workbench,org.eclipse.ui.workbench,3.6.1.M20100826-1330,"",1294635138295
deactivated,workbench,org.eclipse.ui.workbench,3.6.1.M20100826-1330,"",1294635142234
activated,workbench,org.eclipse.ui.workbench,3.6.1.M20100826-1330,"",1294635145220
executed,command,org.eclipse.ui,3.6.1.M20100826-1330,"org.eclipse.ui.edit.paste",1294635146533
executed,command,org.eclipse.ui,3.6.1.M20100826-1330,"org.eclipse.ui.file.save",1294635147627
executed,command,org.eclipse.ui.workbench.texteditor,3.6.1.r361_v20100714-0800,"org.eclipse.ui.edit.text.goto.wordPrevious",1294635148737
executed,command,org.eclipse.ui.workbench.texteditor,3.6.1.r361_v20100714-0800,"org.eclipse.ui.edit.text.goto.wordPrevious",1294635148940
executed,command,org.eclipse.ui.workbench.texteditor,3.6.1.r361_v20100714-0800,"org.eclipse.ui.edit.text.goto.wordPrevious",1294635149128
deactivated,workbench,org.eclipse.ui.workbench,3.6.1.M20100826-1330,"",1294635150144
activated,workbench,org.eclipse.ui.workbench,3.6.1.M20100826-1330,"",1294635152504
executed,command,org.eclipse.ui,3.6.1.M20100826-1330,"org.eclipse.ui.edit.paste",1294635153410
executed,command,org.eclipse.ui,3.6.1.M20100826-1330,"org.eclipse.ui.edit.undo",1294635155020
deactivated,workbench,org.eclipse.ui.workbench,3.6.1.M20100826-1330,"",1294635157318
activated,workbench,org.eclipse.ui.workbench,3.6.1.M20100826-1330,"",1294635160194
executed,command,org.eclipse.ui,3.6.1.M20100826-1330,"org.eclipse.ui.edit.paste",1294635161038
