what,kind,bundleId,bundleVersion,description,time
started,bundle,org.eclipse.equinox.p2.core,2.0.2.R36x_v20100804,"org.eclipse.equinox.p2.core",1295627747265
started,bundle,org.eclipse.equinox.p2.directorywatcher,1.0.202.R36x_v20100727,"org.eclipse.equinox.p2.directorywatcher",1295627747265
started,bundle,org.eclipse.equinox.p2.engine,2.0.0.v20100606,"org.eclipse.equinox.p2.engine",1295627747265
started,bundle,org.eclipse.equinox.p2.metadata,2.0.0.v20100601,"org.eclipse.equinox.p2.metadata",1295627747265
started,bundle,org.eclipse.equinox.p2.metadata.repository,1.1.0.v20100513,"org.eclipse.equinox.p2.metadata.repository",1295627747265
started,bundle,org.eclipse.equinox.p2.operations,2.0.0.v20100510,"org.eclipse.equinox.p2.operations",1295627747265
started,bundle,org.eclipse.equinox.p2.reconciler.dropins,1.1.0.v20100525,"org.eclipse.equinox.p2.reconciler.dropins",1295627747265
started,bundle,org.eclipse.equinox.p2.repository,2.0.1.R36x_v20100823,"org.eclipse.equinox.p2.repository",1295627747265
started,bundle,org.eclipse.equinox.p2.ui.sdk.scheduler,1.0.0.v20100507-1815,"org.eclipse.equinox.p2.ui.sdk.scheduler",1295627747265
started,bundle,org.eclipse.equinox.p2.updatechecker,1.1.101.R36x_v20100823,"org.eclipse.equinox.p2.updatechecker",1295627747265
started,bundle,org.eclipse.equinox.preferences,3.3.0.v20100503,"org.eclipse.equinox.preferences",1295627747265
started,bundle,org.eclipse.equinox.registry,3.5.0.v20100503,"org.eclipse.equinox.registry",1295627747265
started,bundle,org.eclipse.equinox.security,1.0.200.v20100503,"org.eclipse.equinox.security",1295627747265
started,bundle,org.eclipse.equinox.util,1.0.200.v20100503,"org.eclipse.equinox.util",1295627747265
started,bundle,org.eclipse.help,3.5.0.v20100524,"org.eclipse.help",1295627747265
started,bundle,org.eclipse.jdt.apt.core,3.3.401.R36_v20100727-0110,"org.eclipse.jdt.apt.core",1295627747265
started,bundle,org.eclipse.jdt.core,3.6.1.v_A68_R36x,"org.eclipse.jdt.core",1295627747265
started,bundle,org.eclipse.jdt.core.manipulation,1.3.0.v20100520-0800,"org.eclipse.jdt.core.manipulation",1295627747265
started,bundle,org.eclipse.jdt.debug,3.6.1.v20100715_r361,"org.eclipse.jdt.debug",1295627747265
started,bundle,org.eclipse.jdt.debug.ui,3.5.0.v20100602-0830,"org.eclipse.jdt.debug.ui",1295627747265
started,bundle,org.eclipse.jdt.launching,3.5.100.v20100526,"org.eclipse.jdt.launching",1295627747265
started,bundle,org.eclipse.jdt.ui,3.6.1.r361_v20100825-0800,"org.eclipse.jdt.ui",1295627747265
started,bundle,org.eclipse.jface,3.6.1.M20100825-0800,"org.eclipse.jface",1295627747265
started,bundle,org.eclipse.jsch.core,1.1.200.I20100505-1245,"org.eclipse.jsch.core",1295627747265
started,bundle,org.eclipse.jst.ws.jaxws.utils,1.0.0.v201004171919,"org.eclipse.jst.ws.jaxws.utils",1295627747265
started,bundle,org.eclipse.ltk.core.refactoring,3.5.100.v20100526-0800,"org.eclipse.ltk.core.refactoring",1295627747265
started,bundle,org.eclipse.ltk.ui.refactoring,3.5.0.v20100526-0800,"org.eclipse.ltk.ui.refactoring",1295627747265
started,bundle,org.eclipse.mylyn.bugzilla.core,3.4.2.v20100902-0100-e3x,"org.eclipse.mylyn.bugzilla.core",1295627747265
started,bundle,org.eclipse.mylyn.bugzilla.ui,3.4.2.v20100909-0100-e3x,"org.eclipse.mylyn.bugzilla.ui",1295627747265
started,bundle,org.eclipse.mylyn.commons.net,3.4.1.v20100625-2100-e3x,"org.eclipse.mylyn.commons.net",1295627747265
started,bundle,org.eclipse.mylyn.commons.ui,3.4.0.v20100608-0100-e3x,"org.eclipse.mylyn.commons.ui",1295627747265
started,bundle,org.eclipse.mylyn.context.core,3.4.1.v20100909-0100-e3x,"org.eclipse.mylyn.context.core",1295627747265
started,bundle,org.eclipse.mylyn.context.ui,3.4.1.v20100909-0100-e3x,"org.eclipse.mylyn.context.ui",1295627747265
started,bundle,org.eclipse.mylyn.monitor.ui,3.4.0.v20100608-0100-e3x,"org.eclipse.mylyn.monitor.ui",1295627747265
started,bundle,org.eclipse.mylyn.tasks.ui,3.4.2.v20100902-0100-e3x,"org.eclipse.mylyn.tasks.ui",1295627747265
started,bundle,org.eclipse.mylyn.team.ui,3.4.2.v20100909-0100-e3x,"org.eclipse.mylyn.team.ui",1295627747265
started,bundle,org.eclipse.pde.launching,3.6.0.v20100601,"org.eclipse.pde.launching",1295627747265
started,bundle,org.eclipse.pde.ui,3.6.1.v20100810_r361,"org.eclipse.pde.ui",1295627747265
started,bundle,org.eclipse.search,3.6.0.v20100520-0800,"org.eclipse.search",1295627747265
started,bundle,org.eclipse.team.core,3.5.100.R36x_v20100825-0800,"org.eclipse.team.core",1295627747265
started,bundle,org.eclipse.team.cvs.core,3.3.300.I20100526-0800,"org.eclipse.team.cvs.core",1295627747265
started,bundle,org.eclipse.team.cvs.ui,3.3.301.R36x_v20100825-0800,"org.eclipse.team.cvs.ui",1295627747265
started,bundle,org.eclipse.team.ui,3.5.101.R36x_v20100825-0800,"org.eclipse.team.ui",1295627747265
started,bundle,org.eclipse.ui,3.6.1.M20100826-1330,"org.eclipse.ui",1295627747265
started,bundle,org.eclipse.ui.console,3.5.0.v20100526,"org.eclipse.ui.console",1295627747265
started,bundle,org.eclipse.ui.editors,3.6.1.r361_v20100825-0800,"org.eclipse.ui.editors",1295627747265
started,bundle,org.eclipse.ui.forms,3.5.2.r36_v20100702,"org.eclipse.ui.forms",1295627747265
started,bundle,org.eclipse.ui.ide,3.6.1.M20100825-0800,"org.eclipse.ui.ide",1295627747265
started,bundle,org.eclipse.ui.net,1.2.100.I20100505-1245,"org.eclipse.ui.net",1295627747265
started,bundle,org.eclipse.ui.views,3.5.0.I20100527-0800,"org.eclipse.ui.views",1295627747265
started,bundle,org.eclipse.ui.views.log,1.0.100.v20100423,"org.eclipse.ui.views.log",1295627747265
started,bundle,org.eclipse.ui.workbench,3.6.1.M20100826-1330,"org.eclipse.ui.workbench",1295627747265
started,bundle,org.eclipse.ui.workbench.texteditor,3.6.1.r361_v20100714-0800,"org.eclipse.ui.workbench.texteditor",1295627747265
started,bundle,org.eclipse.update.configurator,3.3.100.v20100512,"org.eclipse.update.configurator",1295627747265
started,bundle,org.eclipse.update.scheduler,3.2.300.v20100512,"org.eclipse.update.scheduler",1295627747265
started,bundle,org.eclipse.wst.common.project.facet.core,1.4.102.v201008170019,"org.eclipse.wst.common.project.facet.core",1295627747265
started,bundle,org.eclipse.wst.web,1.1.401.v201007151900,"org.eclipse.wst.web",1295627747265
started,bundle,com.collabnet.subversion.merge,2.2.1,"com.collabnet.subversion.merge",1295627747265
started,bundle,org.tigris.subversion.clientadapter,1.6.12,"org.tigris.subversion.clientadapter",1295627747265
started,bundle,org.tigris.subversion.subclipse.core,1.6.15,"org.tigris.subversion.subclipse.core",1295627747265
started,bundle,org.tigris.subversion.subclipse.mylyn,3.0.0,"org.tigris.subversion.subclipse.mylyn",1295627747265
started,bundle,org.tigris.subversion.subclipse.ui,1.6.16,"org.tigris.subversion.subclipse.ui",1295627747265
os,sysinfo,,,"win32",1295627747281
arch,sysinfo,,,"x86",1295627747281
ws,sysinfo,,,"win32",1295627747281
locale,sysinfo,,,"en_US",1295627747281
processors,sysinfo,,,"2",1295627747281
java.runtime.name,sysinfo,,,"Java(TM) SE Runtime Environment",1295627747281
java.runtime.version,sysinfo,,,"1.6.0_23-b05",1295627747281
java.specification.name,sysinfo,,,"Java Platform API Specification",1295627747281
java.specification.vendor,sysinfo,,,"Sun Microsystems Inc.",1295627747281
java.specification.version,sysinfo,,,"1.6",1295627747281
java.vendor,sysinfo,,,"Sun Microsystems Inc.",1295627747281
java.version,sysinfo,,,"1.6.0_23",1295627747281
java.vm.info,sysinfo,,,"mixed mode",1295627747281
java.vm.name,sysinfo,,,"Java HotSpot(TM) Client VM",1295627747281
java.vm.specification.name,sysinfo,,,"Java Virtual Machine Specification",1295627747281
java.vm.specification.vendor,sysinfo,,,"Sun Microsystems Inc.",1295627747281
java.vm.specification.version,sysinfo,,,"1.0",1295627747281
java.vm.vendor,sysinfo,,,"Sun Microsystems Inc.",1295627747281
java.vm.version,sysinfo,,,"19.0-b09",1295627747281
started,bundle,org.eclipse.update.core,3.2.402.R36x_v20100629,"org.eclipse.update.core",1295627747359
started,bundle,org.eclipse.emf.common,2.6.0.v20100914-1218,"org.eclipse.emf.common",1295627747359
started,bundle,org.tigris.subversion.subclipse.tools.usage,1.0.1,"org.tigris.subversion.subclipse.tools.usage",1295627747406
deactivated,workbench,org.eclipse.ui.workbench,3.6.1.M20100826-1330,"",1295627747484
started,bundle,org.eclipse.emf.ecore,2.6.1.v20100914-1218,"org.eclipse.emf.ecore",1295627747781
started,bundle,org.eclipse.emf.ecore.xmi,2.5.0.v20100521-1846,"org.eclipse.emf.ecore.xmi",1295627748500
started,bundle,org.eclipse.jst.common.project.facet.core,1.4.102.v201008182136,"org.eclipse.jst.common.project.facet.core",1295627749453
started,bundle,org.eclipse.jst.ws.jaxrs.core,1.0.200.v201008201800,"org.eclipse.jst.ws.jaxrs.core",1295627749578
started,bundle,org.eclipse.epp.usagedata.ui,1.3.0.R201005261100,"org.eclipse.epp.usagedata.ui",1295627749859
activated,workbench,org.eclipse.ui.workbench,3.6.1.M20100826-1330,"",1295627795234
deactivated,workbench,org.eclipse.ui.workbench,3.6.1.M20100826-1330,"",1295627796656
activated,workbench,org.eclipse.ui.workbench,3.6.1.M20100826-1330,"",1295627796812
started,bundle,com.instantiations.designer.gwt.wizards,8.1.1.r36x201012191837,"com.instantiations.designer.gwt.wizards",1295628482078
executed,command,org.eclipse.ui,3.6.1.M20100826-1330,"org.eclipse.ui.edit.undo",1295628865234
opened,editor,com.instantiations.designer.core.ui,,"com.instantiations.designer.core.guiEditor",1295629428140
activated,editor,com.instantiations.designer.core.ui,,"com.instantiations.designer.core.guiEditor",1295629428234
started,bundle,org.eclipse.wst.server.core,1.1.204.v20100908,"org.eclipse.wst.server.core",1295629429093
started,bundle,org.eclipse.wst.server.ui,1.1.205.v20100908,"org.eclipse.wst.server.ui",1295629429125
started,bundle,org.eclipse.wst.jsdt.debug.ui,1.0.1.v201008170101,"org.eclipse.wst.jsdt.debug.ui",1295629429375
deactivated,workbench,org.eclipse.ui.workbench,3.6.1.M20100826-1330,"",1295629439406
activated,workbench,org.eclipse.ui.workbench,3.6.1.M20100826-1330,"",1295629463328
activated,view,org.eclipse.jdt.ui,3.6.1.r361_v20100825-0800,"org.eclipse.jdt.ui.PackageExplorer",1295629463375
activated,editor,com.instantiations.designer.core.ui,,"com.instantiations.designer.core.guiEditor",1295629463906
opened,editor,com.instantiations.designer.core.ui,,"com.instantiations.designer.core.guiEditor",1295629473578
activated,editor,com.instantiations.designer.core.ui,,"com.instantiations.designer.core.guiEditor",1295629473671
activated,editor,com.instantiations.designer.core.ui,,"com.instantiations.designer.core.guiEditor",1295629474906
deactivated,workbench,org.eclipse.ui.workbench,3.6.1.M20100826-1330,"",1295629480140
started,bundle,com.instantiations.designer.runtime.lib,8.1.1.r36x201012191024,"com.instantiations.designer.runtime.lib",1295629480500
started,bundle,com.instantiations.designer.gwt.GWTExt,8.1.1.r36x201012191837,"com.instantiations.designer.gwt.GWTExt",1295629480750
started,bundle,com.instantiations.designer.swing.FormLayout,8.1.1.r36x201012170656,"com.instantiations.designer.swing.FormLayout",1295629480828
started,bundle,com.instantiations.designer.swing.hc,8.1.1.r36x201012170656,"com.instantiations.designer.swing.hc",1295629480843
started,bundle,org.eclipse.pde.core,3.6.1.v20100902_r361,"org.eclipse.pde.core",1295629481250
started,bundle,org.eclipse.pde,3.6.1.v201009090800,"org.eclipse.pde",1295629481265
started,bundle,org.eclipse.equinox.simpleconfigurator.manipulator,2.0.0.v20100503,"org.eclipse.equinox.simpleconfigurator.manipulator",1295629481406
started,bundle,org.eclipse.equinox.frameworkadmin,2.0.0.v20100503,"org.eclipse.equinox.frameworkadmin",1295629481421
started,bundle,com.instantiations.designer.core.apiImpl,8.1.1.r36x201012191024,"com.instantiations.designer.core.apiImpl",1295629494359
started,bundle,com.instantiations.designer.swing.jsr296,8.1.1.r36x201012170656,"com.instantiations.designer.swing.jsr296",1295629499828
started,bundle,com.instantiations.designer.swing.MigLayout.lib,8.1.1.r36x201012170656,"com.instantiations.designer.swing.MigLayout.lib",1295629500125
started,bundle,com.instantiations.designer.swing.MigLayout,8.1.1.r36x201012170656,"com.instantiations.designer.swing.MigLayout",1295629500140
started,bundle,com.instantiations.designer.swing.java6,8.1.1.r36x201012170656,"com.instantiations.designer.swing.java6",1295629500156
started,bundle,com.instantiations.designer.layout.group,8.1.1.r36x201012161545,"com.instantiations.designer.layout.group",1295629500156
activated,workbench,org.eclipse.ui.workbench,3.6.1.M20100826-1330,"",1295629500906
activated,editor,com.instantiations.designer.core.ui,,"com.instantiations.designer.core.guiEditor",1295629505546
deactivated,workbench,org.eclipse.ui.workbench,3.6.1.M20100826-1330,"",1295629507593
activated,workbench,org.eclipse.ui.workbench,3.6.1.M20100826-1330,"",1295629510312
deactivated,workbench,org.eclipse.ui.workbench,3.6.1.M20100826-1330,"",1295629728203
opened,view,org.eclipse.ui.console,3.5.0.v20100526,"org.eclipse.ui.console.ConsoleView",1295631652671
activated,workbench,org.eclipse.ui.workbench,3.6.1.M20100826-1330,"",1295631652734
activated,view,org.eclipse.ui.console,3.5.0.v20100526,"org.eclipse.ui.console.ConsoleView",1295631652750
deactivated,workbench,org.eclipse.ui.workbench,3.6.1.M20100826-1330,"",1295631658671
activated,workbench,org.eclipse.ui.workbench,3.6.1.M20100826-1330,"",1295631741421
activated,editor,com.instantiations.designer.core.ui,,"com.instantiations.designer.core.guiEditor",1295631742796
deactivated,workbench,org.eclipse.ui.workbench,3.6.1.M20100826-1330,"",1295631754093
activated,workbench,org.eclipse.ui.workbench,3.6.1.M20100826-1330,"",1295631757812
opened,editor,org.eclipse.jdt.ui,3.6.1.r361_v20100825-0800,"org.eclipse.jdt.ui.CompilationUnitEditor",1295631757953
activated,editor,org.eclipse.jdt.ui,3.6.1.r361_v20100825-0800,"org.eclipse.jdt.ui.CompilationUnitEditor",1295631758046
executed,command,org.eclipse.jdt.ui,3.6.1.r361_v20100825-0800,"org.eclipse.jdt.ui.navigate.open.type",1295631758171
started,bundle,org.eclipse.jdt.junit,3.6.1.r361_v20100825-0800,"org.eclipse.jdt.junit",1295631764062
started,bundle,org.eclipse.mylyn.ide.ui,3.4.0.v20100608-0100-e3x,"org.eclipse.mylyn.ide.ui",1295631775171
started,bundle,org.eclipse.jst.ws.jaxws.ui,1.0.1.v201008232129,"org.eclipse.jst.ws.jaxws.ui",1295631775250
started,bundle,org.eclipse.mylyn.java.ui,3.4.0.v20100608-0100-e3x,"org.eclipse.mylyn.java.ui",1295631775312
started,bundle,org.eclipse.pde.api.tools,1.0.202.v20100820_r361,"org.eclipse.pde.api.tools",1295631775546
started,bundle,org.eclipse.pde.api.tools.ui,1.0.201.v20100820_r361,"org.eclipse.pde.api.tools.ui",1295631775562
executed,command,org.eclipse.ui,3.6.1.M20100826-1330,"org.eclipse.ui.file.save",1295631780546
started,bundle,org.eclipse.wst.common.frameworks,1.2.0.v201003040800,"org.eclipse.wst.common.frameworks",1295631781000
started,bundle,org.eclipse.wst.common.emf,1.2.1.v201008260500,"org.eclipse.wst.common.emf",1295631781125
started,bundle,org.eclipse.jem.util,2.1.2.v201008120100,"org.eclipse.jem.util",1295631781734
started,bundle,org.eclipse.wst.common.emfworkbench.integration,1.2.2.v201008242000,"org.eclipse.wst.common.emfworkbench.integration",1295631781750
started,bundle,org.eclipse.wst.common.core,1.2.0.v200908252030,"org.eclipse.wst.common.core",1295631781781
started,bundle,org.eclipse.wst.common.modulecore,1.2.3.v201008242000,"org.eclipse.wst.common.modulecore",1295631781796
started,bundle,org.eclipse.jst.j2ee.core,1.2.2.v201008120100,"org.eclipse.jst.j2ee.core",1295631781828
started,bundle,org.eclipse.jem,2.0.400.v201005110200,"org.eclipse.jem",1295631781859
started,bundle,org.eclipse.wst.common.frameworks.ui,1.2.0.v201004080500,"org.eclipse.wst.common.frameworks.ui",1295631781890
started,bundle,org.eclipse.wst.xml.core,1.1.502.v201009010342,"org.eclipse.wst.xml.core",1295631781921
started,bundle,org.eclipse.wst.validation,1.2.200.v201005271900,"org.eclipse.wst.validation",1295631781953
started,bundle,org.eclipse.jst.j2ee,1.1.402.v201009151730,"org.eclipse.jst.j2ee",1295631782031
started,bundle,org.eclipse.jst.server.core,1.2.101.v20100421,"org.eclipse.jst.server.core",1295631782078
started,bundle,org.eclipse.jst.jee,1.0.301.v201007151900,"org.eclipse.jst.jee",1295631782203
deactivated,workbench,org.eclipse.ui.workbench,3.6.1.M20100826-1330,"",1295631785140
activated,workbench,org.eclipse.ui.workbench,3.6.1.M20100826-1330,"",1295631788203
started,bundle,org.eclipse.wst.jsdt.debug.core,1.0.1.v201008170101,"org.eclipse.wst.jsdt.debug.core",1295632310140
closed,workbench,org.eclipse.ui.workbench,3.6.1.M20100826-1330,"",1295632310546
stopped,bundle,com.google.appengine.eclipse.sdkbundle.1.4.0,1.4.0.v201012021502,"com.google.appengine.eclipse.sdkbundle.1.4.0",1295632315046
stopped,bundle,com.google.gdt.eclipse.maven,1.4.2.v201012211742,"com.google.gdt.eclipse.maven",1295632315046
stopped,bundle,com.google.gdt.eclipse.suite,1.4.2.v201012211742,"com.google.gdt.eclipse.suite",1295632315046
stopped,bundle,com.google.appengine.eclipse.core,1.4.2.v201012211742,"com.google.appengine.eclipse.core",1295632315062
stopped,bundle,com.google.gwt.eclipse.oophm,1.4.2.v201012211742,"com.google.gwt.eclipse.oophm",1295632315062
stopped,bundle,com.google.gwt.eclipse.sdkbundle.2.1.1,2.1.1.v201012170127,"com.google.gwt.eclipse.sdkbundle.2.1.1",1295632315062
stopped,bundle,com.google.gwt.eclipse.core,1.4.2.v201012211742,"com.google.gwt.eclipse.core",1295632315109
stopped,bundle,com.google.gdt.eclipse.core,1.4.2.v201012211742,"com.google.gdt.eclipse.core",1295632315109
stopped,bundle,com.google.gdt.eclipse.platform,1.4.2.v201012211742,"com.google.gdt.eclipse.platform",1295632315109
stopped,bundle,com.google.gdt.eclipse.platform.e36,1.4.2.v201012211742,"com.google.gdt.eclipse.platform.e36",1295632315109
stopped,bundle,com.google.gdt.eclipse.platform.shared,1.4.2.v201012211742,"com.google.gdt.eclipse.platform.shared",1295632315109
stopped,bundle,org.eclipse.jst.j2ee.xdoclet.runtime,1.1.300.v201004280700,"org.eclipse.jst.j2ee.xdoclet.runtime",1295632315125
stopped,bundle,org.eclipse.jst.j2ee.ejb.annotations.xdoclet,1.2.100.v201003112036,"org.eclipse.jst.j2ee.ejb.annotations.xdoclet",1295632315125
stopped,bundle,org.eclipse.jst.server.generic.jboss,1.6.1.v200904151730,"org.eclipse.jst.server.generic.jboss",1295632315156
stopped,bundle,org.eclipse.jst.server.generic.jonas,1.5.205.v200805140145,"org.eclipse.jst.server.generic.jonas",1295632315203
stopped,bundle,org.eclipse.jst.server.generic.oc4j,1.5.206.v20090812,"org.eclipse.jst.server.generic.oc4j",1295632315250
stopped,bundle,org.eclipse.jst.server.websphere.core,1.0.302.v20080620,"org.eclipse.jst.server.websphere.core",1295632315296
stopped,bundle,org.eclipse.jst.server.generic.ui,1.0.505.v20100428,"org.eclipse.jst.server.generic.ui",1295632315328
stopped,bundle,org.eclipse.jst.server.generic.core,1.0.606.v20100512,"org.eclipse.jst.server.generic.core",1295632315328
stopped,bundle,org.eclipse.mylyn.ide.ant,3.4.0.v20100608-0100-e3x,"org.eclipse.mylyn.ide.ant",1295632315328
stopped,bundle,com.instantiations.designer.core.databinding.xml,8.1.1.r36x201012191058,"com.instantiations.designer.core.databinding.xml",1295632315343
stopped,bundle,com.instantiations.designer.gxt.databinding,8.1.1.r36x201012191837,"com.instantiations.designer.gxt.databinding",1295632315343
stopped,bundle,com.instantiations.designer.swing.databinding,8.1.1.r36x201012170656,"com.instantiations.designer.swing.databinding",1295632315343
stopped,bundle,com.instantiations.designer.core.databinding,8.1.1.r36x201012191024,"com.instantiations.designer.core.databinding",1295632315343
stopped,bundle,org.eclipse.datatools.connectivity.oda.template.ui,3.2.1.v201004090942,"org.eclipse.datatools.connectivity.oda.template.ui",1295632315343
stopped,bundle,org.eclipse.pde.api.tools.ui,1.0.201.v20100820_r361,"org.eclipse.pde.api.tools.ui",1295632315343
stopped,bundle,org.eclipse.pde.ds.ui,1.0.100.v20100601,"org.eclipse.pde.ds.ui",1295632315359
stopped,bundle,org.eclipse.pde.runtime,3.4.200.v20100601,"org.eclipse.pde.runtime",1295632315375
stopped,bundle,org.eclipse.pde.ua.ui,1.0.100.v20100504,"org.eclipse.pde.ua.ui",1295632315390
stopped,bundle,org.eclipse.pde.ui.templates,3.4.200.v20100601,"org.eclipse.pde.ui.templates",1295632315406
stopped,bundle,org.eclipse.pde.ui,3.6.1.v20100810_r361,"org.eclipse.pde.ui",1295632315406
stopped,bundle,org.eclipse.ant.ui,3.5.0.v20100427,"org.eclipse.ant.ui",1295632315406
stopped,bundle,org.eclipse.ant.launching,1.0.0.v20100427,"org.eclipse.ant.launching",1295632315421
stopped,bundle,com.instantiations.designer.gwt.ExtGWT,8.1.1.r36x201012191837,"com.instantiations.designer.gwt.ExtGWT",1295632315421
stopped,bundle,com.instantiations.designer.gwt.GWTExt,8.1.1.r36x201012191837,"com.instantiations.designer.gwt.GWTExt",1295632315421
stopped,bundle,com.instantiations.designer.gwt.SmartGWT,8.1.1.r36x201012191837,"com.instantiations.designer.gwt.SmartGWT",1295632315421
stopped,bundle,com.instantiations.designer.gwt.UiBinder.wizards,8.1.1.r36x201012191837,"com.instantiations.designer.gwt.UiBinder.wizards",1295632315421
stopped,bundle,com.instantiations.designer.gwt.UiBinder,8.1.1.r36x201012191114,"com.instantiations.designer.gwt.UiBinder",1295632315421
stopped,bundle,com.instantiations.designer.gwt.launch,8.1.1.r36x201012191837,"com.instantiations.designer.gwt.launch",1295632315421
stopped,bundle,com.instantiations.designer.gwt.preferences,8.1.1.r36x201012191837,"com.instantiations.designer.gwt.preferences",1295632315421
stopped,bundle,com.instantiations.designer.gwt.wizards,8.1.1.r36x201012191837,"com.instantiations.designer.gwt.wizards",1295632315421
stopped,bundle,com.instantiations.designer.gwt,8.1.1.r36x201012191114,"com.instantiations.designer.gwt",1295632315421
stopped,bundle,org.eclipse.compare.win32,1.0.100.I20100505-1245,"org.eclipse.compare.win32",1295632315437
stopped,bundle,org.eclipse.equinox.p2.ui.sdk,1.0.100.v20100513,"org.eclipse.equinox.p2.ui.sdk",1295632315468
stopped,bundle,org.eclipse.jst.server.tomcat.ui,1.1.200.v20100418,"org.eclipse.jst.server.tomcat.ui",1295632315515
